(kicad_sch (version 20211123) (generator eeschema)

  (uuid f335fb10-7244-4c66-a2fa-0006cc700d1a)

  (paper "A4")

  (lib_symbols
    (symbol "RF_GPS:ublox_SAM-M8Q" (in_bom yes) (on_board yes)
      (property "Reference" "U" (id 0) (at -8.89 11.43 0)
        (effects (font (size 1.27 1.27)))
      )
      (property "Value" "RF_GPS_ublox_SAM-M8Q" (id 1) (at 11.43 11.43 0)
        (effects (font (size 1.27 1.27)))
      )
      (property "Footprint" "RF_GPS:ublox_SAM-M8Q" (id 2) (at 12.7 -11.43 0)
        (effects (font (size 1.27 1.27)) hide)
      )
      (property "Datasheet" "" (id 3) (at 0 0 0)
        (effects (font (size 1.27 1.27)) hide)
      )
      (property "ki_fp_filters" "ublox*SAM?M8Q*" (id 4) (at 0 0 0)
        (effects (font (size 1.27 1.27)) hide)
      )
      (symbol "ublox_SAM-M8Q_0_1"
        (rectangle (start -10.16 10.16) (end 10.16 -10.16)
          (stroke (width 0.254) (type default) (color 0 0 0 0))
          (fill (type background))
        )
      )
      (symbol "ublox_SAM-M8Q_1_1"
        (pin power_in line (at 0 -12.7 90) (length 2.54)
          (name "GND" (effects (font (size 1.27 1.27))))
          (number "1" (effects (font (size 1.27 1.27))))
        )
        (pin passive line (at 0 -12.7 90) (length 2.54) hide
          (name "GND" (effects (font (size 1.27 1.27))))
          (number "10" (effects (font (size 1.27 1.27))))
        )
        (pin passive line (at 0 -12.7 90) (length 2.54) hide
          (name "GND" (effects (font (size 1.27 1.27))))
          (number "11" (effects (font (size 1.27 1.27))))
        )
        (pin input line (at 12.7 -5.08 180) (length 2.54)
          (name "SCL" (effects (font (size 1.27 1.27))))
          (number "12" (effects (font (size 1.27 1.27))))
        )
        (pin output line (at 12.7 2.54 180) (length 2.54)
          (name "TXD" (effects (font (size 1.27 1.27))))
          (number "13" (effects (font (size 1.27 1.27))))
        )
        (pin input line (at 12.7 5.08 180) (length 2.54)
          (name "RXD" (effects (font (size 1.27 1.27))))
          (number "14" (effects (font (size 1.27 1.27))))
        )
        (pin passive line (at 0 -12.7 90) (length 2.54) hide
          (name "GND" (effects (font (size 1.27 1.27))))
          (number "15" (effects (font (size 1.27 1.27))))
        )
        (pin passive line (at 0 -12.7 90) (length 2.54) hide
          (name "GND" (effects (font (size 1.27 1.27))))
          (number "16" (effects (font (size 1.27 1.27))))
        )
        (pin power_in line (at -2.54 12.7 270) (length 2.54)
          (name "VCC" (effects (font (size 1.27 1.27))))
          (number "17" (effects (font (size 1.27 1.27))))
        )
        (pin input line (at -5.08 12.7 270) (length 2.54)
          (name "~{RESET}" (effects (font (size 1.27 1.27))))
          (number "18" (effects (font (size 1.27 1.27))))
        )
        (pin input line (at -12.7 2.54 0) (length 2.54)
          (name "EXTINT" (effects (font (size 1.27 1.27))))
          (number "19" (effects (font (size 1.27 1.27))))
        )
        (pin power_in line (at 0 12.7 270) (length 2.54)
          (name "VCC_IO" (effects (font (size 1.27 1.27))))
          (number "2" (effects (font (size 1.27 1.27))))
        )
        (pin passive line (at 0 -12.7 90) (length 2.54) hide
          (name "GND" (effects (font (size 1.27 1.27))))
          (number "20" (effects (font (size 1.27 1.27))))
        )
        (pin power_in line (at 2.54 12.7 270) (length 2.54)
          (name "V_BCKP" (effects (font (size 1.27 1.27))))
          (number "3" (effects (font (size 1.27 1.27))))
        )
        (pin passive line (at 0 -12.7 90) (length 2.54) hide
          (name "GND" (effects (font (size 1.27 1.27))))
          (number "4" (effects (font (size 1.27 1.27))))
        )
        (pin passive line (at 0 -12.7 90) (length 2.54) hide
          (name "GND" (effects (font (size 1.27 1.27))))
          (number "5" (effects (font (size 1.27 1.27))))
        )
        (pin passive line (at 0 -12.7 90) (length 2.54) hide
          (name "GND" (effects (font (size 1.27 1.27))))
          (number "6" (effects (font (size 1.27 1.27))))
        )
        (pin output line (at -12.7 0 0) (length 2.54)
          (name "TIMEPULSE" (effects (font (size 1.27 1.27))))
          (number "7" (effects (font (size 1.27 1.27))))
        )
        (pin input line (at -12.7 -2.54 0) (length 2.54)
          (name "~{SAFEBOOT}" (effects (font (size 1.27 1.27))))
          (number "8" (effects (font (size 1.27 1.27))))
        )
        (pin bidirectional line (at 12.7 -2.54 180) (length 2.54)
          (name "SDA" (effects (font (size 1.27 1.27))))
          (number "9" (effects (font (size 1.27 1.27))))
        )
      )
    )
    (symbol "power:+3.3V" (power) (pin_names (offset 0)) (in_bom yes) (on_board yes)
      (property "Reference" "#PWR" (id 0) (at 0 -3.81 0)
        (effects (font (size 1.27 1.27)) hide)
      )
      (property "Value" "+3.3V" (id 1) (at 0 3.556 0)
        (effects (font (size 1.27 1.27)))
      )
      (property "Footprint" "" (id 2) (at 0 0 0)
        (effects (font (size 1.27 1.27)) hide)
      )
      (property "Datasheet" "" (id 3) (at 0 0 0)
        (effects (font (size 1.27 1.27)) hide)
      )
      (property "ki_keywords" "power-flag" (id 4) (at 0 0 0)
        (effects (font (size 1.27 1.27)) hide)
      )
      (property "ki_description" "Power symbol creates a global label with name \"+3.3V\"" (id 5) (at 0 0 0)
        (effects (font (size 1.27 1.27)) hide)
      )
      (symbol "+3.3V_0_1"
        (polyline
          (pts
            (xy -0.762 1.27)
            (xy 0 2.54)
          )
          (stroke (width 0) (type default) (color 0 0 0 0))
          (fill (type none))
        )
        (polyline
          (pts
            (xy 0 0)
            (xy 0 2.54)
          )
          (stroke (width 0) (type default) (color 0 0 0 0))
          (fill (type none))
        )
        (polyline
          (pts
            (xy 0 2.54)
            (xy 0.762 1.27)
          )
          (stroke (width 0) (type default) (color 0 0 0 0))
          (fill (type none))
        )
      )
      (symbol "+3.3V_1_1"
        (pin power_in line (at 0 0 90) (length 0) hide
          (name "+3V3" (effects (font (size 1.27 1.27))))
          (number "1" (effects (font (size 1.27 1.27))))
        )
      )
    )
    (symbol "power:GND" (power) (pin_names (offset 0)) (in_bom yes) (on_board yes)
      (property "Reference" "#PWR" (id 0) (at 0 -6.35 0)
        (effects (font (size 1.27 1.27)) hide)
      )
      (property "Value" "GND" (id 1) (at 0 -3.81 0)
        (effects (font (size 1.27 1.27)))
      )
      (property "Footprint" "" (id 2) (at 0 0 0)
        (effects (font (size 1.27 1.27)) hide)
      )
      (property "Datasheet" "" (id 3) (at 0 0 0)
        (effects (font (size 1.27 1.27)) hide)
      )
      (property "ki_keywords" "power-flag" (id 4) (at 0 0 0)
        (effects (font (size 1.27 1.27)) hide)
      )
      (property "ki_description" "Power symbol creates a global label with name \"GND\" , ground" (id 5) (at 0 0 0)
        (effects (font (size 1.27 1.27)) hide)
      )
      (symbol "GND_0_1"
        (polyline
          (pts
            (xy 0 0)
            (xy 0 -1.27)
            (xy 1.27 -1.27)
            (xy 0 -2.54)
            (xy -1.27 -1.27)
            (xy 0 -1.27)
          )
          (stroke (width 0) (type default) (color 0 0 0 0))
          (fill (type none))
        )
      )
      (symbol "GND_1_1"
        (pin power_in line (at 0 0 270) (length 0) hide
          (name "GND" (effects (font (size 1.27 1.27))))
          (number "1" (effects (font (size 1.27 1.27))))
        )
      )
    )
    (symbol "roket-rescue:Cap-805_cap" (pin_names (offset 1.016) hide) (in_bom yes) (on_board yes)
      (property "Reference" "C" (id 0) (at 0 3.81 0)
        (effects (font (size 1.27 1.27)) (justify left bottom))
      )
      (property "Value" "Cap-805_cap" (id 1) (at 0 -5.08 0)
        (effects (font (size 1.27 1.27)) (justify left bottom))
      )
      (property "Footprint" "CAPC2012X135N" (id 2) (at 0 0 0)
        (effects (font (size 1.27 1.27)) (justify left bottom) hide)
      )
      (property "Datasheet" "" (id 3) (at 0 0 0)
        (effects (font (size 1.27 1.27)) (justify left bottom) hide)
      )
      (property "ki_locked" "" (id 4) (at 0 0 0)
        (effects (font (size 1.27 1.27)))
      )
      (symbol "Cap-805_cap_0_0"
        (rectangle (start 0 -1.905) (end 0.635 1.905)
          (stroke (width 0) (type default) (color 0 0 0 0))
          (fill (type outline))
        )
        (rectangle (start 1.905 -1.905) (end 2.54 1.905)
          (stroke (width 0) (type default) (color 0 0 0 0))
          (fill (type outline))
        )
        (pin passive line (at 5.08 0 180) (length 2.54)
          (name "~" (effects (font (size 1.016 1.016))))
          (number "1" (effects (font (size 1.016 1.016))))
        )
        (pin passive line (at -2.54 0 0) (length 2.54)
          (name "~" (effects (font (size 1.016 1.016))))
          (number "2" (effects (font (size 1.016 1.016))))
        )
      )
    )
  )

  (junction (at 146.05 78.74) (diameter 0) (color 0 0 0 0)
    (uuid 1a4421ea-21a3-4450-b74e-79761cc84be3)
  )
  (junction (at 148.59 78.74) (diameter 0) (color 0 0 0 0)
    (uuid 1bf86119-6ee2-47e0-8397-5b85de9e13f8)
  )
  (junction (at 151.13 78.74) (diameter 0) (color 0 0 0 0)
    (uuid 649a87ea-a410-4328-815e-c0e11183e194)
  )
  (junction (at 163.83 71.12) (diameter 0) (color 0 0 0 0)
    (uuid d79ed4ce-743b-44f1-ad85-2ea1703f5880)
  )

  (no_connect (at 161.29 97.79) (uuid 32b50c37-d1fe-4482-b0bb-ae40e1985111))
  (no_connect (at 135.89 92.71) (uuid 496be449-0d1a-44c4-bda7-84c0f0fa2dd6))
  (no_connect (at 161.29 95.25) (uuid 4bf385ea-9ccb-4489-bf6f-de24e3aac25e))
  (no_connect (at 135.89 90.17) (uuid 6b62028f-7315-4505-9c47-9ea630e52285))
  (no_connect (at 135.89 95.25) (uuid d9cc05d9-acec-4545-b9b6-37e0243a84a8))

  (wire (pts (xy 162.56 87.63) (xy 161.29 87.63))
    (stroke (width 0) (type default) (color 0 0 0 0))
    (uuid 2736b425-2296-40f6-946f-04264d6d8e7f)
  )
  (wire (pts (xy 163.83 71.12) (xy 151.13 71.12))
    (stroke (width 0) (type default) (color 0 0 0 0))
    (uuid 2f7c328a-3697-4def-8970-41cd2779619e)
  )
  (wire (pts (xy 148.59 105.41) (xy 148.59 106.68))
    (stroke (width 0) (type default) (color 0 0 0 0))
    (uuid 2fdeda60-c49b-41b9-b23e-ba1eb9e04167)
  )
  (wire (pts (xy 143.51 80.01) (xy 143.51 78.74))
    (stroke (width 0) (type default) (color 0 0 0 0))
    (uuid 35c6921c-6665-47ef-9ad7-05d3051219dd)
  )
  (wire (pts (xy 151.13 80.01) (xy 151.13 78.74))
    (stroke (width 0) (type default) (color 0 0 0 0))
    (uuid 5e536dcc-0e09-4d95-ab28-8f2ae1a800cf)
  )
  (wire (pts (xy 143.51 78.74) (xy 146.05 78.74))
    (stroke (width 0) (type default) (color 0 0 0 0))
    (uuid 73cbe71f-3ed1-4132-8663-c323f2b9ed01)
  )
  (wire (pts (xy 163.83 80.01) (xy 163.83 78.74))
    (stroke (width 0) (type default) (color 0 0 0 0))
    (uuid 7bae8362-b6ff-46cf-801f-7b51da4bf64b)
  )
  (wire (pts (xy 162.56 90.17) (xy 161.29 90.17))
    (stroke (width 0) (type default) (color 0 0 0 0))
    (uuid 7c8be377-9efa-4de9-bf5e-134a0218c91b)
  )
  (wire (pts (xy 163.83 71.12) (xy 163.83 69.85))
    (stroke (width 0) (type default) (color 0 0 0 0))
    (uuid 8e65cde6-41d1-472b-addb-2e29fed13e8c)
  )
  (wire (pts (xy 146.05 78.74) (xy 148.59 78.74))
    (stroke (width 0) (type default) (color 0 0 0 0))
    (uuid 8e6681c6-90f6-44fb-beb0-4c7df843e1a7)
  )
  (wire (pts (xy 151.13 78.74) (xy 151.13 71.12))
    (stroke (width 0) (type default) (color 0 0 0 0))
    (uuid 91cf6241-4784-4001-aa2f-81909e7be98d)
  )
  (wire (pts (xy 146.05 80.01) (xy 146.05 78.74))
    (stroke (width 0) (type default) (color 0 0 0 0))
    (uuid ababc7d1-1128-46ed-b80f-4f2acdd193b1)
  )
  (wire (pts (xy 148.59 78.74) (xy 151.13 78.74))
    (stroke (width 0) (type default) (color 0 0 0 0))
    (uuid abadc97d-6b7b-4c0c-9047-d5b089b9a31f)
  )
  (wire (pts (xy 148.59 80.01) (xy 148.59 78.74))
    (stroke (width 0) (type default) (color 0 0 0 0))
    (uuid c0c491ff-d679-440c-8279-ee694b01c445)
  )

  (hierarchical_label "RX" (shape input) (at 162.56 87.63 0)
    (effects (font (size 1.27 1.27)) (justify left))
    (uuid 69138bac-1f8f-4a29-a570-f64fac30b531)
  )
  (hierarchical_label "TX" (shape input) (at 162.56 90.17 0)
    (effects (font (size 1.27 1.27)) (justify left))
    (uuid 9a7d5598-9f66-4f42-8036-118b6cc08d20)
  )

  (symbol (lib_id "power:+3.3V") (at 163.83 69.85 0) (unit 1)
    (in_bom yes) (on_board yes)
    (uuid 00000000-0000-0000-0000-000060a13af9)
    (property "Reference" "#PWR09" (id 0) (at 163.83 73.66 0)
      (effects (font (size 1.27 1.27)) hide)
    )
    (property "Value" "+3.3V" (id 1) (at 164.211 65.4558 0))
    (property "Footprint" "" (id 2) (at 163.83 69.85 0)
      (effects (font (size 1.27 1.27)) hide)
    )
    (property "Datasheet" "" (id 3) (at 163.83 69.85 0)
      (effects (font (size 1.27 1.27)) hide)
    )
    (pin "1" (uuid c63b5c57-1f81-454c-96df-ec55cfce73f3))
  )

  (symbol (lib_id "roket-rescue:Cap-805_cap") (at 163.83 73.66 270) (unit 1)
    (in_bom yes) (on_board yes)
    (uuid 00000000-0000-0000-0000-000060a13aff)
    (property "Reference" "C5" (id 0) (at 166.4462 73.7616 90)
      (effects (font (size 1.27 1.27)) (justify left))
    )
    (property "Value" "0.1uF" (id 1) (at 166.4462 76.073 90)
      (effects (font (size 1.27 1.27)) (justify left))
    )
    (property "Footprint" "Capacitor_SMD:C_0805_2012Metric" (id 2) (at 163.83 73.66 0)
      (effects (font (size 1.27 1.27)) (justify left bottom) hide)
    )
    (property "Datasheet" "" (id 3) (at 163.83 73.66 0)
      (effects (font (size 1.27 1.27)) (justify left bottom) hide)
    )
    (pin "1" (uuid 5d1eefff-cff7-4f07-af3a-3b696bbef6e4))
    (pin "2" (uuid 8e49a890-af4f-45e7-bd68-b59a81369728))
  )

  (symbol (lib_id "power:GND") (at 163.83 80.01 0) (unit 1)
    (in_bom yes) (on_board yes)
    (uuid 00000000-0000-0000-0000-000060a13b05)
    (property "Reference" "#PWR010" (id 0) (at 163.83 86.36 0)
      (effects (font (size 1.27 1.27)) hide)
    )
    (property "Value" "GND" (id 1) (at 163.957 84.4042 0))
    (property "Footprint" "" (id 2) (at 163.83 80.01 0)
      (effects (font (size 1.27 1.27)) hide)
    )
    (property "Datasheet" "" (id 3) (at 163.83 80.01 0)
      (effects (font (size 1.27 1.27)) hide)
    )
    (pin "1" (uuid 4aadb59f-0d9f-4cec-9d76-d8e3dc071a70))
  )

  (symbol (lib_id "power:GND") (at 148.59 106.68 0) (unit 1)
    (in_bom yes) (on_board yes)
    (uuid 00000000-0000-0000-0000-000060a15c71)
    (property "Reference" "#PWR08" (id 0) (at 148.59 113.03 0)
      (effects (font (size 1.27 1.27)) hide)
    )
    (property "Value" "GND" (id 1) (at 148.717 111.0742 0))
    (property "Footprint" "" (id 2) (at 148.59 106.68 0)
      (effects (font (size 1.27 1.27)) hide)
    )
    (property "Datasheet" "" (id 3) (at 148.59 106.68 0)
      (effects (font (size 1.27 1.27)) hide)
    )
    (pin "1" (uuid b242630b-1f95-44ad-9b59-e67448d8157d))
  )

  (symbol (lib_id "RF_GPS:ublox_SAM-M8Q") (at 148.59 92.71 0) (unit 1)
    (in_bom yes) (on_board yes)
    (uuid 00000000-0000-0000-0000-0000616b0bc7)
    (property "Reference" "U2" (id 0) (at 139.7 80.01 0))
    (property "Value" "ublox_SAM-M8Q" (id 1) (at 138.43 105.41 0))
    (property "Footprint" "RF_GPS:ublox_SAM-M8Q" (id 2) (at 161.29 104.14 0)
      (effects (font (size 1.27 1.27)) hide)
    )
    (property "Datasheet" "https://www.u-blox.com/sites/default/files/SAM-M8Q_DataSheet_%28UBX-16012619%29.pdf" (id 3) (at 148.59 92.71 0)
      (effects (font (size 1.27 1.27)) hide)
    )
    (pin "1" (uuid dfde817e-f81f-4682-b4f1-920b71f36466))
    (pin "10" (uuid 758291c1-1cd3-4bb1-8c7f-84225d83df14))
    (pin "11" (uuid e73d1774-1ee9-4e0a-9bce-4159512dc103))
    (pin "12" (uuid 3927c506-4306-4fca-a008-8a505b95b847))
    (pin "13" (uuid 5b9aaf05-852f-4662-9687-4faab5df6a8f))
    (pin "14" (uuid a8220aed-65b5-4f1b-b3c5-19bf0ac0326f))
    (pin "15" (uuid 70a1a568-fdcc-450a-acad-6c5e0e7bce84))
    (pin "16" (uuid 4c48c9c7-5714-4109-a145-1008fda7930a))
    (pin "17" (uuid aecf48ee-2a74-4c25-8709-d9f1d88299d1))
    (pin "18" (uuid e54bce2b-1bca-4bad-aaf8-7ef2334f93af))
    (pin "19" (uuid 39156c10-ee95-4f57-946e-8cfd8bfe9521))
    (pin "2" (uuid 2fb92529-3a3b-4f9c-8610-7219fa532d6c))
    (pin "20" (uuid 5f5e8ced-4da6-4b07-8f1d-0450e2a3f4cd))
    (pin "3" (uuid f1abbe01-1e0c-4396-b677-8011351325b9))
    (pin "4" (uuid 2b5f09ba-3ddb-4674-9a09-4f3fa9b6597f))
    (pin "5" (uuid 353b0dce-55e8-4e79-8ef2-e5fc863f5b32))
    (pin "6" (uuid 7a67b983-b88b-4d09-b30f-e571fc88b5cc))
    (pin "7" (uuid 0e041361-380e-4654-932c-b34ea0e69215))
    (pin "8" (uuid afbeca8c-79d4-499a-a36c-ced591eb7748))
    (pin "9" (uuid e50ecd58-4025-403f-b923-c999488aa8f8))
  )
)
