,,,
,,,
Collated Components:,,,
,,,
Item,Qty,Reference(s),Value
1,9,"C1, C3, C5, C6, C9, C10, C12, C15, C19",0.1uF
2,2,"C2, C4",22pF
3,3,"C7, C18, C20",10uF
4,1,C8,100nF
5,7,"C11, C13, C14, C17, C21, C22, C23",22uF
6,1,C16,4.7uF
7,1,C24,UWT1C681MNL1GS
8,3,"D1, D2, D3",LED
9,3,"D4, D6, D7",ESD
10,2,"D5, D8",SS24
11,4,"H1, H2, H3, H4",MountingHole
12,1,J1,SMA-J-P-H-ST-EM1
13,1,J2,282834-6
14,1,J3,oled
15,1,J4,10118194-0001LF
16,1,L1,XFL4020-102MEC
17,1,LS1,SMI-1027-T-5V-R
18,2,"Q1, Q2",SS8050-G
19,7,"R1, R6, R7, R8, R15, R16, R18",10K
20,1,R2,50
21,3,"R3, R4, R5",1K
22,3,"R9, R10, R17",2K
23,3,"R11, R13, R21",560K
24,3,"R12, R14, R22",100K
25,1,R19,470K
26,1,R20,150K
27,2,"S1, S2",TL1015AF160QG
28,1,U1,BNO080
29,1,U2,ublox_SAM-M8Q
30,1,U3,H3LIS331DL
31,1,U4,"PCA9539BS,118"
32,1,U5,E22-900M22S
33,1,U6,MS5611-01BA
34,1,U7,ESP32-WROOM-32D
35,1,U8,SI4202DY-T1-GE3
36,1,U9,CP2102N-A01-GQFN28
37,1,U10,TPS630702RNMR
38,1,Y1,CRYSTAL-32.768KHZSMD-3.2X1.5
