EESchema Schematic File Version 4
EELAYER 30 0
EELAYER END
$Descr A4 11693 8268
encoding utf-8
Sheet 14 15
Title ""
Date ""
Rev ""
Comp ""
Comment1 ""
Comment2 ""
Comment3 ""
Comment4 ""
$EndDescr
Text HLabel 5000 3800 0    50   Input ~ 0
SDA
Text HLabel 5000 3700 0    50   Input ~ 0
SCL
$Comp
L power:+3.3V #PWR?
U 1 1 61266D57
P 5100 2700
AR Path="/6115C67C/61266D57" Ref="#PWR?"  Part="1" 
AR Path="/611727C1/61266D57" Ref="#PWR?"  Part="1" 
AR Path="/61178059/61266D57" Ref="#PWR?"  Part="1" 
AR Path="/6111A12F/61266D57" Ref="#PWR?"  Part="1" 
AR Path="/616DCCBE/61266D57" Ref="#PWR073"  Part="1" 
F 0 "#PWR073" H 5100 2550 50  0001 C CNN
F 1 "+3.3V" H 5115 2873 50  0000 C CNN
F 2 "" H 5100 2700 50  0001 C CNN
F 3 "" H 5100 2700 50  0001 C CNN
	1    5100 2700
	1    0    0    -1  
$EndComp
Wire Wire Line
	5100 3800 5000 3800
Wire Wire Line
	5000 3700 5100 3700
$Comp
L power:GND #PWR?
U 1 1 61264B89
P 5000 4800
AR Path="/6111A211/61264B89" Ref="#PWR?"  Part="1" 
AR Path="/6111A19E/61264B89" Ref="#PWR?"  Part="1" 
AR Path="/6111A12F/61264B89" Ref="#PWR?"  Part="1" 
AR Path="/616DCCBE/61264B89" Ref="#PWR074"  Part="1" 
F 0 "#PWR074" H 5000 4550 50  0001 C CNN
F 1 "GND" H 5005 4627 50  0000 C CNN
F 2 "" H 5000 4800 50  0001 C CNN
F 3 "" H 5000 4800 50  0001 C CNN
	1    5000 4800
	1    0    0    -1  
$EndComp
$Comp
L power:GND #PWR?
U 1 1 61267E80
P 5100 3300
AR Path="/6111A211/61267E80" Ref="#PWR?"  Part="1" 
AR Path="/6111A19E/61267E80" Ref="#PWR?"  Part="1" 
AR Path="/6111A12F/61267E80" Ref="#PWR?"  Part="1" 
AR Path="/616DCCBE/61267E80" Ref="#PWR075"  Part="1" 
F 0 "#PWR075" H 5100 3050 50  0001 C CNN
F 1 "GND" H 5105 3127 50  0000 C CNN
F 2 "" H 5100 3300 50  0001 C CNN
F 3 "" H 5100 3300 50  0001 C CNN
	1    5100 3300
	1    0    0    -1  
$EndComp
Wire Wire Line
	5100 4750 5000 4750
Wire Wire Line
	5000 4750 5000 4800
Wire Wire Line
	5100 2750 5100 2850
Text HLabel 6600 2750 2    50   Input ~ 0
Led1
Text HLabel 6600 2850 2    50   Input ~ 0
Led2
Text HLabel 6600 2950 2    50   Input ~ 0
Pyro1
Text HLabel 6600 3050 2    50   Input ~ 0
Pyro2
Wire Wire Line
	6600 2750 6500 2750
Wire Wire Line
	6600 2850 6500 2850
Wire Wire Line
	6600 2950 6500 2950
Wire Wire Line
	6600 3050 6500 3050
$Comp
L PCA9539BS_118:PCA9539BS,118 U10
U 1 1 6171A2F2
P 5800 3650
F 0 "U10" H 5800 4920 50  0000 C CNN
F 1 "PCA9539BS,118" H 5800 4829 50  0000 C CNN
F 2 "Package_DFN_QFN:QFN-24-1EP_4x4mm_P0.5mm_EP2.6x2.6mm" H 5800 3650 50  0001 L BNN
F 3 "" H 5800 3650 50  0001 L BNN
F 4 "HVQFN-24" H 5800 3650 50  0001 L BNN "PACKAGE"
F 5 "NXP" H 5800 3650 50  0001 L BNN "SUPPLIER"
F 6 "-" H 5800 3650 50  0001 L BNN "OC_FARNELL"
F 7 "70R6553" H 5800 3650 50  0001 L BNN "OC_NEWARK"
F 8 "PCA9539BS,118" H 5800 3650 50  0001 L BNN "MPN"
	1    5800 3650
	1    0    0    -1  
$EndComp
Connection ~ 5100 3250
Wire Wire Line
	5100 3250 5100 3300
Wire Wire Line
	5100 3150 5100 3250
Connection ~ 5100 2750
Wire Wire Line
	5100 2700 5100 2750
$EndSCHEMATC
