EESchema Schematic File Version 4
EELAYER 30 0
EELAYER END
$Descr A4 11693 8268
encoding utf-8
Sheet 12 14
Title ""
Date ""
Rev ""
Comp ""
Comment1 ""
Comment2 ""
Comment3 ""
Comment4 ""
$EndDescr
$Comp
L roket-rescue:SAM-M8Q-SAM-M8Q U9
U 1 1 60A1171D
P 5750 3750
F 0 "U9" H 5750 4615 50  0000 C CNN
F 1 "SAM-M8Q" H 5750 4524 50  0000 C CNN
F 2 "others:SAM-M8Q" H 5750 3750 50  0001 L BNN
F 3 "" H 5750 3750 50  0001 L BNN
F 4 "6.3mm" H 5750 3750 50  0001 L BNN "MAXIMUM_PACKAGE_HEIGHT"
F 5 "Manufacturer recommendations" H 5750 3750 50  0001 L BNN "STANDARD"
F 6 "R06" H 5750 3750 50  0001 L BNN "PARTREV"
F 7 "U-Blox" H 5750 3750 50  0001 L BNN "MANUFACTURER"
	1    5750 3750
	1    0    0    -1  
$EndComp
$Comp
L power:+3.3V #PWR?
U 1 1 60A13AF9
P 7050 3000
AR Path="/609302C0/60A13AF9" Ref="#PWR?"  Part="1" 
AR Path="/6093064A/60A13AF9" Ref="#PWR077"  Part="1" 
F 0 "#PWR077" H 7050 2850 50  0001 C CNN
F 1 "+3.3V" H 7065 3173 50  0000 C CNN
F 2 "" H 7050 3000 50  0001 C CNN
F 3 "" H 7050 3000 50  0001 C CNN
	1    7050 3000
	1    0    0    -1  
$EndComp
$Comp
L roket-rescue:Cap-805_cap C?
U 1 1 60A13AFF
P 7050 3250
AR Path="/609302C0/60A13AFF" Ref="C?"  Part="1" 
AR Path="/6093064A/60A13AFF" Ref="C35"  Part="1" 
F 0 "C35" V 7054 3353 50  0000 L CNN
F 1 "0.1uF" V 7145 3353 50  0000 L CNN
F 2 "Capacitor_SMD:C_0805_2012Metric" H 7050 3250 50  0001 L BNN
F 3 "" H 7050 3250 50  0001 L BNN
	1    7050 3250
	0    1    1    0   
$EndComp
$Comp
L power:GND #PWR?
U 1 1 60A13B05
P 7050 3600
AR Path="/609302C0/60A13B05" Ref="#PWR?"  Part="1" 
AR Path="/6093064A/60A13B05" Ref="#PWR079"  Part="1" 
F 0 "#PWR079" H 7050 3350 50  0001 C CNN
F 1 "GND" H 7055 3427 50  0000 C CNN
F 2 "" H 7050 3600 50  0001 C CNN
F 3 "" H 7050 3600 50  0001 C CNN
	1    7050 3600
	1    0    0    -1  
$EndComp
Wire Wire Line
	7050 3000 7050 3150
Connection ~ 7050 3150
Wire Wire Line
	6650 3150 7050 3150
Wire Wire Line
	7050 3450 7050 3600
$Comp
L power:GND #PWR?
U 1 1 60A15C71
P 6700 4400
AR Path="/609302C0/60A15C71" Ref="#PWR?"  Part="1" 
AR Path="/6093064A/60A15C71" Ref="#PWR080"  Part="1" 
F 0 "#PWR080" H 6700 4150 50  0001 C CNN
F 1 "GND" H 6705 4227 50  0000 C CNN
F 2 "" H 6700 4400 50  0001 C CNN
F 3 "" H 6700 4400 50  0001 C CNN
	1    6700 4400
	1    0    0    -1  
$EndComp
Wire Wire Line
	6700 4400 6700 4350
Wire Wire Line
	6700 4350 6650 4350
Text HLabel 4750 3700 0    50   Input ~ 0
GPS_SDA
Text HLabel 4750 3800 0    50   Input ~ 0
GPS_SCL
Wire Wire Line
	4750 3700 4850 3700
Wire Wire Line
	4750 3800 4850 3800
Wire Wire Line
	6650 3350 6650 3450
Wire Wire Line
	6650 3350 6650 3250
Connection ~ 6650 3350
Wire Wire Line
	6650 3250 6650 3150
Connection ~ 6650 3250
Connection ~ 6650 3150
$EndSCHEMATC
