EESchema Schematic File Version 4
EELAYER 30 0
EELAYER END
$Descr A4 11693 8268
encoding utf-8
Sheet 9 14
Title ""
Date ""
Rev ""
Comp ""
Comment1 ""
Comment2 ""
Comment3 ""
Comment4 ""
$EndDescr
$Comp
L power:+3.3V #PWR066
U 1 1 60A54860
P 6950 2850
F 0 "#PWR066" H 6950 2700 50  0001 C CNN
F 1 "+3.3V" H 6965 3023 50  0000 C CNN
F 2 "" H 6950 2850 50  0001 C CNN
F 3 "" H 6950 2850 50  0001 C CNN
	1    6950 2850
	1    0    0    -1  
$EndComp
$Comp
L power:GND #PWR068
U 1 1 60A559B4
P 6950 4900
F 0 "#PWR068" H 6950 4650 50  0001 C CNN
F 1 "GND" H 6955 4727 50  0000 C CNN
F 2 "" H 6950 4900 50  0001 C CNN
F 3 "" H 6950 4900 50  0001 C CNN
	1    6950 4900
	1    0    0    -1  
$EndComp
Text HLabel 7050 3500 2    50   Input ~ 0
SCL_ICM
Text HLabel 7050 3600 2    50   Input ~ 0
SDA_ICM
$Comp
L roket-rescue:Cap-805_cap C?
U 1 1 60A583C9
P 7300 4650
AR Path="/609302C0/60A583C9" Ref="C?"  Part="1" 
AR Path="/6093034B/60A583C9" Ref="C?"  Part="1" 
AR Path="/6093055C/60A583C9" Ref="C30"  Part="1" 
F 0 "C30" V 7304 4753 50  0000 L CNN
F 1 "22pF" V 7395 4753 50  0000 L CNN
F 2 "Capacitor_SMD:C_0805_2012Metric" H 7300 4650 50  0001 L BNN
F 3 "" H 7300 4650 50  0001 L BNN
	1    7300 4650
	0    1    1    0   
$EndComp
$Comp
L roket-rescue:Cap-805_cap C?
U 1 1 60A583CF
P 7750 4650
AR Path="/609302C0/60A583CF" Ref="C?"  Part="1" 
AR Path="/6093034B/60A583CF" Ref="C?"  Part="1" 
AR Path="/6093055C/60A583CF" Ref="C31"  Part="1" 
F 0 "C31" V 7754 4753 50  0000 L CNN
F 1 "22pF" V 7845 4753 50  0000 L CNN
F 2 "Capacitor_SMD:C_0805_2012Metric" H 7750 4650 50  0001 L BNN
F 3 "" H 7750 4650 50  0001 L BNN
	1    7750 4650
	0    1    1    0   
$EndComp
$Comp
L power:GND #PWR?
U 1 1 60A583DA
P 7550 4950
AR Path="/6093034B/60A583DA" Ref="#PWR?"  Part="1" 
AR Path="/6093055C/60A583DA" Ref="#PWR067"  Part="1" 
F 0 "#PWR067" H 7550 4700 50  0001 C CNN
F 1 "GND" H 7555 4777 50  0000 C CNN
F 2 "" H 7550 4950 50  0001 C CNN
F 3 "" H 7550 4950 50  0001 C CNN
	1    7550 4950
	1    0    0    -1  
$EndComp
Wire Wire Line
	7300 4850 7300 4900
Wire Wire Line
	7750 4900 7750 4850
Wire Wire Line
	7550 4950 7550 4900
$Comp
L roket-rescue:Cap-805_cap C?
U 1 1 60A368C2
P 4750 4600
AR Path="/609302C0/60A368C2" Ref="C?"  Part="1" 
AR Path="/6093034B/60A368C2" Ref="C?"  Part="1" 
AR Path="/6093055C/60A368C2" Ref="C41"  Part="1" 
F 0 "C41" V 4754 4703 50  0000 L CNN
F 1 "0.1uF" V 4845 4703 50  0000 L CNN
F 2 "Capacitor_SMD:C_0805_2012Metric" H 4750 4600 50  0001 L BNN
F 3 "" H 4750 4600 50  0001 L BNN
	1    4750 4600
	0    -1   1    0   
$EndComp
Wire Wire Line
	4750 4400 4750 4500
$Comp
L power:GND #PWR049
U 1 1 60A37801
P 4750 4850
F 0 "#PWR049" H 4750 4600 50  0001 C CNN
F 1 "GND" H 4755 4677 50  0000 C CNN
F 2 "" H 4750 4850 50  0001 C CNN
F 3 "" H 4750 4850 50  0001 C CNN
	1    4750 4850
	-1   0    0    -1  
$EndComp
Wire Wire Line
	4750 4850 4750 4800
Wire Wire Line
	4950 4400 4750 4400
$Comp
L power:GND #PWR048
U 1 1 60BC3BE8
P 4800 4000
F 0 "#PWR048" H 4800 3750 50  0001 C CNN
F 1 "GND" H 4805 3827 50  0000 C CNN
F 2 "" H 4800 4000 50  0001 C CNN
F 3 "" H 4800 4000 50  0001 C CNN
	1    4800 4000
	1    0    0    -1  
$EndComp
NoConn ~ 6950 3800
NoConn ~ 6950 3900
Wire Wire Line
	4950 3800 4600 3800
Wire Wire Line
	4600 3800 4600 3700
$Comp
L power:+3.3V #PWR044
U 1 1 60BC713F
P 4600 3700
F 0 "#PWR044" H 4600 3550 50  0001 C CNN
F 1 "+3.3V" H 4615 3873 50  0000 C CNN
F 2 "" H 4600 3700 50  0001 C CNN
F 3 "" H 4600 3700 50  0001 C CNN
	1    4600 3700
	1    0    0    -1  
$EndComp
Wire Wire Line
	4950 3900 4950 4000
Wire Wire Line
	4800 4000 4950 4000
Connection ~ 4950 4000
$Comp
L power:GND #PWR059
U 1 1 60BC9C66
P 4850 3300
F 0 "#PWR059" H 4850 3050 50  0001 C CNN
F 1 "GND" H 4855 3127 50  0000 C CNN
F 2 "" H 4850 3300 50  0001 C CNN
F 3 "" H 4850 3300 50  0001 C CNN
	1    4850 3300
	-1   0    0    -1  
$EndComp
$Comp
L roket-rescue:Cap-805_cap C?
U 1 1 60BCC618
P 7550 3050
AR Path="/609302C0/60BCC618" Ref="C?"  Part="1" 
AR Path="/6093034B/60BCC618" Ref="C?"  Part="1" 
AR Path="/6093055C/60BCC618" Ref="C43"  Part="1" 
F 0 "C43" V 7554 3153 50  0000 L CNN
F 1 "0.1uF" V 7645 3153 50  0000 L CNN
F 2 "Capacitor_SMD:C_0805_2012Metric" H 7550 3050 50  0001 L BNN
F 3 "" H 7550 3050 50  0001 L BNN
	1    7550 3050
	0    1    1    0   
$EndComp
$Comp
L power:GND #PWR?
U 1 1 60BCCDE6
P 7550 3300
AR Path="/6093034B/60BCCDE6" Ref="#PWR?"  Part="1" 
AR Path="/6093055C/60BCCDE6" Ref="#PWR065"  Part="1" 
F 0 "#PWR065" H 7550 3050 50  0001 C CNN
F 1 "GND" H 7555 3127 50  0000 C CNN
F 2 "" H 7550 3300 50  0001 C CNN
F 3 "" H 7550 3300 50  0001 C CNN
	1    7550 3300
	1    0    0    -1  
$EndComp
Wire Wire Line
	7550 3300 7550 3250
Wire Wire Line
	7750 4400 7600 4400
Wire Wire Line
	7750 4400 7750 4550
Wire Wire Line
	7400 4400 7300 4400
Wire Wire Line
	7300 4400 7300 4550
Connection ~ 7300 4400
Wire Wire Line
	7750 4400 7750 4300
Connection ~ 7750 4400
Connection ~ 7550 4900
Wire Wire Line
	7550 4900 7750 4900
Wire Wire Line
	7300 4900 7550 4900
Wire Wire Line
	4950 3300 4850 3300
Wire Wire Line
	4950 4000 4950 4100
Wire Wire Line
	6950 2850 6950 2950
Wire Wire Line
	6950 4700 6950 4800
$Comp
L BNO080:BNO080 U6
U 1 1 60BBD1A8
P 5950 3900
F 0 "U6" H 5950 5065 50  0000 C CNN
F 1 "BNO080" H 5950 4974 50  0000 C CNN
F 2 "digikey-footprints:LGA-28_5.2x3.8mm_BNO0055" H 5950 3900 50  0001 L BNN
F 3 "" H 5950 3900 50  0001 L BNN
F 4 "1.6" H 5950 3900 50  0001 L BNN "PARTREV"
F 5 "Hillcrest Laboratories, Inc." H 5950 3900 50  0001 L BNN "MANUFACTURER"
F 6 "1.180 mm" H 5950 3900 50  0001 L BNN "MAXIMUM_PACKAGE_HEIGHT"
F 7 "Manufacturer Recommendations" H 5950 3900 50  0001 L BNN "STANDARD"
	1    5950 3900
	1    0    0    -1  
$EndComp
Wire Wire Line
	4950 3600 4950 3800
Connection ~ 4950 3800
Wire Wire Line
	6950 4300 7750 4300
Wire Wire Line
	6950 4400 7300 4400
Wire Wire Line
	6950 3600 7050 3600
Wire Wire Line
	6950 3500 7050 3500
Wire Wire Line
	4950 4200 4950 4100
Connection ~ 4950 4100
Wire Wire Line
	4950 3500 4950 3600
Connection ~ 4950 3600
Wire Wire Line
	6950 4900 6950 4800
Connection ~ 6950 4800
Connection ~ 6950 3100
Wire Wire Line
	6950 3100 6950 3300
Wire Wire Line
	6950 2950 7550 2950
$Comp
L SparkFun-Clocks:CRYSTAL-32.768KHZSMD-3.2X1.5 Y2
U 1 1 60BE6929
P 7500 4400
F 0 "Y2" H 7500 4730 45  0000 C CNN
F 1 "CRYSTAL-32.768KHZSMD-3.2X1.5" H 7500 4646 45  0000 C CNN
F 2 "CRYSTAL-SMD-3.2X1.5MM" H 7500 4600 20  0001 C CNN
F 3 "" H 7500 4400 50  0001 C CNN
F 4 "XTAL-13062" H 7500 4551 60  0000 C CNN "Field4"
	1    7500 4400
	1    0    0    -1  
$EndComp
Wire Wire Line
	6950 3100 6950 3000
Connection ~ 6950 3000
Connection ~ 6950 2950
Wire Wire Line
	6950 2950 6950 3000
$EndSCHEMATC
