EESchema Schematic File Version 4
EELAYER 30 0
EELAYER END
$Descr A4 11693 8268
encoding utf-8
Sheet 7 14
Title ""
Date ""
Rev ""
Comp ""
Comment1 ""
Comment2 ""
Comment3 ""
Comment4 ""
$EndDescr
$Comp
L roket-rescue:TL1015AF160QG-TL1015AF160QG S1
U 1 1 60974072
P 5250 3000
F 0 "S1" H 5250 3367 50  0000 C CNN
F 1 "TL1015AF160QG" H 5250 3276 50  0000 C CNN
F 2 "others:TL1015AF160QG" H 5250 3000 50  0001 L BNN
F 3 "" H 5250 3000 50  0001 L BNN
F 4 "F" H 5250 3000 50  0001 L BNN "PARTREV"
F 5 "E-Switch" H 5250 3000 50  0001 L BNN "MANUFACTURER"
F 6 "2.1 mm" H 5250 3000 50  0001 L BNN "MAXIMUM_PACKAGE_HEIGHT"
F 7 "Manufacturer Recommendations" H 5250 3000 50  0001 L BNN "STANDARD"
	1    5250 3000
	1    0    0    -1  
$EndComp
$Comp
L roket-rescue:TL1015AF160QG-TL1015AF160QG S2
U 1 1 609748F7
P 5250 3850
F 0 "S2" H 5250 4217 50  0000 C CNN
F 1 "TL1015AF160QG" H 5250 4126 50  0000 C CNN
F 2 "others:TL1015AF160QG" H 5250 3850 50  0001 L BNN
F 3 "" H 5250 3850 50  0001 L BNN
F 4 "F" H 5250 3850 50  0001 L BNN "PARTREV"
F 5 "E-Switch" H 5250 3850 50  0001 L BNN "MANUFACTURER"
F 6 "2.1 mm" H 5250 3850 50  0001 L BNN "MAXIMUM_PACKAGE_HEIGHT"
F 7 "Manufacturer Recommendations" H 5250 3850 50  0001 L BNN "STANDARD"
	1    5250 3850
	1    0    0    -1  
$EndComp
$Comp
L power:GND #PWR?
U 1 1 60975315
P 8150 3500
AR Path="/609302C0/60975315" Ref="#PWR?"  Part="1" 
AR Path="/609304A1/60975315" Ref="#PWR061"  Part="1" 
F 0 "#PWR061" H 8150 3250 50  0001 C CNN
F 1 "GND" H 8155 3327 50  0000 C CNN
F 2 "" H 8150 3500 50  0001 C CNN
F 3 "" H 8150 3500 50  0001 C CNN
	1    8150 3500
	1    0    0    -1  
$EndComp
$Comp
L Device:R_US R?
U 1 1 6097530F
P 7800 3100
AR Path="/609302C0/6097530F" Ref="R?"  Part="1" 
AR Path="/609304A1/6097530F" Ref="R26"  Part="1" 
F 0 "R26" V 7868 3146 50  0000 L CNN
F 1 "100" V 7868 3055 50  0000 R CNN
F 2 "Resistor_SMD:R_0805_2012Metric" V 7840 3090 50  0001 C CNN
F 3 "~" H 7800 3100 50  0001 C CNN
	1    7800 3100
	0    -1   -1   0   
$EndComp
$Comp
L Device:LED D2
U 1 1 60975CBE
P 7350 3100
F 0 "D2" H 7343 2845 50  0000 C CNN
F 1 "LED" H 7343 2936 50  0000 C CNN
F 2 "LED_SMD:LED_0805_2012Metric" H 7350 3100 50  0001 C CNN
F 3 "~" H 7350 3100 50  0001 C CNN
	1    7350 3100
	-1   0    0    1   
$EndComp
$Comp
L Device:LED D3
U 1 1 60976FFD
P 7350 3450
F 0 "D3" H 7343 3195 50  0000 C CNN
F 1 "LED" H 7343 3286 50  0000 C CNN
F 2 "LED_SMD:LED_0805_2012Metric" H 7350 3450 50  0001 C CNN
F 3 "~" H 7350 3450 50  0001 C CNN
	1    7350 3450
	-1   0    0    1   
$EndComp
$Comp
L roket-rescue:Cap-805_cap C?
U 1 1 60978008
P 5200 4200
AR Path="/609302C0/60978008" Ref="C?"  Part="1" 
AR Path="/609304A1/60978008" Ref="C29"  Part="1" 
F 0 "C29" H 5204 4303 50  0000 R BNN
F 1 "0.1uF" H 5295 4303 50  0000 L BNN
F 2 "Capacitor_SMD:C_0805_2012Metric" H 5200 4200 50  0001 L BNN
F 3 "" H 5200 4200 50  0001 L BNN
	1    5200 4200
	1    0    0    -1  
$EndComp
$Comp
L roket-rescue:Cap-805_cap C?
U 1 1 609785CE
P 5200 3250
AR Path="/609302C0/609785CE" Ref="C?"  Part="1" 
AR Path="/609304A1/609785CE" Ref="C28"  Part="1" 
F 0 "C28" H 5204 3353 50  0000 R BNN
F 1 "0.1uF" H 5295 3353 50  0000 L BNN
F 2 "Capacitor_SMD:C_0805_2012Metric" H 5200 3250 50  0001 L BNN
F 3 "" H 5200 3250 50  0001 L BNN
	1    5200 3250
	1    0    0    -1  
$EndComp
$Comp
L power:GND #PWR?
U 1 1 609797F4
P 4800 4300
AR Path="/609302C0/609797F4" Ref="#PWR?"  Part="1" 
AR Path="/609304A1/609797F4" Ref="#PWR062"  Part="1" 
F 0 "#PWR062" H 4800 4050 50  0001 C CNN
F 1 "GND" H 4805 4127 50  0000 C CNN
F 2 "" H 4800 4300 50  0001 C CNN
F 3 "" H 4800 4300 50  0001 C CNN
	1    4800 4300
	1    0    0    -1  
$EndComp
$Comp
L power:GND #PWR?
U 1 1 60979AB3
P 4850 3300
AR Path="/609302C0/60979AB3" Ref="#PWR?"  Part="1" 
AR Path="/609304A1/60979AB3" Ref="#PWR060"  Part="1" 
F 0 "#PWR060" H 4850 3050 50  0001 C CNN
F 1 "GND" H 4855 3127 50  0000 C CNN
F 2 "" H 4850 3300 50  0001 C CNN
F 3 "" H 4850 3300 50  0001 C CNN
	1    4850 3300
	1    0    0    -1  
$EndComp
$Comp
L Device:R_US R?
U 1 1 6097A949
P 7800 3450
AR Path="/609302C0/6097A949" Ref="R?"  Part="1" 
AR Path="/609304A1/6097A949" Ref="R27"  Part="1" 
F 0 "R27" V 7868 3496 50  0000 L CNN
F 1 "100" V 7868 3405 50  0000 R CNN
F 2 "Resistor_SMD:R_0805_2012Metric" V 7840 3440 50  0001 C CNN
F 3 "~" H 7800 3450 50  0001 C CNN
	1    7800 3450
	0    -1   -1   0   
$EndComp
Text HLabel 6850 3100 0    50   Input ~ 0
Led1
Text HLabel 6850 3450 0    50   Input ~ 0
Led2
Text HLabel 5800 3000 2    50   Input ~ 0
IO0
Text HLabel 5800 3850 2    50   Input ~ 0
EN
Wire Wire Line
	4850 3300 4850 3250
Wire Wire Line
	4850 3000 4950 3000
Wire Wire Line
	5100 3250 4850 3250
Connection ~ 4850 3250
Wire Wire Line
	4850 3250 4850 3000
Wire Wire Line
	5400 3250 5550 3250
Wire Wire Line
	5550 3250 5550 3000
Wire Wire Line
	5550 3000 5800 3000
Wire Wire Line
	5550 3850 5550 4200
Wire Wire Line
	5550 4200 5400 4200
Wire Wire Line
	5100 4200 4800 4200
Wire Wire Line
	4800 4200 4800 4300
Wire Wire Line
	4800 4200 4800 3850
Wire Wire Line
	4800 3850 4950 3850
Connection ~ 4800 4200
Wire Wire Line
	5550 3850 5800 3850
Wire Wire Line
	6850 3100 7200 3100
Wire Wire Line
	6850 3450 7200 3450
Wire Wire Line
	7500 3100 7650 3100
Wire Wire Line
	7500 3450 7650 3450
Wire Wire Line
	8150 3100 8150 3450
Wire Wire Line
	7950 3100 8150 3100
Wire Wire Line
	7950 3450 8150 3450
Connection ~ 8150 3450
Wire Wire Line
	8150 3450 8150 3500
$Comp
L Device:R_US R?
U 1 1 609CEEFC
P 7800 2700
AR Path="/609302C0/609CEEFC" Ref="R?"  Part="1" 
AR Path="/609304A1/609CEEFC" Ref="R36"  Part="1" 
F 0 "R36" V 7868 2746 50  0000 L CNN
F 1 "100" V 7868 2655 50  0000 R CNN
F 2 "Resistor_SMD:R_0805_2012Metric" V 7840 2690 50  0001 C CNN
F 3 "~" H 7800 2700 50  0001 C CNN
	1    7800 2700
	0    -1   -1   0   
$EndComp
$Comp
L Device:LED D8
U 1 1 609CEF02
P 7350 2700
F 0 "D8" H 7343 2445 50  0000 C CNN
F 1 "LED" H 7343 2536 50  0000 C CNN
F 2 "LED_SMD:LED_0805_2012Metric" H 7350 2700 50  0001 C CNN
F 3 "~" H 7350 2700 50  0001 C CNN
	1    7350 2700
	-1   0    0    1   
$EndComp
Wire Wire Line
	6850 2700 7200 2700
Wire Wire Line
	7500 2700 7650 2700
Wire Wire Line
	7950 2700 8150 2700
Wire Wire Line
	8150 2700 8150 3100
Connection ~ 8150 3100
$Comp
L power:+5V #PWR0103
U 1 1 609CFCB0
P 6850 2650
F 0 "#PWR0103" H 6850 2500 50  0001 C CNN
F 1 "+5V" H 6865 2823 50  0000 C CNN
F 2 "" H 6850 2650 50  0001 C CNN
F 3 "" H 6850 2650 50  0001 C CNN
	1    6850 2650
	1    0    0    -1  
$EndComp
Wire Wire Line
	6850 2700 6850 2650
$EndSCHEMATC
