EESchema Schematic File Version 4
EELAYER 30 0
EELAYER END
$Descr A4 11693 8268
encoding utf-8
Sheet 6 14
Title ""
Date ""
Rev ""
Comp ""
Comment1 ""
Comment2 ""
Comment3 ""
Comment4 ""
$EndDescr
$Comp
L roket-rescue:SI4202DY-T1-GE3-SI4202DY-T1-GE3 U4
U 1 1 609A766F
P 3950 4150
F 0 "U4" H 3950 4817 50  0000 C CNN
F 1 "SI4202DY-T1-GE3" H 3950 4726 50  0000 C CNN
F 2 "others:SI4202DY-T1-GE3" H 3950 4150 50  0001 L BNN
F 3 "" H 3950 4150 50  0001 L BNN
F 4 "A" H 3950 4150 50  0001 L BNN "PARTREV"
F 5 "Texas Instruments" H 3950 4150 50  0001 L BNN "MANUFACTURER"
F 6 "1.75mm" H 3950 4150 50  0001 L BNN "MAXIMUM_PACKAGE_HEIGHT"
F 7 "IPC-7351B" H 3950 4150 50  0001 L BNN "STANDARD"
	1    3950 4150
	1    0    0    -1  
$EndComp
$Comp
L Device:R_US R?
U 1 1 609A7675
P 4700 4450
AR Path="/609302C0/609A7675" Ref="R?"  Part="1" 
AR Path="/6093043F/609A7675" Ref="R17"  Part="1" 
F 0 "R17" H 4768 4496 50  0000 L CNN
F 1 "560K" H 4768 4405 50  0000 L CNN
F 2 "Resistor_SMD:R_0805_2012Metric" V 4740 4440 50  0001 C CNN
F 3 "~" H 4700 4450 50  0001 C CNN
	1    4700 4450
	1    0    0    -1  
$EndComp
$Comp
L Device:R_US R?
U 1 1 609A767B
P 4700 4900
AR Path="/609302C0/609A767B" Ref="R?"  Part="1" 
AR Path="/6093043F/609A767B" Ref="R24"  Part="1" 
F 0 "R24" H 4768 4946 50  0000 L CNN
F 1 "100K" H 4768 4855 50  0000 L CNN
F 2 "Resistor_SMD:R_0805_2012Metric" V 4740 4890 50  0001 C CNN
F 3 "~" H 4700 4900 50  0001 C CNN
	1    4700 4900
	1    0    0    -1  
$EndComp
$Comp
L Device:R_US R?
U 1 1 609A7681
P 5100 4000
AR Path="/609302C0/609A7681" Ref="R?"  Part="1" 
AR Path="/6093043F/609A7681" Ref="R12"  Part="1" 
F 0 "R12" H 5168 4046 50  0000 L CNN
F 1 "560K" H 5168 3955 50  0000 L CNN
F 2 "Resistor_SMD:R_0805_2012Metric" V 5140 3990 50  0001 C CNN
F 3 "~" H 5100 4000 50  0001 C CNN
	1    5100 4000
	1    0    0    -1  
$EndComp
$Comp
L Device:R_US R?
U 1 1 609A7687
P 5100 4450
AR Path="/609302C0/609A7687" Ref="R?"  Part="1" 
AR Path="/6093043F/609A7687" Ref="R18"  Part="1" 
F 0 "R18" H 5168 4496 50  0000 L CNN
F 1 "100K" H 5168 4405 50  0000 L CNN
F 2 "Resistor_SMD:R_0805_2012Metric" V 5140 4440 50  0001 C CNN
F 3 "~" H 5100 4450 50  0001 C CNN
	1    5100 4450
	1    0    0    -1  
$EndComp
$Comp
L Device:R_US R?
U 1 1 609A768D
P 3050 4700
AR Path="/609302C0/609A768D" Ref="R?"  Part="1" 
AR Path="/6093043F/609A768D" Ref="R22"  Part="1" 
F 0 "R22" H 3118 4746 50  0000 L CNN
F 1 "100K" H 3118 4655 50  0000 L CNN
F 2 "Resistor_SMD:R_0805_2012Metric" V 3090 4690 50  0001 C CNN
F 3 "~" H 3050 4700 50  0001 C CNN
	1    3050 4700
	1    0    0    -1  
$EndComp
$Comp
L Device:R_US R?
U 1 1 609A7693
P 2850 4450
AR Path="/609302C0/609A7693" Ref="R?"  Part="1" 
AR Path="/609304A1/609A7693" Ref="R?"  Part="1" 
AR Path="/6093043F/609A7693" Ref="R16"  Part="1" 
F 0 "R16" V 2918 4496 50  0000 L CNN
F 1 "100" V 2918 4405 50  0000 R CNN
F 2 "Resistor_SMD:R_0805_2012Metric" V 2890 4440 50  0001 C CNN
F 3 "~" H 2850 4450 50  0001 C CNN
	1    2850 4450
	0    -1   -1   0   
$EndComp
$Comp
L Device:R_US R?
U 1 1 609A7699
P 3100 3800
AR Path="/609302C0/609A7699" Ref="R?"  Part="1" 
AR Path="/6093043F/609A7699" Ref="R10"  Part="1" 
F 0 "R10" H 3168 3846 50  0000 L CNN
F 1 "100K" H 3168 3755 50  0000 L CNN
F 2 "Resistor_SMD:R_0805_2012Metric" V 3140 3790 50  0001 C CNN
F 3 "~" H 3100 3800 50  0001 C CNN
	1    3100 3800
	1    0    0    -1  
$EndComp
$Comp
L Device:R_US R?
U 1 1 609A769F
P 2850 4050
AR Path="/609302C0/609A769F" Ref="R?"  Part="1" 
AR Path="/609304A1/609A769F" Ref="R?"  Part="1" 
AR Path="/6093043F/609A769F" Ref="R14"  Part="1" 
F 0 "R14" V 2918 4096 50  0000 L CNN
F 1 "100" V 2918 4005 50  0000 R CNN
F 2 "Resistor_SMD:R_0805_2012Metric" V 2890 4040 50  0001 C CNN
F 3 "~" H 2850 4050 50  0001 C CNN
	1    2850 4050
	0    -1   -1   0   
$EndComp
Wire Wire Line
	3000 4450 3050 4450
Wire Wire Line
	3050 4550 3050 4450
Connection ~ 3050 4450
Wire Wire Line
	3050 4450 3450 4450
Wire Wire Line
	3000 4050 3100 4050
Wire Wire Line
	3100 4050 3100 3950
Connection ~ 3100 4050
Wire Wire Line
	3100 4050 3450 4050
Wire Wire Line
	4700 4600 4700 4700
Wire Wire Line
	4450 3850 5100 3850
Wire Wire Line
	5100 4150 5100 4200
$Comp
L power:GND #PWR058
U 1 1 609A76B2
P 4700 5100
F 0 "#PWR058" H 4700 4850 50  0001 C CNN
F 1 "GND" H 4705 4927 50  0000 C CNN
F 2 "" H 4700 5100 50  0001 C CNN
F 3 "" H 4700 5100 50  0001 C CNN
	1    4700 5100
	1    0    0    -1  
$EndComp
$Comp
L power:GND #PWR054
U 1 1 609A76B8
P 5100 4700
F 0 "#PWR054" H 5100 4450 50  0001 C CNN
F 1 "GND" H 5105 4527 50  0000 C CNN
F 2 "" H 5100 4700 50  0001 C CNN
F 3 "" H 5100 4700 50  0001 C CNN
	1    5100 4700
	1    0    0    -1  
$EndComp
$Comp
L power:GND #PWR056
U 1 1 609A76BE
P 3050 4950
F 0 "#PWR056" H 3050 4700 50  0001 C CNN
F 1 "GND" H 3055 4777 50  0000 C CNN
F 2 "" H 3050 4950 50  0001 C CNN
F 3 "" H 3050 4950 50  0001 C CNN
	1    3050 4950
	1    0    0    -1  
$EndComp
$Comp
L power:GND #PWR050
U 1 1 609A76C4
P 3400 3850
F 0 "#PWR050" H 3400 3600 50  0001 C CNN
F 1 "GND" H 3405 3677 50  0000 C CNN
F 2 "" H 3400 3850 50  0001 C CNN
F 3 "" H 3400 3850 50  0001 C CNN
	1    3400 3850
	1    0    0    -1  
$EndComp
$Comp
L power:GND #PWR047
U 1 1 609A76CA
P 2950 3650
F 0 "#PWR047" H 2950 3400 50  0001 C CNN
F 1 "GND" H 2955 3477 50  0000 C CNN
F 2 "" H 2950 3650 50  0001 C CNN
F 3 "" H 2950 3650 50  0001 C CNN
	1    2950 3650
	1    0    0    -1  
$EndComp
$Comp
L power:GND #PWR052
U 1 1 609A76D0
P 3400 4250
F 0 "#PWR052" H 3400 4000 50  0001 C CNN
F 1 "GND" H 3405 4077 50  0000 C CNN
F 2 "" H 3400 4250 50  0001 C CNN
F 3 "" H 3400 4250 50  0001 C CNN
	1    3400 4250
	1    0    0    -1  
$EndComp
Wire Wire Line
	4700 5050 4700 5100
Wire Wire Line
	5100 4600 5100 4700
Wire Wire Line
	3450 3850 3400 3850
Wire Wire Line
	3100 3650 2950 3650
Wire Wire Line
	3050 4850 3050 4950
Text HLabel 4650 4700 0    50   Input ~ 0
P2_K
Text HLabel 5050 4200 0    50   Input ~ 0
P1_K
Text HLabel 2600 4050 0    50   Input ~ 0
P1_A
Text HLabel 2600 4450 0    50   Input ~ 0
P2_A
Wire Wire Line
	2600 4050 2700 4050
Wire Wire Line
	2600 4450 2700 4450
Wire Wire Line
	4700 4700 4650 4700
Connection ~ 4700 4700
Wire Wire Line
	4700 4700 4700 4750
Wire Wire Line
	5100 4200 5050 4200
Connection ~ 5100 4200
Wire Wire Line
	5100 4200 5100 4300
Wire Wire Line
	4450 4250 4700 4250
Wire Wire Line
	4700 4250 4700 4300
Text Label 4500 3850 0    50   ~ 0
Pyro1
Text Label 4500 4250 0    50   ~ 0
Pyro2
Wire Wire Line
	3450 4250 3400 4250
Text Label 9200 2350 2    50   ~ 0
Pyro2
Text Label 4600 2550 2    50   ~ 0
Pyro1
Wire Wire Line
	4350 2350 4600 2350
Wire Wire Line
	4350 2550 4600 2550
$Comp
L power:+BATT #PWR045
U 1 1 60B73C84
P 4650 2200
F 0 "#PWR045" H 4650 2050 50  0001 C CNN
F 1 "+BATT" H 4665 2373 50  0000 C CNN
F 2 "" H 4650 2200 50  0001 C CNN
F 3 "" H 4650 2200 50  0001 C CNN
	1    4650 2200
	1    0    0    -1  
$EndComp
Wire Wire Line
	4650 2450 4350 2450
Wire Wire Line
	4650 2450 4650 2250
Connection ~ 4650 2450
Wire Wire Line
	4650 2250 4350 2250
Wire Wire Line
	8100 4200 8050 4200
Text Label 9150 4200 0    50   ~ 0
Pyro4
Text Label 9150 3800 0    50   ~ 0
Pyro3
Wire Wire Line
	9350 4200 9350 4250
Wire Wire Line
	9100 4200 9350 4200
Wire Wire Line
	9750 4150 9750 4250
Connection ~ 9750 4150
Wire Wire Line
	9750 4150 9700 4150
Wire Wire Line
	9350 4650 9350 4700
Connection ~ 9350 4650
Wire Wire Line
	9350 4650 9300 4650
Wire Wire Line
	7250 4400 7350 4400
Wire Wire Line
	7250 4000 7350 4000
Text HLabel 7250 4400 0    50   Input ~ 0
P4_A
Text HLabel 7250 4000 0    50   Input ~ 0
P3_A
Text HLabel 9700 4150 0    50   Input ~ 0
P3_K
Text HLabel 9300 4650 0    50   Input ~ 0
P4_K
Wire Wire Line
	7700 4800 7700 4900
Wire Wire Line
	7750 3600 7600 3600
Wire Wire Line
	8100 3800 8050 3800
Wire Wire Line
	9750 4550 9750 4650
Wire Wire Line
	9350 5000 9350 5050
$Comp
L power:GND #PWR053
U 1 1 60AC3FE9
P 8050 4200
F 0 "#PWR053" H 8050 3950 50  0001 C CNN
F 1 "GND" H 8055 4027 50  0000 C CNN
F 2 "" H 8050 4200 50  0001 C CNN
F 3 "" H 8050 4200 50  0001 C CNN
	1    8050 4200
	1    0    0    -1  
$EndComp
$Comp
L power:GND #PWR043
U 1 1 60AC3FE3
P 7600 3600
F 0 "#PWR043" H 7600 3350 50  0001 C CNN
F 1 "GND" H 7605 3427 50  0000 C CNN
F 2 "" H 7600 3600 50  0001 C CNN
F 3 "" H 7600 3600 50  0001 C CNN
	1    7600 3600
	1    0    0    -1  
$EndComp
$Comp
L power:GND #PWR051
U 1 1 60AC3FDD
P 8050 3800
F 0 "#PWR051" H 8050 3550 50  0001 C CNN
F 1 "GND" H 8055 3627 50  0000 C CNN
F 2 "" H 8050 3800 50  0001 C CNN
F 3 "" H 8050 3800 50  0001 C CNN
	1    8050 3800
	1    0    0    -1  
$EndComp
$Comp
L power:GND #PWR046
U 1 1 60AC3FD7
P 7700 4900
F 0 "#PWR046" H 7700 4650 50  0001 C CNN
F 1 "GND" H 7705 4727 50  0000 C CNN
F 2 "" H 7700 4900 50  0001 C CNN
F 3 "" H 7700 4900 50  0001 C CNN
	1    7700 4900
	1    0    0    -1  
$EndComp
$Comp
L power:GND #PWR057
U 1 1 60AC3FD1
P 9750 4650
F 0 "#PWR057" H 9750 4400 50  0001 C CNN
F 1 "GND" H 9755 4477 50  0000 C CNN
F 2 "" H 9750 4650 50  0001 C CNN
F 3 "" H 9750 4650 50  0001 C CNN
	1    9750 4650
	1    0    0    -1  
$EndComp
$Comp
L power:GND #PWR055
U 1 1 60AC3FCB
P 9350 5050
F 0 "#PWR055" H 9350 4800 50  0001 C CNN
F 1 "GND" H 9355 4877 50  0000 C CNN
F 2 "" H 9350 5050 50  0001 C CNN
F 3 "" H 9350 5050 50  0001 C CNN
	1    9350 5050
	1    0    0    -1  
$EndComp
Wire Wire Line
	9750 4100 9750 4150
Wire Wire Line
	9100 3800 9750 3800
Wire Wire Line
	9350 4550 9350 4650
Wire Wire Line
	7750 4000 8100 4000
Connection ~ 7750 4000
Wire Wire Line
	7750 4000 7750 3900
Wire Wire Line
	7650 4000 7750 4000
Wire Wire Line
	7700 4400 8100 4400
Connection ~ 7700 4400
Wire Wire Line
	7700 4500 7700 4400
Wire Wire Line
	7650 4400 7700 4400
$Comp
L Device:R_US R?
U 1 1 60AC3FBA
P 7500 4000
AR Path="/609302C0/60AC3FBA" Ref="R?"  Part="1" 
AR Path="/609304A1/60AC3FBA" Ref="R?"  Part="1" 
AR Path="/6093043F/60AC3FBA" Ref="R11"  Part="1" 
F 0 "R11" V 7568 4046 50  0000 L CNN
F 1 "100" V 7568 3955 50  0000 R CNN
F 2 "Resistor_SMD:R_0805_2012Metric" V 7540 3990 50  0001 C CNN
F 3 "~" H 7500 4000 50  0001 C CNN
	1    7500 4000
	0    -1   -1   0   
$EndComp
$Comp
L Device:R_US R?
U 1 1 60AC3FB4
P 7750 3750
AR Path="/609302C0/60AC3FB4" Ref="R?"  Part="1" 
AR Path="/6093043F/60AC3FB4" Ref="R19"  Part="1" 
F 0 "R19" H 7818 3796 50  0000 L CNN
F 1 "100K" H 7818 3705 50  0000 L CNN
F 2 "Resistor_SMD:R_0805_2012Metric" V 7790 3740 50  0001 C CNN
F 3 "~" H 7750 3750 50  0001 C CNN
	1    7750 3750
	1    0    0    -1  
$EndComp
$Comp
L Device:R_US R?
U 1 1 60AC3FAE
P 7500 4400
AR Path="/609302C0/60AC3FAE" Ref="R?"  Part="1" 
AR Path="/609304A1/60AC3FAE" Ref="R?"  Part="1" 
AR Path="/6093043F/60AC3FAE" Ref="R13"  Part="1" 
F 0 "R13" V 7568 4446 50  0000 L CNN
F 1 "100" V 7568 4355 50  0000 R CNN
F 2 "Resistor_SMD:R_0805_2012Metric" V 7540 4390 50  0001 C CNN
F 3 "~" H 7500 4400 50  0001 C CNN
	1    7500 4400
	0    -1   -1   0   
$EndComp
$Comp
L Device:R_US R?
U 1 1 60AC3FA8
P 7700 4650
AR Path="/609302C0/60AC3FA8" Ref="R?"  Part="1" 
AR Path="/6093043F/60AC3FA8" Ref="R15"  Part="1" 
F 0 "R15" H 7768 4696 50  0000 L CNN
F 1 "100K" H 7768 4605 50  0000 L CNN
F 2 "Resistor_SMD:R_0805_2012Metric" V 7740 4640 50  0001 C CNN
F 3 "~" H 7700 4650 50  0001 C CNN
	1    7700 4650
	1    0    0    -1  
$EndComp
$Comp
L Device:R_US R?
U 1 1 60AC3FA2
P 9750 4400
AR Path="/609302C0/60AC3FA2" Ref="R?"  Part="1" 
AR Path="/6093043F/60AC3FA2" Ref="R25"  Part="1" 
F 0 "R25" H 9818 4446 50  0000 L CNN
F 1 "100K" H 9818 4355 50  0000 L CNN
F 2 "Resistor_SMD:R_0805_2012Metric" V 9790 4390 50  0001 C CNN
F 3 "~" H 9750 4400 50  0001 C CNN
	1    9750 4400
	1    0    0    -1  
$EndComp
$Comp
L Device:R_US R?
U 1 1 60AC3F9C
P 9750 3950
AR Path="/609302C0/60AC3F9C" Ref="R?"  Part="1" 
AR Path="/6093043F/60AC3F9C" Ref="R23"  Part="1" 
F 0 "R23" H 9818 3996 50  0000 L CNN
F 1 "560K" H 9818 3905 50  0000 L CNN
F 2 "Resistor_SMD:R_0805_2012Metric" V 9790 3940 50  0001 C CNN
F 3 "~" H 9750 3950 50  0001 C CNN
	1    9750 3950
	1    0    0    -1  
$EndComp
$Comp
L Device:R_US R?
U 1 1 60AC3F96
P 9350 4850
AR Path="/609302C0/60AC3F96" Ref="R?"  Part="1" 
AR Path="/6093043F/60AC3F96" Ref="R21"  Part="1" 
F 0 "R21" H 9418 4896 50  0000 L CNN
F 1 "100K" H 9418 4805 50  0000 L CNN
F 2 "Resistor_SMD:R_0805_2012Metric" V 9390 4840 50  0001 C CNN
F 3 "~" H 9350 4850 50  0001 C CNN
	1    9350 4850
	1    0    0    -1  
$EndComp
$Comp
L Device:R_US R?
U 1 1 60AC3F90
P 9350 4400
AR Path="/609302C0/60AC3F90" Ref="R?"  Part="1" 
AR Path="/6093043F/60AC3F90" Ref="R20"  Part="1" 
F 0 "R20" H 9418 4446 50  0000 L CNN
F 1 "560K" H 9418 4355 50  0000 L CNN
F 2 "Resistor_SMD:R_0805_2012Metric" V 9390 4390 50  0001 C CNN
F 3 "~" H 9350 4400 50  0001 C CNN
	1    9350 4400
	1    0    0    -1  
$EndComp
$Comp
L roket-rescue:SI4202DY-T1-GE3-SI4202DY-T1-GE3 U5
U 1 1 60AC3F8A
P 8600 4100
F 0 "U5" H 8600 4767 50  0000 C CNN
F 1 "SI4202DY-T1-GE3" H 8600 4676 50  0000 C CNN
F 2 "others:SI4202DY-T1-GE3" H 8600 4100 50  0001 L BNN
F 3 "" H 8600 4100 50  0001 L BNN
F 4 "A" H 8600 4100 50  0001 L BNN "PARTREV"
F 5 "Texas Instruments" H 8600 4100 50  0001 L BNN "MANUFACTURER"
F 6 "1.75mm" H 8600 4100 50  0001 L BNN "MAXIMUM_PACKAGE_HEIGHT"
F 7 "IPC-7351B" H 8600 4100 50  0001 L BNN "STANDARD"
	1    8600 4100
	1    0    0    -1  
$EndComp
Text Label 9200 2550 2    50   ~ 0
Pyro3
$Comp
L 282834-6:282834-6 J3
U 1 1 60ABB1A9
P 3950 2450
F 0 "J3" H 3845 1980 50  0000 C CNN
F 1 "282834-6" H 3845 2071 50  0000 C CNN
F 2 "others:282834-6" H 3950 2450 50  0001 L BNN
F 3 "" H 3950 2450 50  0001 L BNN
F 4 "282834-6" H 3950 2450 50  0001 L BNN "Comment"
F 5 "Compliant with Exemptions" H 3950 2450 50  0001 L BNN "EU_RoHS_Compliance"
	1    3950 2450
	-1   0    0    1   
$EndComp
Wire Wire Line
	4350 2650 4650 2650
Wire Wire Line
	4650 2450 4650 2650
Wire Wire Line
	4650 2200 4650 2250
Connection ~ 4650 2250
$Comp
L power:GND #PWR0104
U 1 1 60ACBBDF
P 4400 2800
F 0 "#PWR0104" H 4400 2550 50  0001 C CNN
F 1 "GND" H 4405 2627 50  0000 C CNN
F 2 "" H 4400 2800 50  0001 C CNN
F 3 "" H 4400 2800 50  0001 C CNN
	1    4400 2800
	1    0    0    -1  
$EndComp
Wire Wire Line
	4350 2750 4400 2750
Wire Wire Line
	4400 2750 4400 2800
Wire Wire Line
	9200 2550 8950 2550
$Comp
L power:+BATT #PWR0105
U 1 1 60AD1421
P 9250 2200
F 0 "#PWR0105" H 9250 2050 50  0001 C CNN
F 1 "+BATT" H 9265 2373 50  0000 C CNN
F 2 "" H 9250 2200 50  0001 C CNN
F 3 "" H 9250 2200 50  0001 C CNN
	1    9250 2200
	1    0    0    -1  
$EndComp
Wire Wire Line
	9250 2450 8950 2450
Wire Wire Line
	9250 2450 9250 2250
Connection ~ 9250 2450
Wire Wire Line
	9250 2250 8950 2250
$Comp
L 282834-6:282834-6 J4
U 1 1 60AD142D
P 8550 2450
F 0 "J4" H 8445 1980 50  0000 C CNN
F 1 "282834-6" H 8445 2071 50  0000 C CNN
F 2 "others:282834-6" H 8550 2450 50  0001 L BNN
F 3 "" H 8550 2450 50  0001 L BNN
F 4 "282834-6" H 8550 2450 50  0001 L BNN "Comment"
F 5 "Compliant with Exemptions" H 8550 2450 50  0001 L BNN "EU_RoHS_Compliance"
	1    8550 2450
	-1   0    0    1   
$EndComp
Wire Wire Line
	8950 2650 9250 2650
Wire Wire Line
	9250 2450 9250 2650
Wire Wire Line
	9250 2200 9250 2250
Connection ~ 9250 2250
$Comp
L power:GND #PWR0106
U 1 1 60AD1437
P 9000 2800
F 0 "#PWR0106" H 9000 2550 50  0001 C CNN
F 1 "GND" H 9005 2627 50  0000 C CNN
F 2 "" H 9000 2800 50  0001 C CNN
F 3 "" H 9000 2800 50  0001 C CNN
	1    9000 2800
	1    0    0    -1  
$EndComp
Wire Wire Line
	8950 2750 9000 2750
Wire Wire Line
	9000 2750 9000 2800
Wire Wire Line
	9200 2350 8950 2350
Text Label 4600 2350 2    50   ~ 0
Pyro4
$EndSCHEMATC
