EESchema Schematic File Version 4
EELAYER 30 0
EELAYER END
$Descr A4 11693 8268
encoding utf-8
Sheet 1 14
Title ""
Date ""
Rev ""
Comp ""
Comment1 ""
Comment2 ""
Comment3 ""
Comment4 ""
$EndDescr
$Sheet
S 2900 4850 800  200 
U 6092FBF4
F0 "power" 50
F1 "power.sch" 50
F2 "Bat_D" I R 3700 4950 50 
$EndSheet
$Sheet
S 7150 3350 700  900 
U 6093034B
F0 "cc1200" 50
F1 "cc1200.sch" 50
F2 "GPIO3" I L 7150 4150 50 
F3 "GPIO2" I L 7150 4050 50 
F4 "GPIO0" I L 7150 3950 50 
F5 "MISO" I L 7150 3500 50 
F6 "MOSI" I L 7150 3600 50 
F7 "SCLK" I L 7150 3700 50 
F8 "CS" I L 7150 3800 50 
$EndSheet
$Sheet
S 2900 4350 750  200 
U 609303B5
F0 "Buzzer" 50
F1 "Buzzer.sch" 50
F2 "Buzzer" I R 3650 4450 50 
$EndSheet
$Sheet
S 2900 3850 750  200 
U 609303F8
F0 "Servo" 50
F1 "Servo.sch" 50
F2 "Servo" I R 3650 3950 50 
$EndSheet
$Sheet
S 7150 2000 700  1100
U 6093043F
F0 "Mosfet" 50
F1 "Mosfet.sch" 50
F2 "P2_K" I L 7150 2250 50 
F3 "P1_K" I L 7150 2150 50 
F4 "P1_A" I L 7150 2650 50 
F5 "P2_A" I L 7150 2750 50 
F6 "P4_K" I L 7150 2450 50 
F7 "P3_A" I L 7150 2850 50 
F8 "P4_A" I L 7150 2950 50 
F9 "P3_K" I L 7150 2350 50 
$EndSheet
$Sheet
S 2900 2950 750  550 
U 609304A1
F0 "Led_Buton" 50
F1 "Led_Buton.sch" 50
F2 "Led1" I R 3650 3300 50 
F3 "Led2" I R 3650 3400 50 
F4 "IO0" I R 3650 3050 50 
F5 "EN" I R 3650 3150 50 
$EndSheet
$Sheet
S 8950 2500 950  300 
U 60930501
F0 "Oled" 50
F1 "Oled.sch" 50
F2 "SCL_OLED" I L 8950 2700 50 
F3 "SDA_OLED" I L 8950 2600 50 
$EndSheet
$Sheet
S 8950 3000 950  300 
U 6093055C
F0 "Icm-20948" 50
F1 "Icm-20948.sch" 50
F2 "SCL_ICM" I L 8950 3200 50 
F3 "SDA_ICM" I L 8950 3100 50 
$EndSheet
$Sheet
S 8950 4650 950  300 
U 609305A3
F0 "H3LIS331DL" 50
F1 "H3LIS331DL.sch" 50
F2 "SCL_MS" I L 8950 4850 50 
F3 "SDA_MS" I L 8950 4750 50 
$EndSheet
$Sheet
S 8950 4100 950  300 
U 609305FE
F0 "MS5611" 50
F1 "MS5611.sch" 50
F2 "SDA_MS" I L 8950 4200 50 
F3 "SCL_MS" I L 8950 4300 50 
$EndSheet
$Sheet
S 8950 3550 950  300 
U 6093064A
F0 "GPS" 50
F1 "GPS.sch" 50
F2 "GPS_SDA" I L 8950 3650 50 
F3 "GPS_SCL" I L 8950 3750 50 
$EndSheet
$Sheet
S 4200 1800 2400 3600
U 609302C0
F0 "Mcu" 50
F1 "Mcu.sch" 50
F2 "EN" I L 4200 2400 50 
F3 "SENSOR_VP" I R 6600 2950 50 
F4 "SENSOR_VN" I R 6600 2850 50 
F5 "IO34" I R 6600 2750 50 
F6 "IO35" I R 6600 2650 50 
F7 "TXD0" I L 4200 2250 50 
F8 "RXD0" I L 4200 2150 50 
F9 "IO0" I L 4200 2500 50 
F10 "IO2" I L 4200 3400 50 
F11 "IO4" I R 6600 3950 50 
F12 "IO5" I R 6600 3800 50 
F13 "IO12" I L 4200 4950 50 
F14 "IO13" I L 4200 3950 50 
F15 "IO14" I R 6600 4600 50 
F16 "IO15" I L 4200 4450 50 
F17 "IO16" I R 6600 4050 50 
F18 "IO17" I R 6600 4150 50 
F19 "IO18" I R 6600 3700 50 
F20 "IO19" I R 6600 3500 50 
F21 "IO21" I R 6600 5050 50 
F22 "IO22" I R 6600 5150 50 
F23 "IO23" I R 6600 3600 50 
F24 "IO25" I R 6600 2450 50 
F25 "IO26" I R 6600 2150 50 
F26 "IO27" I L 4200 3300 50 
F27 "IO32" I R 6600 2250 50 
F28 "IO33" I R 6600 2350 50 
$EndSheet
$Sheet
S 2900 2000 750  650 
U 609302F8
F0 "Programmer" 50
F1 "Programmer.sch" 50
F2 "RXD0" I R 3650 2150 50 
F3 "TXD0" I R 3650 2250 50 
F4 "EN" I R 3650 2400 50 
F5 "I0O" I R 3650 2500 50 
$EndSheet
Wire Wire Line
	6600 4150 7150 4150
Wire Wire Line
	6600 4050 7150 4050
Wire Wire Line
	6600 3950 7150 3950
Wire Wire Line
	6600 3800 7150 3800
Wire Wire Line
	6600 3700 7150 3700
Wire Wire Line
	6600 3600 7150 3600
Wire Wire Line
	6600 3500 7150 3500
Wire Wire Line
	6600 2950 7150 2950
Wire Wire Line
	6600 2850 7150 2850
Wire Wire Line
	6600 2750 7150 2750
Wire Wire Line
	6600 2650 7150 2650
Wire Wire Line
	6600 2450 7150 2450
Wire Wire Line
	6600 2350 7150 2350
Wire Wire Line
	6600 2250 7150 2250
Wire Wire Line
	6600 2150 7150 2150
Wire Wire Line
	4200 2150 3650 2150
Wire Wire Line
	4200 2250 3650 2250
Wire Wire Line
	4200 2400 3950 2400
Wire Wire Line
	4200 2500 3800 2500
Wire Wire Line
	3800 2500 3800 3050
Wire Wire Line
	3800 3050 3650 3050
Connection ~ 3800 2500
Wire Wire Line
	3800 2500 3650 2500
Wire Wire Line
	3650 3150 3950 3150
Wire Wire Line
	3950 3150 3950 2400
Connection ~ 3950 2400
Wire Wire Line
	3950 2400 3650 2400
Wire Wire Line
	4200 3300 3650 3300
Wire Wire Line
	4200 3400 3650 3400
Wire Wire Line
	4200 3950 3650 3950
Wire Wire Line
	4200 4450 3650 4450
Wire Wire Line
	4200 4950 3700 4950
Text Label 6900 5150 0    50   ~ 0
SCL
Text Label 6900 5050 0    50   ~ 0
SDA
Wire Wire Line
	6900 5050 6600 5050
Wire Wire Line
	6600 5150 6900 5150
Text Label 8650 4850 2    50   ~ 0
SCL
Text Label 8650 4750 2    50   ~ 0
SDA
Wire Wire Line
	8650 4750 8950 4750
Wire Wire Line
	8950 4850 8650 4850
Text Label 8650 4300 2    50   ~ 0
SCL
Text Label 8650 4200 2    50   ~ 0
SDA
Wire Wire Line
	8650 4200 8950 4200
Wire Wire Line
	8950 4300 8650 4300
Text Label 8650 3750 2    50   ~ 0
SCL
Text Label 8650 3650 2    50   ~ 0
SDA
Wire Wire Line
	8650 3650 8950 3650
Wire Wire Line
	8950 3750 8650 3750
Text Label 8650 3200 2    50   ~ 0
SCL
Text Label 8650 3100 2    50   ~ 0
SDA
Wire Wire Line
	8650 3100 8950 3100
Wire Wire Line
	8950 3200 8650 3200
Text Label 8650 2700 2    50   ~ 0
SCL
Text Label 8650 2600 2    50   ~ 0
SDA
Wire Wire Line
	8650 2600 8950 2600
Wire Wire Line
	8950 2700 8650 2700
$EndSCHEMATC
