M48
INCH,TZ
T1C0.0197
T2C0.0354
T3C0.1260
%
G90
G05
T1
X31004Y-19193
X31004Y-19902
X31004Y-53236
X31004Y-53945
X31398Y-19193
X31398Y-19902
X31398Y-53236
X31398Y-53945
X31634Y-54232
X31634Y-54626
X31634Y-54626
X31634Y-55020
X31634Y-55020
X31634Y-55413
X31634Y-55413
X31634Y-55807
X31634Y-56201
X31634Y-56201
X31634Y-56594
X31634Y-56988
X31713Y-17815
X31713Y-18209
X31713Y-18209
X31713Y-18602
X31713Y-18602
X31713Y-18996
X31791Y-19193
X31791Y-19902
X31791Y-53236
X31791Y-53945
X32343Y-54232
X32343Y-54626
X32343Y-54626
X32343Y-55020
X32343Y-55020
X32343Y-55413
X32343Y-55413
X32343Y-55807
X32343Y-56201
X32343Y-56201
X32343Y-56594
X32343Y-56988
X32421Y-17815
X32421Y-18209
X32421Y-18209
X32421Y-18602
X32421Y-18602
X32421Y-18996
X37299Y-19240
X37299Y-19949
X37362Y-53236
X37362Y-53945
X37693Y-19240
X37693Y-19949
X37756Y-53236
X37756Y-53945
X38087Y-19240
X38087Y-19949
X38150Y-53236
X38150Y-53945
X43652Y-24409
X43652Y-24803
X43652Y-25197
X43652Y-34618
X43652Y-35012
X43652Y-35406
X43652Y-46284
X43652Y-46678
X43652Y-47072
X44360Y-24409
X44360Y-24803
X44360Y-25197
X44360Y-34618
X44360Y-35012
X44360Y-35406
X44360Y-46284
X44360Y-46678
X44360Y-47072
X50177Y-19193
X50177Y-19902
X50177Y-29705
X50177Y-30413
X50177Y-40049
X50177Y-40758
X50177Y-52602
X50177Y-53311
X50571Y-19193
X50571Y-19902
X50571Y-29705
X50571Y-30413
X50571Y-40049
X50571Y-40758
X50571Y-52602
X50571Y-53311
X50965Y-19193
X50965Y-19902
X50965Y-29705
X50965Y-30413
X50965Y-40049
X50965Y-40758
X50965Y-52602
X50965Y-53311
X63071Y-19193
X63071Y-19902
X63071Y-52602
X63071Y-53311
X63189Y-29705
X63189Y-30413
X63189Y-40049
X63189Y-40758
X63465Y-19193
X63465Y-19902
X63465Y-52602
X63465Y-53311
X63583Y-29705
X63583Y-30413
X63583Y-40049
X63583Y-40758
X63858Y-19193
X63858Y-19902
X63858Y-52602
X63858Y-53311
X63976Y-29705
X63976Y-30413
X63976Y-40049
X63976Y-40758
X68681Y-17815
X68681Y-18209
X68681Y-18209
X68681Y-18602
X68681Y-18602
X68681Y-18996
X68740Y-53445
X68740Y-53839
X68740Y-53839
X68740Y-54232
X68740Y-54232
X68740Y-54626
X68740Y-54626
X68740Y-55020
X68740Y-55413
X68740Y-55413
X68740Y-55807
X68740Y-56201
X68740Y-56201
X68740Y-56594
X68740Y-56988
X69390Y-17815
X69390Y-18209
X69390Y-18209
X69390Y-18602
X69390Y-18602
X69390Y-18996
X69390Y-19193
X69390Y-19902
X69390Y-52598
X69390Y-53307
X69449Y-53445
X69449Y-53839
X69449Y-53839
X69449Y-54232
X69449Y-54232
X69449Y-54626
X69449Y-54626
X69449Y-55020
X69449Y-55413
X69449Y-55413
X69449Y-55807
X69449Y-56201
X69449Y-56201
X69449Y-56594
X69449Y-56988
X69783Y-19193
X69783Y-19902
X69783Y-52598
X69783Y-53307
X70177Y-19193
X70177Y-19902
X70177Y-52598
X70177Y-53307
T2
X48965Y-42615
X52114Y-42615
T3
X33130Y-31573
X33130Y-51896
X42303Y-31573
X42303Y-51896
X50769Y-31872
X55866Y-42190
X55866Y-51166
X56102Y-21220
X56102Y-28386
X63949Y-38572
X67205Y-21220
X67205Y-28386
X67896Y-42178
X67896Y-51155
T0
M30
