EESchema Schematic File Version 4
EELAYER 30 0
EELAYER END
$Descr A4 11693 8268
encoding utf-8
Sheet 10 15
Title ""
Date ""
Rev ""
Comp ""
Comment1 ""
Comment2 ""
Comment3 ""
Comment4 ""
$EndDescr
$Comp
L power:+3.3V #PWR?
U 1 1 60A13AF9
P 6450 2750
AR Path="/609302C0/60A13AF9" Ref="#PWR?"  Part="1" 
AR Path="/6093064A/60A13AF9" Ref="#PWR049"  Part="1" 
F 0 "#PWR049" H 6450 2600 50  0001 C CNN
F 1 "+3.3V" H 6465 2923 50  0000 C CNN
F 2 "" H 6450 2750 50  0001 C CNN
F 3 "" H 6450 2750 50  0001 C CNN
	1    6450 2750
	1    0    0    -1  
$EndComp
$Comp
L roket-rescue:Cap-805_cap C?
U 1 1 60A13AFF
P 6450 2900
AR Path="/609302C0/60A13AFF" Ref="C?"  Part="1" 
AR Path="/6093064A/60A13AFF" Ref="C15"  Part="1" 
F 0 "C15" V 6454 3003 50  0000 L CNN
F 1 "0.1uF" V 6545 3003 50  0000 L CNN
F 2 "Capacitor_SMD:C_0805_2012Metric" H 6450 2900 50  0001 L BNN
F 3 "" H 6450 2900 50  0001 L BNN
	1    6450 2900
	0    1    1    0   
$EndComp
$Comp
L power:GND #PWR?
U 1 1 60A13B05
P 6450 3150
AR Path="/609302C0/60A13B05" Ref="#PWR?"  Part="1" 
AR Path="/6093064A/60A13B05" Ref="#PWR050"  Part="1" 
F 0 "#PWR050" H 6450 2900 50  0001 C CNN
F 1 "GND" H 6455 2977 50  0000 C CNN
F 2 "" H 6450 3150 50  0001 C CNN
F 3 "" H 6450 3150 50  0001 C CNN
	1    6450 3150
	1    0    0    -1  
$EndComp
$Comp
L power:GND #PWR?
U 1 1 60A15C71
P 5850 4200
AR Path="/609302C0/60A15C71" Ref="#PWR?"  Part="1" 
AR Path="/6093064A/60A15C71" Ref="#PWR051"  Part="1" 
F 0 "#PWR051" H 5850 3950 50  0001 C CNN
F 1 "GND" H 5855 4027 50  0000 C CNN
F 2 "" H 5850 4200 50  0001 C CNN
F 3 "" H 5850 4200 50  0001 C CNN
	1    5850 4200
	1    0    0    -1  
$EndComp
Text HLabel 6400 3450 2    50   Input ~ 0
RX
Text HLabel 6400 3550 2    50   Input ~ 0
TX
$Comp
L RF_GPS:ublox_SAM-M8Q U6
U 1 1 616B0BC7
P 5850 3650
F 0 "U6" H 5500 4150 50  0000 C CNN
F 1 "ublox_SAM-M8Q" H 5450 3150 50  0000 C CNN
F 2 "RF_GPS:ublox_SAM-M8Q" H 6350 3200 50  0001 C CNN
F 3 "https://www.u-blox.com/sites/default/files/SAM-M8Q_DataSheet_%28UBX-16012619%29.pdf" H 5850 3650 50  0001 C CNN
	1    5850 3650
	1    0    0    -1  
$EndComp
Wire Wire Line
	6450 3150 6450 3100
Wire Wire Line
	6450 2800 6450 2750
Wire Wire Line
	6450 2800 5950 2800
Connection ~ 6450 2800
Wire Wire Line
	5950 3150 5950 3100
Wire Wire Line
	6400 3450 6350 3450
Wire Wire Line
	6400 3550 6350 3550
NoConn ~ 6350 3750
NoConn ~ 6350 3850
Wire Wire Line
	5650 3150 5650 3100
Wire Wire Line
	5650 3100 5750 3100
Connection ~ 5950 3100
Wire Wire Line
	5950 3100 5950 2800
Wire Wire Line
	5750 3150 5750 3100
Connection ~ 5750 3100
Wire Wire Line
	5750 3100 5850 3100
Wire Wire Line
	5850 3150 5850 3100
Connection ~ 5850 3100
Wire Wire Line
	5850 3100 5950 3100
NoConn ~ 5350 3750
NoConn ~ 5350 3650
NoConn ~ 5350 3550
Wire Wire Line
	5850 4150 5850 4200
$EndSCHEMATC
