EESchema Schematic File Version 4
EELAYER 30 0
EELAYER END
$Descr A4 11693 8268
encoding utf-8
Sheet 8 15
Title ""
Date ""
Rev ""
Comp ""
Comment1 ""
Comment2 ""
Comment3 ""
Comment4 ""
$EndDescr
$Comp
L roket-rescue:H3LIS331DL-H3LIS331DL U4
U 1 1 60AD2973
P 6050 3350
F 0 "U4" H 6050 3917 50  0000 C CNN
F 1 "H3LIS331DL" H 6050 3826 50  0000 C CNN
F 2 "digikey-footprints:TFLGA-16_3x3mm" H 6050 3350 50  0001 L BNN
F 3 "" H 6050 3350 50  0001 L BNN
F 4 "Good" H 6050 3350 50  0001 L BNN "AVAILABILITY"
F 5 "H3LIS331DL" H 6050 3350 50  0001 L BNN "MP"
F 6 "QFN300X300X100-16N" H 6050 3350 50  0001 L BNN "PACKAGE"
F 7 "STMicroelectronics" H 6050 3350 50  0001 L BNN "MF"
F 8 "$6.93 USD" H 6050 3350 50  0001 L BNN "PRICE"
	1    6050 3350
	1    0    0    -1  
$EndComp
$Comp
L roket-rescue:Cap-805_cap C?
U 1 1 60AD40A9
P 7100 3250
AR Path="/609302C0/60AD40A9" Ref="C?"  Part="1" 
AR Path="/6093034B/60AD40A9" Ref="C?"  Part="1" 
AR Path="/6093055C/60AD40A9" Ref="C?"  Part="1" 
AR Path="/609305FE/60AD40A9" Ref="C?"  Part="1" 
AR Path="/609305A3/60AD40A9" Ref="C12"  Part="1" 
F 0 "C12" V 7104 3353 50  0000 L CNN
F 1 "0.1uF" V 7195 3353 50  0000 L CNN
F 2 "Capacitor_SMD:C_0805_2012Metric" H 7100 3250 50  0001 L BNN
F 3 "" H 7100 3250 50  0001 L BNN
	1    7100 3250
	0    1    1    0   
$EndComp
$Comp
L power:GND #PWR?
U 1 1 60AD40B0
P 7100 3650
AR Path="/6093034B/60AD40B0" Ref="#PWR?"  Part="1" 
AR Path="/6093055C/60AD40B0" Ref="#PWR?"  Part="1" 
AR Path="/609305FE/60AD40B0" Ref="#PWR?"  Part="1" 
AR Path="/609305A3/60AD40B0" Ref="#PWR044"  Part="1" 
F 0 "#PWR044" H 7100 3400 50  0001 C CNN
F 1 "GND" H 7105 3477 50  0000 C CNN
F 2 "" H 7100 3650 50  0001 C CNN
F 3 "" H 7100 3650 50  0001 C CNN
	1    7100 3650
	1    0    0    -1  
$EndComp
$Comp
L power:+3.3V #PWR?
U 1 1 60AD40B6
P 7100 3050
AR Path="/6093034B/60AD40B6" Ref="#PWR?"  Part="1" 
AR Path="/6093055C/60AD40B6" Ref="#PWR?"  Part="1" 
AR Path="/609305FE/60AD40B6" Ref="#PWR?"  Part="1" 
AR Path="/609305A3/60AD40B6" Ref="#PWR043"  Part="1" 
F 0 "#PWR043" H 7100 2900 50  0001 C CNN
F 1 "+3.3V" H 7115 3223 50  0000 C CNN
F 2 "" H 7100 3050 50  0001 C CNN
F 3 "" H 7100 3050 50  0001 C CNN
	1    7100 3050
	1    0    0    -1  
$EndComp
Wire Wire Line
	7100 3150 7100 3050
$Comp
L roket-rescue:Cap-805_cap C?
U 1 1 60AD4419
P 7550 3250
AR Path="/609302C0/60AD4419" Ref="C?"  Part="1" 
AR Path="/6093034B/60AD4419" Ref="C?"  Part="1" 
AR Path="/6093055C/60AD4419" Ref="C?"  Part="1" 
AR Path="/609305FE/60AD4419" Ref="C?"  Part="1" 
AR Path="/609305A3/60AD4419" Ref="C13"  Part="1" 
F 0 "C13" V 7554 3353 50  0000 L CNN
F 1 "10uF" V 7645 3353 50  0000 L CNN
F 2 "Capacitor_SMD:C_0805_2012Metric" H 7550 3250 50  0001 L BNN
F 3 "" H 7550 3250 50  0001 L BNN
	1    7550 3250
	0    1    1    0   
$EndComp
Wire Wire Line
	7100 3450 7100 3600
Wire Wire Line
	6750 3050 6800 3050
Connection ~ 7100 3050
Wire Wire Line
	6750 3150 6800 3150
Wire Wire Line
	6800 3150 6800 3050
Connection ~ 6800 3050
Wire Wire Line
	6800 3050 7100 3050
Wire Wire Line
	7100 3050 7550 3050
Wire Wire Line
	7550 3050 7550 3150
Wire Wire Line
	7550 3450 7550 3600
Wire Wire Line
	7550 3600 7100 3600
Wire Wire Line
	6750 3650 7100 3650
Wire Wire Line
	7100 3650 7100 3600
Connection ~ 7100 3650
Connection ~ 7100 3600
NoConn ~ 6750 3350
NoConn ~ 6750 3450
Text HLabel 5300 3050 0    50   Input ~ 0
CS
Text HLabel 5300 3650 0    50   Input ~ 0
MOSI
Text HLabel 5300 3550 0    50   Input ~ 0
SCLK
Text HLabel 5300 3150 0    50   Input ~ 0
MISO
Wire Wire Line
	5350 3050 5300 3050
Wire Wire Line
	5350 3150 5300 3150
Wire Wire Line
	5350 3550 5300 3550
Wire Wire Line
	5350 3650 5300 3650
$EndSCHEMATC
