(kicad_sch (version 20211123) (generator eeschema)

  (uuid 43d0c639-b164-483c-8b00-b573b8cafe80)

  (paper "A4")

  (lib_symbols
    (symbol "Mechanical:MountingHole" (pin_names (offset 1.016)) (in_bom yes) (on_board yes)
      (property "Reference" "H" (id 0) (at 0 5.08 0)
        (effects (font (size 1.27 1.27)))
      )
      (property "Value" "MountingHole" (id 1) (at 0 3.175 0)
        (effects (font (size 1.27 1.27)))
      )
      (property "Footprint" "" (id 2) (at 0 0 0)
        (effects (font (size 1.27 1.27)) hide)
      )
      (property "Datasheet" "~" (id 3) (at 0 0 0)
        (effects (font (size 1.27 1.27)) hide)
      )
      (property "ki_keywords" "mounting hole" (id 4) (at 0 0 0)
        (effects (font (size 1.27 1.27)) hide)
      )
      (property "ki_description" "Mounting Hole without connection" (id 5) (at 0 0 0)
        (effects (font (size 1.27 1.27)) hide)
      )
      (property "ki_fp_filters" "MountingHole*" (id 6) (at 0 0 0)
        (effects (font (size 1.27 1.27)) hide)
      )
      (symbol "MountingHole_0_1"
        (circle (center 0 0) (radius 1.27)
          (stroke (width 1.27) (type default) (color 0 0 0 0))
          (fill (type none))
        )
      )
    )
  )

  (junction (at 99.06 55.88) (diameter 0) (color 0 0 0 0)
    (uuid 1dab10f2-d2ea-44e9-81fe-dff3608cf411)
  )
  (junction (at 96.52 58.42) (diameter 0) (color 0 0 0 0)
    (uuid b22345e9-cc39-47a4-88b0-af83c37a224b)
  )

  (wire (pts (xy 212.09 48.26) (xy 219.71 48.26))
    (stroke (width 0) (type default) (color 0 0 0 0))
    (uuid 04479c9f-a695-4beb-9e22-b561103f3a99)
  )
  (wire (pts (xy 92.71 55.88) (xy 99.06 55.88))
    (stroke (width 0) (type default) (color 0 0 0 0))
    (uuid 06cdc055-2445-4bcf-9b13-1061612fc96e)
  )
  (wire (pts (xy 167.64 49.53) (xy 175.26 49.53))
    (stroke (width 0) (type default) (color 0 0 0 0))
    (uuid 073a5003-337b-4068-a51f-344d3d23ef67)
  )
  (wire (pts (xy 106.68 124.46) (xy 93.98 124.46))
    (stroke (width 0) (type default) (color 0 0 0 0))
    (uuid 0a60d04e-c37f-4d06-af90-236469dbf8c5)
  )
  (wire (pts (xy 106.68 52.07) (xy 92.71 52.07))
    (stroke (width 0) (type default) (color 0 0 0 0))
    (uuid 12c5df66-ac64-432a-be23-542da57ad484)
  )
  (wire (pts (xy 219.71 59.69) (xy 212.09 59.69))
    (stroke (width 0) (type default) (color 0 0 0 0))
    (uuid 181640ea-a525-4549-9f44-f6f5d67231f7)
  )
  (wire (pts (xy 219.71 62.23) (xy 212.09 62.23))
    (stroke (width 0) (type default) (color 0 0 0 0))
    (uuid 1b164061-1860-4cc8-b2d6-fd6c915b790e)
  )
  (wire (pts (xy 219.71 67.31) (xy 212.09 67.31))
    (stroke (width 0) (type default) (color 0 0 0 0))
    (uuid 1ef4c461-77ae-486e-a081-eae9ca68b50e)
  )
  (wire (pts (xy 212.09 153.67) (xy 219.71 153.67))
    (stroke (width 0) (type default) (color 0 0 0 0))
    (uuid 302bbc37-d8e2-4696-a74f-0f04998beaa7)
  )
  (wire (pts (xy 92.71 78.74) (xy 106.68 78.74))
    (stroke (width 0) (type default) (color 0 0 0 0))
    (uuid 32bc540a-baa7-4973-ad55-b9d2954d8589)
  )
  (wire (pts (xy 219.71 143.51) (xy 212.09 143.51))
    (stroke (width 0) (type default) (color 0 0 0 0))
    (uuid 35e4f22a-786f-4d69-aef8-027704b9c1cd)
  )
  (wire (pts (xy 212.09 128.27) (xy 219.71 128.27))
    (stroke (width 0) (type default) (color 0 0 0 0))
    (uuid 3b57b222-d0dd-4c09-9b11-d43523f220ef)
  )
  (wire (pts (xy 219.71 78.74) (xy 212.09 78.74))
    (stroke (width 0) (type default) (color 0 0 0 0))
    (uuid 3b95f19e-dfe9-4809-9985-1533f5c5f1ca)
  )
  (wire (pts (xy 99.06 72.39) (xy 99.06 55.88))
    (stroke (width 0) (type default) (color 0 0 0 0))
    (uuid 3c542d19-2cb7-4931-b4ee-6a02329c3ffc)
  )
  (wire (pts (xy 212.09 120.65) (xy 219.71 120.65))
    (stroke (width 0) (type default) (color 0 0 0 0))
    (uuid 3e787487-87af-43e0-8538-85cdf8499fbc)
  )
  (wire (pts (xy 99.06 55.88) (xy 106.68 55.88))
    (stroke (width 0) (type default) (color 0 0 0 0))
    (uuid 490994d0-5b1e-4704-9631-67f9abad5870)
  )
  (wire (pts (xy 219.71 50.8) (xy 212.09 50.8))
    (stroke (width 0) (type default) (color 0 0 0 0))
    (uuid 5028c790-d774-4075-acb1-aca0996254e8)
  )
  (wire (pts (xy 167.64 100.33) (xy 175.26 100.33))
    (stroke (width 0) (type default) (color 0 0 0 0))
    (uuid 56e38712-2d05-4e80-a684-858c17412103)
  )
  (wire (pts (xy 175.26 92.71) (xy 167.64 92.71))
    (stroke (width 0) (type default) (color 0 0 0 0))
    (uuid 59376c94-e9b9-4978-96f7-87146bebedd0)
  )
  (wire (pts (xy 96.52 69.85) (xy 96.52 58.42))
    (stroke (width 0) (type default) (color 0 0 0 0))
    (uuid 5d33edc8-1300-4175-a7c8-783c330bfdef)
  )
  (wire (pts (xy 219.71 53.34) (xy 212.09 53.34))
    (stroke (width 0) (type default) (color 0 0 0 0))
    (uuid 670eaf35-cfe8-4659-99ff-eb73fdfe26bc)
  )
  (wire (pts (xy 219.71 156.21) (xy 212.09 156.21))
    (stroke (width 0) (type default) (color 0 0 0 0))
    (uuid 6af8f53a-4432-49ba-a80a-1bf0d409869d)
  )
  (wire (pts (xy 219.71 123.19) (xy 212.09 123.19))
    (stroke (width 0) (type default) (color 0 0 0 0))
    (uuid 712a5687-2610-4c0b-937d-aec72ebb2755)
  )
  (wire (pts (xy 92.71 69.85) (xy 96.52 69.85))
    (stroke (width 0) (type default) (color 0 0 0 0))
    (uuid 754a12f3-e51f-4056-88a4-eae2df4a1b98)
  )
  (wire (pts (xy 167.64 57.15) (xy 175.26 57.15))
    (stroke (width 0) (type default) (color 0 0 0 0))
    (uuid 83e96f02-45c3-411d-8fba-3a6df3f25715)
  )
  (wire (pts (xy 175.26 102.87) (xy 167.64 102.87))
    (stroke (width 0) (type default) (color 0 0 0 0))
    (uuid 84352909-f4f5-4804-8af0-7b74e0a471ac)
  )
  (wire (pts (xy 96.52 58.42) (xy 106.68 58.42))
    (stroke (width 0) (type default) (color 0 0 0 0))
    (uuid 84e29b43-991a-459f-98d1-c78f8f2c4daa)
  )
  (wire (pts (xy 219.71 104.14) (xy 212.09 104.14))
    (stroke (width 0) (type default) (color 0 0 0 0))
    (uuid 88b4dd67-d2a4-4d58-a586-32558060f2df)
  )
  (wire (pts (xy 93.98 130.81) (xy 106.68 130.81))
    (stroke (width 0) (type default) (color 0 0 0 0))
    (uuid 88cc3866-2932-4e1f-b515-ea468ddbc08c)
  )
  (wire (pts (xy 175.26 67.31) (xy 167.64 67.31))
    (stroke (width 0) (type default) (color 0 0 0 0))
    (uuid 8ca17677-0abe-4fbb-a5fb-dfce97a55310)
  )
  (wire (pts (xy 212.09 55.88) (xy 219.71 55.88))
    (stroke (width 0) (type default) (color 0 0 0 0))
    (uuid 8f3bd2c3-6002-4f09-be8c-0fe1fb5d2961)
  )
  (wire (pts (xy 92.71 76.2) (xy 106.68 76.2))
    (stroke (width 0) (type default) (color 0 0 0 0))
    (uuid 92aa3872-bef8-4b35-9dc0-22fabcbe36bc)
  )
  (wire (pts (xy 92.71 72.39) (xy 99.06 72.39))
    (stroke (width 0) (type default) (color 0 0 0 0))
    (uuid 9c97f958-858e-440d-84d2-82d92b3f74af)
  )
  (wire (pts (xy 106.68 127) (xy 93.98 127))
    (stroke (width 0) (type default) (color 0 0 0 0))
    (uuid a112bbd6-7466-4b16-8658-abe1d86be066)
  )
  (wire (pts (xy 175.26 74.93) (xy 167.64 74.93))
    (stroke (width 0) (type default) (color 0 0 0 0))
    (uuid a2877dd3-a622-4ffc-8ea6-edd42c5a7589)
  )
  (wire (pts (xy 106.68 101.6) (xy 92.71 101.6))
    (stroke (width 0) (type default) (color 0 0 0 0))
    (uuid a9e0be28-91e4-4617-b085-9f3c745a80ca)
  )
  (wire (pts (xy 219.71 106.68) (xy 212.09 106.68))
    (stroke (width 0) (type default) (color 0 0 0 0))
    (uuid abda0b37-ac1d-4f92-ac14-2841ff761c48)
  )
  (wire (pts (xy 167.64 95.25) (xy 175.26 95.25))
    (stroke (width 0) (type default) (color 0 0 0 0))
    (uuid ae98326a-e142-449b-9ca4-bacf1088d7d3)
  )
  (wire (pts (xy 212.09 101.6) (xy 219.71 101.6))
    (stroke (width 0) (type default) (color 0 0 0 0))
    (uuid b49c508d-2d79-42af-9693-96f12a6d0e4d)
  )
  (wire (pts (xy 219.71 125.73) (xy 212.09 125.73))
    (stroke (width 0) (type default) (color 0 0 0 0))
    (uuid b65ba35f-2446-4984-8e74-39dae0d32df4)
  )
  (wire (pts (xy 93.98 133.35) (xy 106.68 133.35))
    (stroke (width 0) (type default) (color 0 0 0 0))
    (uuid cd5bc7dc-10d6-419f-93e5-21bf3abe0549)
  )
  (wire (pts (xy 212.09 140.97) (xy 219.71 140.97))
    (stroke (width 0) (type default) (color 0 0 0 0))
    (uuid d2ce9f4b-ccdc-4b1c-8fa6-fea0d637370a)
  )
  (wire (pts (xy 92.71 58.42) (xy 96.52 58.42))
    (stroke (width 0) (type default) (color 0 0 0 0))
    (uuid d52739d7-892c-4138-8aff-4843fe0cef11)
  )
  (wire (pts (xy 167.64 62.23) (xy 175.26 62.23))
    (stroke (width 0) (type default) (color 0 0 0 0))
    (uuid d78e8ecb-d106-4fae-8cce-5e0ce9d5ab0e)
  )
  (wire (pts (xy 106.68 49.53) (xy 92.71 49.53))
    (stroke (width 0) (type default) (color 0 0 0 0))
    (uuid e03b35aa-98ff-4779-857d-fc768ff72ff3)
  )
  (wire (pts (xy 212.09 109.22) (xy 219.71 109.22))
    (stroke (width 0) (type default) (color 0 0 0 0))
    (uuid e123b861-fe00-4651-9f11-ca58f60a0cb4)
  )
  (wire (pts (xy 167.64 54.61) (xy 175.26 54.61))
    (stroke (width 0) (type default) (color 0 0 0 0))
    (uuid e7fabdbc-3a1b-44e2-a671-1d020cfd7577)
  )
  (wire (pts (xy 175.26 80.01) (xy 167.64 80.01))
    (stroke (width 0) (type default) (color 0 0 0 0))
    (uuid e890d7b1-5b81-4179-985f-31cc92cff37b)
  )
  (wire (pts (xy 175.26 72.39) (xy 167.64 72.39))
    (stroke (width 0) (type default) (color 0 0 0 0))
    (uuid ea7f19ee-31d1-491b-9d60-fbfd06f61498)
  )
  (wire (pts (xy 167.64 64.77) (xy 175.26 64.77))
    (stroke (width 0) (type default) (color 0 0 0 0))
    (uuid ed45177b-b05e-4df6-886d-7552e2afed18)
  )
  (wire (pts (xy 106.68 113.03) (xy 93.98 113.03))
    (stroke (width 0) (type default) (color 0 0 0 0))
    (uuid ee66c616-1c1f-44a5-983f-44e248c90e04)
  )
  (wire (pts (xy 212.09 81.28) (xy 219.71 81.28))
    (stroke (width 0) (type default) (color 0 0 0 0))
    (uuid f8367c0e-1178-412a-9d09-4bd76832e1de)
  )
  (wire (pts (xy 167.64 52.07) (xy 175.26 52.07))
    (stroke (width 0) (type default) (color 0 0 0 0))
    (uuid fde72e6e-1b78-4b1c-a87b-371b250897c7)
  )
  (wire (pts (xy 219.71 64.77) (xy 212.09 64.77))
    (stroke (width 0) (type default) (color 0 0 0 0))
    (uuid fff7795c-54eb-4530-a003-d8e06a9f1740)
  )

  (label "MISO" (at 175.26 62.23 0)
    (effects (font (size 1.27 1.27)) (justify left bottom))
    (uuid 02b48012-b61b-420d-9ffd-c2c71df8794e)
  )
  (label "LORA_NRST" (at 212.09 59.69 180)
    (effects (font (size 1.27 1.27)) (justify right bottom))
    (uuid 09a0a88e-cb31-4735-b078-3e7b37267e6f)
  )
  (label "SCLK" (at 212.09 48.26 180)
    (effects (font (size 1.27 1.27)) (justify right bottom))
    (uuid 1f559263-a71a-4414-aebd-83e83f3f38a0)
  )
  (label "SCLK" (at 175.26 67.31 0)
    (effects (font (size 1.27 1.27)) (justify left bottom))
    (uuid 2ab52e17-217f-432b-bf33-d8535ec32058)
  )
  (label "LORA_BUSY" (at 212.09 62.23 180)
    (effects (font (size 1.27 1.27)) (justify right bottom))
    (uuid 35ea6636-b387-47b3-b9d1-c6def7c9e281)
  )
  (label "MOSI" (at 212.09 125.73 180)
    (effects (font (size 1.27 1.27)) (justify right bottom))
    (uuid 36e73a64-6da8-4ad0-a484-253e36450ccc)
  )
  (label "MISO" (at 212.09 50.8 180)
    (effects (font (size 1.27 1.27)) (justify right bottom))
    (uuid 37fb3a98-ec22-45e2-a80f-c3e754c77281)
  )
  (label "MOSI" (at 175.26 64.77 0)
    (effects (font (size 1.27 1.27)) (justify left bottom))
    (uuid 3912cc5d-0494-4bca-ae9c-5133cd05397d)
  )
  (label "CS_1" (at 175.26 72.39 0)
    (effects (font (size 1.27 1.27)) (justify left bottom))
    (uuid 42cb9cf8-1e36-46e6-835b-698ee00155f7)
  )
  (label "SCL" (at 212.09 78.74 180)
    (effects (font (size 1.27 1.27)) (justify right bottom))
    (uuid 72d39e4b-44f5-4281-b033-e2e5c94239e3)
  )
  (label "CS_1" (at 212.09 55.88 180)
    (effects (font (size 1.27 1.27)) (justify right bottom))
    (uuid 7576241c-8be8-42c9-bd05-671c0ea68f1a)
  )
  (label "CS_4" (at 212.09 128.27 180)
    (effects (font (size 1.27 1.27)) (justify right bottom))
    (uuid 759d26fa-e621-4df2-ae95-b8c68393eee8)
  )
  (label "SDA" (at 212.09 81.28 180)
    (effects (font (size 1.27 1.27)) (justify right bottom))
    (uuid 7a6076e6-6d66-48be-8e9a-1519a607a41a)
  )
  (label "LORA_NRST" (at 175.26 49.53 0)
    (effects (font (size 1.27 1.27)) (justify left bottom))
    (uuid 83125939-1a71-45c1-99ae-6b573462ac8b)
  )
  (label "TX" (at 212.09 143.51 180)
    (effects (font (size 1.27 1.27)) (justify right bottom))
    (uuid 89b02024-1874-477d-9710-3cac0c819648)
  )
  (label "MOSI" (at 212.09 106.68 180)
    (effects (font (size 1.27 1.27)) (justify right bottom))
    (uuid 8b585d7b-04c4-4803-8829-835eb6ce1172)
  )
  (label "LORA_DIO1" (at 175.26 54.61 0)
    (effects (font (size 1.27 1.27)) (justify left bottom))
    (uuid 8d8146e1-e4ed-4dce-a832-f1035aae726b)
  )
  (label "RX" (at 175.26 102.87 0)
    (effects (font (size 1.27 1.27)) (justify left bottom))
    (uuid 90cae271-fd9a-464e-bccc-e5d2ef0881c8)
  )
  (label "LORA_DIO1" (at 212.09 64.77 180)
    (effects (font (size 1.27 1.27)) (justify right bottom))
    (uuid 936196fd-65fc-4953-b5b4-a48bd8e741ea)
  )
  (label "LORA_TXEN" (at 212.09 67.31 180)
    (effects (font (size 1.27 1.27)) (justify right bottom))
    (uuid 9724d95b-a5ce-4ac8-812b-55ec9d154c7e)
  )
  (label "LORA_BUSY" (at 175.26 52.07 0)
    (effects (font (size 1.27 1.27)) (justify left bottom))
    (uuid a7743fe3-0115-449b-9e20-ae10e4b2ce94)
  )
  (label "CS_3" (at 212.09 109.22 180)
    (effects (font (size 1.27 1.27)) (justify right bottom))
    (uuid a79b5fec-0dce-47d8-811f-f5a03515bae9)
  )
  (label "MISO" (at 212.09 123.19 180)
    (effects (font (size 1.27 1.27)) (justify right bottom))
    (uuid a7c26349-4fb3-4329-8f4a-2c5ee14292ba)
  )
  (label "SDA" (at 175.26 92.71 0)
    (effects (font (size 1.27 1.27)) (justify left bottom))
    (uuid a997e60b-990e-48e1-b04f-0ca52b9f3c7d)
  )
  (label "RX" (at 212.09 140.97 180)
    (effects (font (size 1.27 1.27)) (justify right bottom))
    (uuid aa49e4a4-799b-43df-8eab-737f184a532a)
  )
  (label "SCLK" (at 212.09 101.6 180)
    (effects (font (size 1.27 1.27)) (justify right bottom))
    (uuid b726782b-00f4-4b93-b31c-40111acaefef)
  )
  (label "CS_3" (at 175.26 74.93 0)
    (effects (font (size 1.27 1.27)) (justify left bottom))
    (uuid b737ab9e-4ffe-4668-83d8-e22630f69ab4)
  )
  (label "SDA" (at 212.09 153.67 180)
    (effects (font (size 1.27 1.27)) (justify right bottom))
    (uuid b95cf933-1785-479f-b6ee-4b76d1d1da81)
  )
  (label "CS_4" (at 175.26 80.01 0)
    (effects (font (size 1.27 1.27)) (justify left bottom))
    (uuid bcdffae2-fd60-48a2-8877-e5f138a07e9e)
  )
  (label "IO0" (at 101.6 58.42 0)
    (effects (font (size 1.27 1.27)) (justify left bottom))
    (uuid be838d2c-23da-4fd1-af54-761f4b10bd74)
  )
  (label "MOSI" (at 212.09 53.34 180)
    (effects (font (size 1.27 1.27)) (justify right bottom))
    (uuid c0baf6cd-8272-4289-89d1-90a531e3cef9)
  )
  (label "MISO" (at 212.09 104.14 180)
    (effects (font (size 1.27 1.27)) (justify right bottom))
    (uuid c5fead6b-1d90-4d7d-8199-69c5ff925a3b)
  )
  (label "LORA_TXEN" (at 175.26 57.15 0)
    (effects (font (size 1.27 1.27)) (justify left bottom))
    (uuid d60ddedb-4237-4f4f-a4f9-eb92484a893c)
  )
  (label "SCLK" (at 212.09 120.65 180)
    (effects (font (size 1.27 1.27)) (justify right bottom))
    (uuid d72e7bc8-1830-4fbf-9d80-04085bb6b419)
  )
  (label "SCL" (at 175.26 95.25 0)
    (effects (font (size 1.27 1.27)) (justify left bottom))
    (uuid e384ed8c-626d-4294-974d-129e36fb79b8)
  )
  (label "TX" (at 175.26 100.33 0)
    (effects (font (size 1.27 1.27)) (justify left bottom))
    (uuid f1800b90-0a81-42ee-a7f2-44bdb3968153)
  )
  (label "SCL" (at 212.09 156.21 180)
    (effects (font (size 1.27 1.27)) (justify right bottom))
    (uuid fd3e730e-1800-4876-94c3-eb5c7318b146)
  )

  (symbol (lib_id "Mechanical:MountingHole") (at 42.545 94.615 0) (unit 1)
    (in_bom yes) (on_board yes) (fields_autoplaced)
    (uuid 3f6117a5-fa78-44d0-bc51-c5f64a0cc82f)
    (property "Reference" "H2" (id 0) (at 45.085 93.7065 0)
      (effects (font (size 1.27 1.27)) (justify left))
    )
    (property "Value" "MountingHole" (id 1) (at 45.085 96.4816 0)
      (effects (font (size 1.27 1.27)) (justify left))
    )
    (property "Footprint" "MountingHole:MountingHole_3.2mm_M3" (id 2) (at 42.545 94.615 0)
      (effects (font (size 1.27 1.27)) hide)
    )
    (property "Datasheet" "~" (id 3) (at 42.545 94.615 0)
      (effects (font (size 1.27 1.27)) hide)
    )
  )

  (symbol (lib_id "Mechanical:MountingHole") (at 42.545 100.33 0) (unit 1)
    (in_bom yes) (on_board yes) (fields_autoplaced)
    (uuid 8e3ae1fb-45d3-4d05-b672-3343362ef290)
    (property "Reference" "H3" (id 0) (at 45.085 99.4215 0)
      (effects (font (size 1.27 1.27)) (justify left))
    )
    (property "Value" "MountingHole" (id 1) (at 45.085 102.1966 0)
      (effects (font (size 1.27 1.27)) (justify left))
    )
    (property "Footprint" "MountingHole:MountingHole_3.2mm_M3" (id 2) (at 42.545 100.33 0)
      (effects (font (size 1.27 1.27)) hide)
    )
    (property "Datasheet" "~" (id 3) (at 42.545 100.33 0)
      (effects (font (size 1.27 1.27)) hide)
    )
  )

  (symbol (lib_id "Mechanical:MountingHole") (at 42.545 88.265 0) (unit 1)
    (in_bom yes) (on_board yes) (fields_autoplaced)
    (uuid a805866d-5b5c-46b9-adfb-8e00f5f1c814)
    (property "Reference" "H1" (id 0) (at 45.085 87.3565 0)
      (effects (font (size 1.27 1.27)) (justify left))
    )
    (property "Value" "MountingHole" (id 1) (at 45.085 90.1316 0)
      (effects (font (size 1.27 1.27)) (justify left))
    )
    (property "Footprint" "MountingHole:MountingHole_3.2mm_M3" (id 2) (at 42.545 88.265 0)
      (effects (font (size 1.27 1.27)) hide)
    )
    (property "Datasheet" "~" (id 3) (at 42.545 88.265 0)
      (effects (font (size 1.27 1.27)) hide)
    )
  )

  (symbol (lib_id "Mechanical:MountingHole") (at 42.545 106.045 0) (unit 1)
    (in_bom yes) (on_board yes) (fields_autoplaced)
    (uuid e7c10a8a-9f06-446d-ae54-6efafcd3eaf4)
    (property "Reference" "H4" (id 0) (at 45.085 105.1365 0)
      (effects (font (size 1.27 1.27)) (justify left))
    )
    (property "Value" "MountingHole" (id 1) (at 45.085 107.9116 0)
      (effects (font (size 1.27 1.27)) (justify left))
    )
    (property "Footprint" "MountingHole:MountingHole_3.2mm_M3" (id 2) (at 42.545 106.045 0)
      (effects (font (size 1.27 1.27)) hide)
    )
    (property "Datasheet" "~" (id 3) (at 42.545 106.045 0)
      (effects (font (size 1.27 1.27)) hide)
    )
  )

  (sheet (at 76.2 110.49) (size 17.78 5.08) (fields_autoplaced)
    (stroke (width 0) (type solid) (color 0 0 0 0))
    (fill (color 0 0 0 0.0000))
    (uuid 00000000-0000-0000-0000-00006092fbf4)
    (property "Sheet name" "power" (id 0) (at 76.2 109.7784 0)
      (effects (font (size 1.27 1.27)) (justify left bottom))
    )
    (property "Sheet file" "power.kicad_sch" (id 1) (at 76.2 116.1546 0)
      (effects (font (size 1.27 1.27)) (justify left top))
    )
    (pin "Bat_D" input (at 93.98 113.03 0)
      (effects (font (size 1.27 1.27)) (justify right))
      (uuid 9d730bd3-3717-4bca-9519-b06f4f1d57df)
    )
  )

  (sheet (at 106.68 45.72) (size 60.96 92.71) (fields_autoplaced)
    (stroke (width 0) (type solid) (color 0 0 0 0))
    (fill (color 0 0 0 0.0000))
    (uuid 00000000-0000-0000-0000-0000609302c0)
    (property "Sheet name" "Mcu" (id 0) (at 106.68 45.0084 0)
      (effects (font (size 1.27 1.27)) (justify left bottom))
    )
    (property "Sheet file" "Mcu.kicad_sch" (id 1) (at 106.68 139.0146 0)
      (effects (font (size 1.27 1.27)) (justify left top))
    )
    (pin "EN" input (at 106.68 55.88 180)
      (effects (font (size 1.27 1.27)) (justify left))
      (uuid deb7ee30-3fd7-470a-880f-a38e7b4cadfc)
    )
    (pin "SENSOR_VP" input (at 106.68 127 180)
      (effects (font (size 1.27 1.27)) (justify left))
      (uuid 99ff130c-3b09-4a5f-b7b1-7634fbc6218c)
    )
    (pin "SENSOR_VN" input (at 106.68 124.46 180)
      (effects (font (size 1.27 1.27)) (justify left))
      (uuid 2e00520f-e7e1-43c5-825c-213dede7a889)
    )
    (pin "IO34" input (at 167.64 118.11 0)
      (effects (font (size 1.27 1.27)) (justify right))
      (uuid 195e1bf8-a04e-457b-88eb-a551427326ba)
    )
    (pin "IO35" input (at 106.68 113.03 180)
      (effects (font (size 1.27 1.27)) (justify left))
      (uuid 73453f13-e04f-4f8f-83a0-62fa42f135bd)
    )
    (pin "TXD0" input (at 106.68 52.07 180)
      (effects (font (size 1.27 1.27)) (justify left))
      (uuid 9a18358d-2e14-4941-b5ef-2f823bb500a9)
    )
    (pin "RXD0" input (at 106.68 49.53 180)
      (effects (font (size 1.27 1.27)) (justify left))
      (uuid 0281ac87-1523-487f-8042-77b316011a29)
    )
    (pin "IO0" input (at 106.68 58.42 180)
      (effects (font (size 1.27 1.27)) (justify left))
      (uuid 920bb161-3b28-4503-b083-28a9db9293e0)
    )
    (pin "IO2" input (at 167.64 57.15 0)
      (effects (font (size 1.27 1.27)) (justify right))
      (uuid 1138b1e6-8287-4a38-a220-59d5c3976a5e)
    )
    (pin "IO4" input (at 167.64 54.61 0)
      (effects (font (size 1.27 1.27)) (justify right))
      (uuid 4f3c34e1-d799-44aa-a740-7fa4a22529c7)
    )
    (pin "IO5" input (at 167.64 74.93 0)
      (effects (font (size 1.27 1.27)) (justify right))
      (uuid 004c87b9-7cfa-4052-9c9f-aa6057f531a3)
    )
    (pin "IO12" input (at 106.68 101.6 180)
      (effects (font (size 1.27 1.27)) (justify left))
      (uuid fe156caa-2d41-4e1f-8a1a-9a658d3c42d2)
    )
    (pin "IO13" input (at 106.68 78.74 180)
      (effects (font (size 1.27 1.27)) (justify left))
      (uuid a83d6f56-d81b-422f-a365-1e4b28ee33f5)
    )
    (pin "IO14" input (at 167.64 80.01 0)
      (effects (font (size 1.27 1.27)) (justify right))
      (uuid 4460a801-17c4-4f80-930e-4df306dfc45a)
    )
    (pin "IO15" input (at 167.64 72.39 0)
      (effects (font (size 1.27 1.27)) (justify right))
      (uuid 39d8926a-608c-41cf-99b2-05d420c5986c)
    )
    (pin "IO16" input (at 106.68 130.81 180)
      (effects (font (size 1.27 1.27)) (justify left))
      (uuid 35b9b213-7780-491a-9fd8-ab85419f54ad)
    )
    (pin "IO17" input (at 106.68 76.2 180)
      (effects (font (size 1.27 1.27)) (justify left))
      (uuid e8115ba7-77ed-47fa-998a-1a571f32be89)
    )
    (pin "IO18" input (at 167.64 67.31 0)
      (effects (font (size 1.27 1.27)) (justify right))
      (uuid c2355b4c-a15e-4597-b431-fbf23a8a6b7c)
    )
    (pin "IO19" input (at 167.64 62.23 0)
      (effects (font (size 1.27 1.27)) (justify right))
      (uuid b363b4aa-9442-4992-9941-d685abdeb802)
    )
    (pin "IO21" input (at 167.64 92.71 0)
      (effects (font (size 1.27 1.27)) (justify right))
      (uuid b14dfe30-4e3a-43fa-842c-7366f5c70602)
    )
    (pin "IO22" input (at 167.64 95.25 0)
      (effects (font (size 1.27 1.27)) (justify right))
      (uuid 2196565a-0116-4686-a770-8fe3b7d3edc8)
    )
    (pin "IO23" input (at 167.64 64.77 0)
      (effects (font (size 1.27 1.27)) (justify right))
      (uuid 89aa953a-03d3-4cc8-bf6a-78c1dde29832)
    )
    (pin "IO25" input (at 106.68 133.35 180)
      (effects (font (size 1.27 1.27)) (justify left))
      (uuid abdbe140-3982-449d-8884-d966e67c79e8)
    )
    (pin "IO26" input (at 167.64 100.33 0)
      (effects (font (size 1.27 1.27)) (justify right))
      (uuid 1df74bef-4459-47ee-b044-dbf750f787c7)
    )
    (pin "IO27" input (at 167.64 102.87 0)
      (effects (font (size 1.27 1.27)) (justify right))
      (uuid 879e8f98-05b3-4321-8804-c2663ba5c629)
    )
    (pin "IO32" input (at 167.64 49.53 0)
      (effects (font (size 1.27 1.27)) (justify right))
      (uuid 92b0db5a-e37c-4638-a142-f1feec905f34)
    )
    (pin "IO33" input (at 167.64 52.07 0)
      (effects (font (size 1.27 1.27)) (justify right))
      (uuid 7d370d54-768e-4baa-aad9-b2e0fae4c363)
    )
  )

  (sheet (at 76.2 46.99) (size 16.51 13.97) (fields_autoplaced)
    (stroke (width 0) (type solid) (color 0 0 0 0))
    (fill (color 0 0 0 0.0000))
    (uuid 00000000-0000-0000-0000-0000609302f8)
    (property "Sheet name" "Programmer" (id 0) (at 76.2 46.2784 0)
      (effects (font (size 1.27 1.27)) (justify left bottom))
    )
    (property "Sheet file" "Programmer.kicad_sch" (id 1) (at 76.2 61.5446 0)
      (effects (font (size 1.27 1.27)) (justify left top))
    )
    (pin "RXD0" input (at 92.71 49.53 0)
      (effects (font (size 1.27 1.27)) (justify right))
      (uuid 0322ba5a-a8a1-4a5c-9f82-b2fa36e7be88)
    )
    (pin "TXD0" input (at 92.71 52.07 0)
      (effects (font (size 1.27 1.27)) (justify right))
      (uuid db0f2888-62e4-4b86-8a4a-86a7e7615e91)
    )
    (pin "EN" input (at 92.71 55.88 0)
      (effects (font (size 1.27 1.27)) (justify right))
      (uuid 4b70f08c-2054-4fcb-a97d-4f81edbafa2c)
    )
    (pin "I0O" input (at 92.71 58.42 0)
      (effects (font (size 1.27 1.27)) (justify right))
      (uuid 3d929cfe-a481-4555-83a5-6bed3271f6e8)
    )
  )

  (sheet (at 219.71 45.72) (size 17.78 24.13) (fields_autoplaced)
    (stroke (width 0) (type solid) (color 0 0 0 0))
    (fill (color 0 0 0 0.0000))
    (uuid 00000000-0000-0000-0000-00006093034b)
    (property "Sheet name" "Lora" (id 0) (at 219.71 45.0084 0)
      (effects (font (size 1.27 1.27)) (justify left bottom))
    )
    (property "Sheet file" "Lora.kicad_sch" (id 1) (at 219.71 70.4346 0)
      (effects (font (size 1.27 1.27)) (justify left top))
    )
    (pin "NSS" input (at 219.71 55.88 180)
      (effects (font (size 1.27 1.27)) (justify left))
      (uuid 20b61195-c8c6-455a-ab30-ac493e048084)
    )
    (pin "SCK" input (at 219.71 48.26 180)
      (effects (font (size 1.27 1.27)) (justify left))
      (uuid c5c398e4-bbab-4c36-bb9c-2a65c5a9984f)
    )
    (pin "MOSI" input (at 219.71 53.34 180)
      (effects (font (size 1.27 1.27)) (justify left))
      (uuid 82293935-d5c2-43ed-b74a-284af977c69e)
    )
    (pin "MISO" input (at 219.71 50.8 180)
      (effects (font (size 1.27 1.27)) (justify left))
      (uuid bd0ee167-b776-4c28-9f2c-9e99cccfdd0a)
    )
    (pin "NRST" input (at 219.71 59.69 180)
      (effects (font (size 1.27 1.27)) (justify left))
      (uuid 6ab0dda0-149d-44d0-b031-d8abf47785f1)
    )
    (pin "BUSY" input (at 219.71 62.23 180)
      (effects (font (size 1.27 1.27)) (justify left))
      (uuid fc282fe3-1a1f-4bd7-8a49-a4d382944652)
    )
    (pin "DIO1" input (at 219.71 64.77 180)
      (effects (font (size 1.27 1.27)) (justify left))
      (uuid 30bd96c5-a105-403c-8879-55fec8432e95)
    )
    (pin "TXEN" input (at 219.71 67.31 180)
      (effects (font (size 1.27 1.27)) (justify left))
      (uuid 97cd50c7-888e-4083-a161-c56ad1198589)
    )
  )

  (sheet (at 76.2 99.06) (size 16.51 5.08) (fields_autoplaced)
    (stroke (width 0) (type solid) (color 0 0 0 0))
    (fill (color 0 0 0 0.0000))
    (uuid 00000000-0000-0000-0000-0000609303b5)
    (property "Sheet name" "Buzzer" (id 0) (at 76.2 98.3484 0)
      (effects (font (size 1.27 1.27)) (justify left bottom))
    )
    (property "Sheet file" "Buzzer.kicad_sch" (id 1) (at 76.2 104.7246 0)
      (effects (font (size 1.27 1.27)) (justify left top))
    )
    (pin "Buzzer" input (at 92.71 101.6 0)
      (effects (font (size 1.27 1.27)) (justify right))
      (uuid fc0f928a-33ec-4b33-84d5-13ac41ea0e55)
    )
  )

  (sheet (at 76.2 121.92) (size 17.78 13.97) (fields_autoplaced)
    (stroke (width 0) (type solid) (color 0 0 0 0))
    (fill (color 0 0 0 0.0000))
    (uuid 00000000-0000-0000-0000-00006093043f)
    (property "Sheet name" "Mosfet" (id 0) (at 76.2 121.2084 0)
      (effects (font (size 1.27 1.27)) (justify left bottom))
    )
    (property "Sheet file" "Mosfet.kicad_sch" (id 1) (at 76.2 136.4746 0)
      (effects (font (size 1.27 1.27)) (justify left top))
    )
    (pin "P2_Oku" input (at 93.98 127 0)
      (effects (font (size 1.27 1.27)) (justify right))
      (uuid aa36e01e-f54b-4b81-9c4b-428d9aed4b36)
    )
    (pin "P1_Oku" input (at 93.98 124.46 0)
      (effects (font (size 1.27 1.27)) (justify right))
      (uuid 65a89101-b85a-4ac9-a07b-5c9b8f267cbc)
    )
    (pin "P1_Ates" input (at 93.98 130.81 0)
      (effects (font (size 1.27 1.27)) (justify right))
      (uuid f9896487-cc4b-4f1d-88c3-27e14d76c052)
    )
    (pin "P2_Ates" input (at 93.98 133.35 0)
      (effects (font (size 1.27 1.27)) (justify right))
      (uuid 83103d7c-3d0c-4fa3-bae9-a33c875bb4c6)
    )
  )

  (sheet (at 76.2 67.31) (size 16.51 13.97) (fields_autoplaced)
    (stroke (width 0) (type solid) (color 0 0 0 0))
    (fill (color 0 0 0 0.0000))
    (uuid 00000000-0000-0000-0000-0000609304a1)
    (property "Sheet name" "Led_Buton" (id 0) (at 76.2 66.5984 0)
      (effects (font (size 1.27 1.27)) (justify left bottom))
    )
    (property "Sheet file" "Led_Buton.kicad_sch" (id 1) (at 76.2 81.8646 0)
      (effects (font (size 1.27 1.27)) (justify left top))
    )
    (pin "Led1" input (at 92.71 76.2 0)
      (effects (font (size 1.27 1.27)) (justify right))
      (uuid 727da70d-2c91-460a-bc87-d1b9094381de)
    )
    (pin "Led2" input (at 92.71 78.74 0)
      (effects (font (size 1.27 1.27)) (justify right))
      (uuid dac5b373-b289-4577-b090-d141393b4408)
    )
    (pin "IO0" input (at 92.71 69.85 0)
      (effects (font (size 1.27 1.27)) (justify right))
      (uuid 60a948dd-6e69-4dd2-8a1f-abab588dcc6f)
    )
    (pin "EN" input (at 92.71 72.39 0)
      (effects (font (size 1.27 1.27)) (justify right))
      (uuid 2e005d46-3600-44f9-8ad5-33297237be01)
    )
  )

  (sheet (at 219.71 151.13) (size 17.78 7.62) (fields_autoplaced)
    (stroke (width 0) (type solid) (color 0 0 0 0))
    (fill (color 0 0 0 0.0000))
    (uuid 00000000-0000-0000-0000-000060930501)
    (property "Sheet name" "Oled" (id 0) (at 219.71 150.4184 0)
      (effects (font (size 1.27 1.27)) (justify left bottom))
    )
    (property "Sheet file" "Oled.kicad_sch" (id 1) (at 219.71 159.3346 0)
      (effects (font (size 1.27 1.27)) (justify left top))
    )
    (pin "SCL_OLED" input (at 219.71 156.21 180)
      (effects (font (size 1.27 1.27)) (justify left))
      (uuid bbd95788-8c28-41a7-a344-0d6c6ae08973)
    )
    (pin "SDA_OLED" input (at 219.71 153.67 180)
      (effects (font (size 1.27 1.27)) (justify left))
      (uuid 84bd6067-86ab-4063-a6e1-59cf6b04a9fa)
    )
  )

  (sheet (at 219.71 74.93) (size 17.78 12.7) (fields_autoplaced)
    (stroke (width 0) (type solid) (color 0 0 0 0))
    (fill (color 0 0 0 0.0000))
    (uuid 00000000-0000-0000-0000-00006093055c)
    (property "Sheet name" "BNO080" (id 0) (at 219.71 74.2184 0)
      (effects (font (size 1.27 1.27)) (justify left bottom))
    )
    (property "Sheet file" "BNO080.kicad_sch" (id 1) (at 219.71 88.2146 0)
      (effects (font (size 1.27 1.27)) (justify left top))
    )
    (pin "SCL" input (at 219.71 78.74 180)
      (effects (font (size 1.27 1.27)) (justify left))
      (uuid 2a57dfef-57ff-4923-b2fd-3ae635bc8b12)
    )
    (pin "SDA" input (at 219.71 81.28 180)
      (effects (font (size 1.27 1.27)) (justify left))
      (uuid c76133af-ee07-47f5-9e0e-b2494f05cfee)
    )
  )

  (sheet (at 219.71 99.06) (size 17.78 12.7) (fields_autoplaced)
    (stroke (width 0) (type solid) (color 0 0 0 0))
    (fill (color 0 0 0 0.0000))
    (uuid 00000000-0000-0000-0000-0000609305a3)
    (property "Sheet name" "H3LIS331DL" (id 0) (at 219.71 98.3484 0)
      (effects (font (size 1.27 1.27)) (justify left bottom))
    )
    (property "Sheet file" "H3LIS331DL.kicad_sch" (id 1) (at 219.71 112.3446 0)
      (effects (font (size 1.27 1.27)) (justify left top))
    )
    (pin "CS" input (at 219.71 109.22 180)
      (effects (font (size 1.27 1.27)) (justify left))
      (uuid 1cd23fdb-62b0-4878-8e07-4596e941ff41)
    )
    (pin "MOSI" input (at 219.71 106.68 180)
      (effects (font (size 1.27 1.27)) (justify left))
      (uuid 70e50e32-3d6e-4ec5-aa72-ab9a075e9abe)
    )
    (pin "SCLK" input (at 219.71 101.6 180)
      (effects (font (size 1.27 1.27)) (justify left))
      (uuid 2b9d7df4-f4bb-4ded-8737-ab01f22d2348)
    )
    (pin "MISO" input (at 219.71 104.14 180)
      (effects (font (size 1.27 1.27)) (justify left))
      (uuid b541c487-b3a6-4eab-a218-c903d99346be)
    )
  )

  (sheet (at 219.71 118.11) (size 17.78 12.7) (fields_autoplaced)
    (stroke (width 0) (type solid) (color 0 0 0 0))
    (fill (color 0 0 0 0.0000))
    (uuid 00000000-0000-0000-0000-0000609305fe)
    (property "Sheet name" "MS5611" (id 0) (at 219.71 117.3984 0)
      (effects (font (size 1.27 1.27)) (justify left bottom))
    )
    (property "Sheet file" "MS5611.kicad_sch" (id 1) (at 219.71 131.3946 0)
      (effects (font (size 1.27 1.27)) (justify left top))
    )
    (pin "MOSI" input (at 219.71 125.73 180)
      (effects (font (size 1.27 1.27)) (justify left))
      (uuid c96ff00b-4b49-48cb-85fb-c92a82b12cc3)
    )
    (pin "MISO" input (at 219.71 123.19 180)
      (effects (font (size 1.27 1.27)) (justify left))
      (uuid 64a5200f-cc41-435d-b160-8e35090ced5b)
    )
    (pin "SCLK" input (at 219.71 120.65 180)
      (effects (font (size 1.27 1.27)) (justify left))
      (uuid 571140ff-0501-4944-8285-691ddd31542b)
    )
    (pin "CS" input (at 219.71 128.27 180)
      (effects (font (size 1.27 1.27)) (justify left))
      (uuid bd2ff759-5b05-4fe2-b206-d9054267b531)
    )
  )

  (sheet (at 219.71 138.43) (size 17.78 7.62) (fields_autoplaced)
    (stroke (width 0) (type solid) (color 0 0 0 0))
    (fill (color 0 0 0 0.0000))
    (uuid 00000000-0000-0000-0000-00006093064a)
    (property "Sheet name" "GPS" (id 0) (at 219.71 137.7184 0)
      (effects (font (size 1.27 1.27)) (justify left bottom))
    )
    (property "Sheet file" "GPS.kicad_sch" (id 1) (at 219.71 146.6346 0)
      (effects (font (size 1.27 1.27)) (justify left top))
    )
    (pin "RX" input (at 219.71 140.97 180)
      (effects (font (size 1.27 1.27)) (justify left))
      (uuid 99dda920-4cf2-42fd-9053-f7e6b06ac631)
    )
    (pin "TX" input (at 219.71 143.51 180)
      (effects (font (size 1.27 1.27)) (justify left))
      (uuid 2b2136a5-3e94-4ea4-9e6d-f3ef2ded47db)
    )
  )

  (sheet_instances
    (path "/" (page "1"))
    (path "/00000000-0000-0000-0000-00006093055c" (page "2"))
    (path "/00000000-0000-0000-0000-0000609303b5" (page "3"))
    (path "/00000000-0000-0000-0000-00006093064a" (page "4"))
    (path "/00000000-0000-0000-0000-0000609305a3" (page "5"))
    (path "/00000000-0000-0000-0000-0000609304a1" (page "7"))
    (path "/00000000-0000-0000-0000-00006093034b" (page "8"))
    (path "/00000000-0000-0000-0000-0000609305fe" (page "9"))
    (path "/00000000-0000-0000-0000-0000609302c0" (page "10"))
    (path "/00000000-0000-0000-0000-00006093043f" (page "11"))
    (path "/00000000-0000-0000-0000-000060930501" (page "12"))
    (path "/00000000-0000-0000-0000-0000609302f8" (page "13"))
    (path "/00000000-0000-0000-0000-00006092fbf4" (page "15"))
  )

  (symbol_instances
    (path "/00000000-0000-0000-0000-00006093055c/9b547084-c7e0-40c4-9e5b-1b70bd77fc6f"
      (reference "#PWR01") (unit 1) (value "+3.3V") (footprint "")
    )
    (path "/00000000-0000-0000-0000-00006093055c/90b1c8ff-5e45-4992-b587-18b056a68d6f"
      (reference "#PWR02") (unit 1) (value "GND") (footprint "")
    )
    (path "/00000000-0000-0000-0000-00006093055c/72540010-6eeb-41f8-8225-c198bd836b5d"
      (reference "#PWR03") (unit 1) (value "+3.3V") (footprint "")
    )
    (path "/00000000-0000-0000-0000-00006093055c/c4e18e49-c164-46fd-90db-1436563de5d1"
      (reference "#PWR04") (unit 1) (value "GND") (footprint "")
    )
    (path "/00000000-0000-0000-0000-00006093055c/f99d01cd-fc2a-4318-be97-23081cbac8d3"
      (reference "#PWR05") (unit 1) (value "+3.3V") (footprint "")
    )
    (path "/00000000-0000-0000-0000-00006093055c/01fa08a6-7be1-41f2-9d5f-9c8fd909b515"
      (reference "#PWR06") (unit 1) (value "GND") (footprint "")
    )
    (path "/00000000-0000-0000-0000-00006093055c/7b8ee384-453e-46c3-b18d-f15559f6bfd4"
      (reference "#PWR07") (unit 1) (value "GND") (footprint "")
    )
    (path "/00000000-0000-0000-0000-00006093055c/61f25a53-aec6-454b-b9b0-11fd9dff015e"
      (reference "#PWR08") (unit 1) (value "GND") (footprint "")
    )
    (path "/00000000-0000-0000-0000-00006093055c/99f452c6-2c0a-42be-8862-c60e42f884a4"
      (reference "#PWR09") (unit 1) (value "GND") (footprint "")
    )
    (path "/00000000-0000-0000-0000-0000609303b5/00000000-0000-0000-0000-000060982608"
      (reference "#PWR010") (unit 1) (value "GND") (footprint "")
    )
    (path "/00000000-0000-0000-0000-00006093064a/00000000-0000-0000-0000-000060a15c71"
      (reference "#PWR011") (unit 1) (value "GND") (footprint "")
    )
    (path "/00000000-0000-0000-0000-00006093064a/00000000-0000-0000-0000-000060a13af9"
      (reference "#PWR012") (unit 1) (value "+3.3V") (footprint "")
    )
    (path "/00000000-0000-0000-0000-00006093064a/00000000-0000-0000-0000-000060a13b05"
      (reference "#PWR013") (unit 1) (value "GND") (footprint "")
    )
    (path "/00000000-0000-0000-0000-0000609305a3/00000000-0000-0000-0000-000060ad40b6"
      (reference "#PWR014") (unit 1) (value "+3.3V") (footprint "")
    )
    (path "/00000000-0000-0000-0000-0000609305a3/00000000-0000-0000-0000-000060ad40b0"
      (reference "#PWR015") (unit 1) (value "GND") (footprint "")
    )
    (path "/00000000-0000-0000-0000-0000609304a1/00000000-0000-0000-0000-0000609797f4"
      (reference "#PWR016") (unit 1) (value "GND") (footprint "")
    )
    (path "/00000000-0000-0000-0000-0000609304a1/00000000-0000-0000-0000-000060979ab3"
      (reference "#PWR017") (unit 1) (value "GND") (footprint "")
    )
    (path "/00000000-0000-0000-0000-0000609304a1/00000000-0000-0000-0000-0000614239cf"
      (reference "#PWR018") (unit 1) (value "GND") (footprint "")
    )
    (path "/00000000-0000-0000-0000-0000609304a1/216567c1-0cac-4d7d-9ccb-c36e7b845cf8"
      (reference "#PWR019") (unit 1) (value "GND") (footprint "")
    )
    (path "/00000000-0000-0000-0000-0000609304a1/67f90c43-ce60-4c46-82ab-fd6499a7b92b"
      (reference "#PWR020") (unit 1) (value "GND") (footprint "")
    )
    (path "/00000000-0000-0000-0000-0000609304a1/00000000-0000-0000-0000-0000617dc919"
      (reference "#PWR021") (unit 1) (value "VCC") (footprint "")
    )
    (path "/00000000-0000-0000-0000-00006093034b/00000000-0000-0000-0000-0000611f42c4"
      (reference "#PWR022") (unit 1) (value "GND") (footprint "")
    )
    (path "/00000000-0000-0000-0000-00006093034b/00000000-0000-0000-0000-0000611f0aa3"
      (reference "#PWR023") (unit 1) (value "+3.3V") (footprint "")
    )
    (path "/00000000-0000-0000-0000-00006093034b/00000000-0000-0000-0000-0000611f0aa9"
      (reference "#PWR024") (unit 1) (value "GND") (footprint "")
    )
    (path "/00000000-0000-0000-0000-0000609305fe/00000000-0000-0000-0000-000061606e38"
      (reference "#PWR025") (unit 1) (value "GND") (footprint "")
    )
    (path "/00000000-0000-0000-0000-0000609305fe/00000000-0000-0000-0000-000060aceed2"
      (reference "#PWR026") (unit 1) (value "+3.3V") (footprint "")
    )
    (path "/00000000-0000-0000-0000-0000609305fe/00000000-0000-0000-0000-000060aceecc"
      (reference "#PWR027") (unit 1) (value "GND") (footprint "")
    )
    (path "/00000000-0000-0000-0000-0000609302c0/00000000-0000-0000-0000-00006093d8d8"
      (reference "#PWR028") (unit 1) (value "+3.3V") (footprint "")
    )
    (path "/00000000-0000-0000-0000-0000609302c0/00000000-0000-0000-0000-000060942f63"
      (reference "#PWR029") (unit 1) (value "GND") (footprint "")
    )
    (path "/00000000-0000-0000-0000-0000609302c0/00000000-0000-0000-0000-00006093dfce"
      (reference "#PWR030") (unit 1) (value "GND") (footprint "")
    )
    (path "/00000000-0000-0000-0000-0000609302c0/00000000-0000-0000-0000-00006093cb48"
      (reference "#PWR031") (unit 1) (value "+3.3V") (footprint "")
    )
    (path "/00000000-0000-0000-0000-0000609302c0/00000000-0000-0000-0000-000060946688"
      (reference "#PWR032") (unit 1) (value "GND") (footprint "")
    )
    (path "/00000000-0000-0000-0000-0000609302c0/00000000-0000-0000-0000-00006095d268"
      (reference "#PWR033") (unit 1) (value "+3.3V") (footprint "")
    )
    (path "/00000000-0000-0000-0000-00006093043f/00000000-0000-0000-0000-000060acbbdf"
      (reference "#PWR034") (unit 1) (value "GND") (footprint "")
    )
    (path "/00000000-0000-0000-0000-00006093043f/00000000-0000-0000-0000-000060b73c84"
      (reference "#PWR035") (unit 1) (value "+BATT") (footprint "")
    )
    (path "/00000000-0000-0000-0000-00006093043f/00000000-0000-0000-0000-000061770eac"
      (reference "#PWR036") (unit 1) (value "GND") (footprint "")
    )
    (path "/00000000-0000-0000-0000-00006093043f/00000000-0000-0000-0000-00006170e0eb"
      (reference "#PWR037") (unit 1) (value "GND") (footprint "")
    )
    (path "/00000000-0000-0000-0000-00006093043f/00000000-0000-0000-0000-0000609a76c4"
      (reference "#PWR038") (unit 1) (value "GND") (footprint "")
    )
    (path "/00000000-0000-0000-0000-00006093043f/00000000-0000-0000-0000-0000609a76d0"
      (reference "#PWR039") (unit 1) (value "GND") (footprint "")
    )
    (path "/00000000-0000-0000-0000-00006093043f/00000000-0000-0000-0000-0000609a76b2"
      (reference "#PWR040") (unit 1) (value "GND") (footprint "")
    )
    (path "/00000000-0000-0000-0000-00006093043f/00000000-0000-0000-0000-0000609a76b8"
      (reference "#PWR041") (unit 1) (value "GND") (footprint "")
    )
    (path "/00000000-0000-0000-0000-000060930501/00000000-0000-0000-0000-0000609878bc"
      (reference "#PWR042") (unit 1) (value "+3.3V") (footprint "")
    )
    (path "/00000000-0000-0000-0000-000060930501/00000000-0000-0000-0000-0000609873ab"
      (reference "#PWR043") (unit 1) (value "GND") (footprint "")
    )
    (path "/00000000-0000-0000-0000-0000609302f8/00000000-0000-0000-0000-000060a3ecb4"
      (reference "#PWR044") (unit 1) (value "GND") (footprint "")
    )
    (path "/00000000-0000-0000-0000-0000609302f8/00000000-0000-0000-0000-0000617d28c8"
      (reference "#PWR045") (unit 1) (value "VCC") (footprint "")
    )
    (path "/00000000-0000-0000-0000-0000609302f8/00000000-0000-0000-0000-000060a3f337"
      (reference "#PWR046") (unit 1) (value "GND") (footprint "")
    )
    (path "/00000000-0000-0000-0000-0000609302f8/00000000-0000-0000-0000-000060a400c8"
      (reference "#PWR047") (unit 1) (value "GND") (footprint "")
    )
    (path "/00000000-0000-0000-0000-0000609302f8/00000000-0000-0000-0000-000060a407f6"
      (reference "#PWR048") (unit 1) (value "GND") (footprint "")
    )
    (path "/00000000-0000-0000-0000-0000609302f8/00000000-0000-0000-0000-000060987d11"
      (reference "#PWR049") (unit 1) (value "GND") (footprint "")
    )
    (path "/00000000-0000-0000-0000-0000609302f8/00000000-0000-0000-0000-000060a44d30"
      (reference "#PWR050") (unit 1) (value "+3.3V") (footprint "")
    )
    (path "/00000000-0000-0000-0000-0000609302f8/00000000-0000-0000-0000-000061429282"
      (reference "#PWR051") (unit 1) (value "+3.3V") (footprint "")
    )
    (path "/00000000-0000-0000-0000-0000609302f8/00000000-0000-0000-0000-000060a4273f"
      (reference "#PWR052") (unit 1) (value "GND") (footprint "")
    )
    (path "/00000000-0000-0000-0000-0000609302f8/00000000-0000-0000-0000-000060a221de"
      (reference "#PWR053") (unit 1) (value "GND") (footprint "")
    )
    (path "/00000000-0000-0000-0000-0000609302f8/00000000-0000-0000-0000-000060a245b3"
      (reference "#PWR054") (unit 1) (value "+3.3V") (footprint "")
    )
    (path "/00000000-0000-0000-0000-0000609302f8/00000000-0000-0000-0000-000060a22488"
      (reference "#PWR055") (unit 1) (value "GND") (footprint "")
    )
    (path "/00000000-0000-0000-0000-00006092fbf4/00000000-0000-0000-0000-000060abd311"
      (reference "#PWR056") (unit 1) (value "VCC") (footprint "")
    )
    (path "/00000000-0000-0000-0000-00006092fbf4/00000000-0000-0000-0000-000060ab576e"
      (reference "#PWR057") (unit 1) (value "GND") (footprint "")
    )
    (path "/00000000-0000-0000-0000-00006092fbf4/00000000-0000-0000-0000-000060ab5689"
      (reference "#PWR058") (unit 1) (value "GND") (footprint "")
    )
    (path "/00000000-0000-0000-0000-00006092fbf4/00000000-0000-0000-0000-000060ab54f3"
      (reference "#PWR059") (unit 1) (value "GND") (footprint "")
    )
    (path "/00000000-0000-0000-0000-00006092fbf4/00000000-0000-0000-0000-000060abe964"
      (reference "#PWR060") (unit 1) (value "+BATT") (footprint "")
    )
    (path "/00000000-0000-0000-0000-00006092fbf4/00000000-0000-0000-0000-000060a2a7ec"
      (reference "#PWR061") (unit 1) (value "GND") (footprint "")
    )
    (path "/00000000-0000-0000-0000-00006092fbf4/00000000-0000-0000-0000-000060ab732e"
      (reference "#PWR062") (unit 1) (value "GND") (footprint "")
    )
    (path "/00000000-0000-0000-0000-00006092fbf4/00000000-0000-0000-0000-000060abe055"
      (reference "#PWR063") (unit 1) (value "VCC") (footprint "")
    )
    (path "/00000000-0000-0000-0000-00006092fbf4/00000000-0000-0000-0000-000060ab4052"
      (reference "#PWR064") (unit 1) (value "GND") (footprint "")
    )
    (path "/00000000-0000-0000-0000-00006092fbf4/00000000-0000-0000-0000-000060ab5318"
      (reference "#PWR065") (unit 1) (value "GND") (footprint "")
    )
    (path "/00000000-0000-0000-0000-00006092fbf4/00000000-0000-0000-0000-000060ab4cda"
      (reference "#PWR066") (unit 1) (value "GND") (footprint "")
    )
    (path "/00000000-0000-0000-0000-00006092fbf4/00000000-0000-0000-0000-000060ab4dd5"
      (reference "#PWR067") (unit 1) (value "GND") (footprint "")
    )
    (path "/00000000-0000-0000-0000-00006092fbf4/2b9a2d5f-5cc4-4e2a-82f1-2a8a02d7c38c"
      (reference "#PWR068") (unit 1) (value "+3.3V") (footprint "")
    )
    (path "/00000000-0000-0000-0000-00006092fbf4/00000000-0000-0000-0000-000060ab50cb"
      (reference "#PWR069") (unit 1) (value "GND") (footprint "")
    )
    (path "/00000000-0000-0000-0000-00006092fbf4/00000000-0000-0000-0000-000060acabd1"
      (reference "#PWR070") (unit 1) (value "+BATT") (footprint "")
    )
    (path "/00000000-0000-0000-0000-00006092fbf4/00000000-0000-0000-0000-000060aca01e"
      (reference "#PWR071") (unit 1) (value "GND") (footprint "")
    )
    (path "/00000000-0000-0000-0000-00006093055c/1204c0ac-59fa-44de-8b10-b01950f18222"
      (reference "C1") (unit 1) (value "0.1uF") (footprint "Capacitor_SMD:C_0805_2012Metric")
    )
    (path "/00000000-0000-0000-0000-00006093055c/ddd7cf8f-cf56-4751-8067-d17b20f975c7"
      (reference "C2") (unit 1) (value "0.1uF") (footprint "Capacitor_SMD:C_0805_2012Metric")
    )
    (path "/00000000-0000-0000-0000-00006093055c/5e5290ce-e3c0-4068-af82-c10b1b24b496"
      (reference "C3") (unit 1) (value "22pF") (footprint "Capacitor_SMD:C_0805_2012Metric")
    )
    (path "/00000000-0000-0000-0000-00006093055c/54d92c42-b841-4026-b4bd-1a76c4565b13"
      (reference "C4") (unit 1) (value "22pF") (footprint "Capacitor_SMD:C_0805_2012Metric")
    )
    (path "/00000000-0000-0000-0000-00006093064a/00000000-0000-0000-0000-000060a13aff"
      (reference "C5") (unit 1) (value "0.1uF") (footprint "Capacitor_SMD:C_0805_2012Metric")
    )
    (path "/00000000-0000-0000-0000-0000609305a3/00000000-0000-0000-0000-000060ad40a9"
      (reference "C6") (unit 1) (value "0.1uF") (footprint "Capacitor_SMD:C_0805_2012Metric")
    )
    (path "/00000000-0000-0000-0000-0000609305a3/00000000-0000-0000-0000-000060ad4419"
      (reference "C7") (unit 1) (value "10uF") (footprint "Capacitor_SMD:C_0805_2012Metric")
    )
    (path "/00000000-0000-0000-0000-0000609304a1/00000000-0000-0000-0000-000060978008"
      (reference "C8") (unit 1) (value "100nF") (footprint "Capacitor_SMD:C_0805_2012Metric")
    )
    (path "/00000000-0000-0000-0000-0000609305fe/00000000-0000-0000-0000-000060aceebe"
      (reference "C9") (unit 1) (value "0.1uF") (footprint "Capacitor_SMD:C_0805_2012Metric")
    )
    (path "/00000000-0000-0000-0000-0000609302c0/00000000-0000-0000-0000-0000609405b2"
      (reference "C10") (unit 1) (value "0.1uF") (footprint "Capacitor_SMD:C_0805_2012Metric")
    )
    (path "/00000000-0000-0000-0000-0000609302c0/00000000-0000-0000-0000-00006093f1b1"
      (reference "C11") (unit 1) (value "22uF") (footprint "Capacitor_SMD:C_0805_2012Metric")
    )
    (path "/00000000-0000-0000-0000-0000609302c0/00000000-0000-0000-0000-00006093fd89"
      (reference "C12") (unit 1) (value "0.1uF") (footprint "Capacitor_SMD:C_0805_2012Metric")
    )
    (path "/00000000-0000-0000-0000-0000609302f8/00000000-0000-0000-0000-000060a221d8"
      (reference "C13") (unit 1) (value "0.1uF") (footprint "Capacitor_SMD:C_0805_2012Metric")
    )
    (path "/00000000-0000-0000-0000-0000609302f8/00000000-0000-0000-0000-000060a22482"
      (reference "C14") (unit 1) (value "4.7uF") (footprint "Capacitor_SMD:C_0805_2012Metric")
    )
    (path "/00000000-0000-0000-0000-00006092fbf4/00000000-0000-0000-0000-000060ab2118"
      (reference "C15") (unit 1) (value "22uF") (footprint "Capacitor_SMD:C_0805_2012Metric")
    )
    (path "/00000000-0000-0000-0000-00006092fbf4/00000000-0000-0000-0000-000060ab236d"
      (reference "C16") (unit 1) (value "10uF") (footprint "Capacitor_SMD:C_0805_2012Metric")
    )
    (path "/00000000-0000-0000-0000-00006092fbf4/00000000-0000-0000-0000-000060ab24e7"
      (reference "C17") (unit 1) (value "0.1uF") (footprint "Capacitor_SMD:C_0805_2012Metric")
    )
    (path "/00000000-0000-0000-0000-00006092fbf4/00000000-0000-0000-0000-000060a273b2"
      (reference "C18") (unit 1) (value "UWT1C681MNL1GS") (footprint "others:CAPAE1030X1000N")
    )
    (path "/00000000-0000-0000-0000-00006092fbf4/00000000-0000-0000-0000-000060ab1ec5"
      (reference "C19") (unit 1) (value "10uF") (footprint "Capacitor_SMD:C_0805_2012Metric")
    )
    (path "/00000000-0000-0000-0000-00006092fbf4/00000000-0000-0000-0000-000060aaf6fc"
      (reference "C20") (unit 1) (value "22uF") (footprint "Capacitor_SMD:C_0805_2012Metric")
    )
    (path "/00000000-0000-0000-0000-00006092fbf4/00000000-0000-0000-0000-000060ab0a25"
      (reference "C21") (unit 1) (value "22uF") (footprint "Capacitor_SMD:C_0805_2012Metric")
    )
    (path "/00000000-0000-0000-0000-00006092fbf4/00000000-0000-0000-0000-000060ab0c66"
      (reference "C22") (unit 1) (value "22uF") (footprint "Capacitor_SMD:C_0805_2012Metric")
    )
    (path "/00000000-0000-0000-0000-0000609304a1/00000000-0000-0000-0000-000060975cbe"
      (reference "D1") (unit 1) (value "LED") (footprint "LED_SMD:LED_0805_2012Metric")
    )
    (path "/00000000-0000-0000-0000-0000609304a1/00000000-0000-0000-0000-00006142304c"
      (reference "D2") (unit 1) (value "LED") (footprint "LED_SMD:LED_0805_2012Metric")
    )
    (path "/00000000-0000-0000-0000-0000609304a1/00000000-0000-0000-0000-0000614239db"
      (reference "D3") (unit 1) (value "LED") (footprint "LED_SMD:LED_0805_2012Metric")
    )
    (path "/00000000-0000-0000-0000-0000609302f8/00000000-0000-0000-0000-000060a34e82"
      (reference "D4") (unit 1) (value "ESD") (footprint "Diode_SMD:D_SOD-323")
    )
    (path "/00000000-0000-0000-0000-0000609302f8/00000000-0000-0000-0000-000060a2ea2e"
      (reference "D5") (unit 1) (value "SS24") (footprint "others:SS24")
    )
    (path "/00000000-0000-0000-0000-0000609302f8/00000000-0000-0000-0000-000060a34639"
      (reference "D6") (unit 1) (value "ESD") (footprint "Diode_SMD:D_SOD-323")
    )
    (path "/00000000-0000-0000-0000-0000609302f8/00000000-0000-0000-0000-000060a30002"
      (reference "D7") (unit 1) (value "ESD") (footprint "Diode_SMD:D_SOD-323")
    )
    (path "/00000000-0000-0000-0000-00006092fbf4/00000000-0000-0000-0000-000060aab4dd"
      (reference "D8") (unit 1) (value "SS24") (footprint "others:SS24")
    )
    (path "/a805866d-5b5c-46b9-adfb-8e00f5f1c814"
      (reference "H1") (unit 1) (value "MountingHole") (footprint "MountingHole:MountingHole_3.2mm_M3")
    )
    (path "/3f6117a5-fa78-44d0-bc51-c5f64a0cc82f"
      (reference "H2") (unit 1) (value "MountingHole") (footprint "MountingHole:MountingHole_3.2mm_M3")
    )
    (path "/8e3ae1fb-45d3-4d05-b672-3343362ef290"
      (reference "H3") (unit 1) (value "MountingHole") (footprint "MountingHole:MountingHole_3.2mm_M3")
    )
    (path "/e7c10a8a-9f06-446d-ae54-6efafcd3eaf4"
      (reference "H4") (unit 1) (value "MountingHole") (footprint "MountingHole:MountingHole_3.2mm_M3")
    )
    (path "/00000000-0000-0000-0000-00006093034b/00000000-0000-0000-0000-0000611f23b3"
      (reference "J1") (unit 1) (value "SMA-J-P-H-ST-EM1") (footprint "others:SMA-J-P-H-ST-EM1")
    )
    (path "/00000000-0000-0000-0000-00006093043f/00000000-0000-0000-0000-000060abb1a9"
      (reference "J2") (unit 1) (value "282834-6") (footprint "TerminalBlock_4Ucon:TerminalBlock_4Ucon_1x06_P3.50mm_Horizontal")
    )
    (path "/00000000-0000-0000-0000-000060930501/00000000-0000-0000-0000-000060987007"
      (reference "J3") (unit 1) (value "oled") (footprint "others:oled")
    )
    (path "/00000000-0000-0000-0000-0000609302f8/00000000-0000-0000-0000-000060970dfa"
      (reference "J4") (unit 1) (value "10118194-0001LF") (footprint "digikey-footprints:USB_Micro_B_Female_10118194-0001LF")
    )
    (path "/00000000-0000-0000-0000-00006092fbf4/00000000-0000-0000-0000-000060aac7a2"
      (reference "L1") (unit 1) (value "XFL4020-102MEC") (footprint "others:XFL4020-102MEC")
    )
    (path "/00000000-0000-0000-0000-0000609303b5/00000000-0000-0000-0000-00006097f8e8"
      (reference "LS1") (unit 1) (value "SMI-1027-T-5V-R") (footprint "others:SMI-1027-T-5V-R")
    )
    (path "/00000000-0000-0000-0000-0000609302f8/00000000-0000-0000-0000-000060a18e8c"
      (reference "Q1") (unit 1) (value "SS8050-G") (footprint "digikey-footprints:SOT-23-3")
    )
    (path "/00000000-0000-0000-0000-0000609302f8/00000000-0000-0000-0000-000060a195e8"
      (reference "Q2") (unit 1) (value "SS8050-G") (footprint "digikey-footprints:SOT-23-3")
    )
    (path "/00000000-0000-0000-0000-0000609303b5/00000000-0000-0000-0000-00006098260e"
      (reference "R1") (unit 1) (value "50") (footprint "Resistor_SMD:R_0805_2012Metric")
    )
    (path "/00000000-0000-0000-0000-0000609304a1/00000000-0000-0000-0000-00006097530f"
      (reference "R2") (unit 1) (value "1K") (footprint "Resistor_SMD:R_0805_2012Metric")
    )
    (path "/00000000-0000-0000-0000-0000609304a1/00000000-0000-0000-0000-000061423046"
      (reference "R3") (unit 1) (value "1K") (footprint "Resistor_SMD:R_0805_2012Metric")
    )
    (path "/00000000-0000-0000-0000-0000609304a1/00000000-0000-0000-0000-0000614239d5"
      (reference "R4") (unit 1) (value "1K") (footprint "Resistor_SMD:R_0805_2012Metric")
    )
    (path "/00000000-0000-0000-0000-0000609302c0/00000000-0000-0000-0000-000060941843"
      (reference "R5") (unit 1) (value "10K") (footprint "Resistor_SMD:R_0805_2012Metric")
    )
    (path "/00000000-0000-0000-0000-0000609302c0/00000000-0000-0000-0000-000060957214"
      (reference "R6") (unit 1) (value "10K") (footprint "Resistor_SMD:R_0805_2012Metric")
    )
    (path "/00000000-0000-0000-0000-0000609302c0/00000000-0000-0000-0000-000060957fea"
      (reference "R7") (unit 1) (value "10K") (footprint "Resistor_SMD:R_0805_2012Metric")
    )
    (path "/00000000-0000-0000-0000-00006093043f/00000000-0000-0000-0000-0000609a7693"
      (reference "R8") (unit 1) (value "100") (footprint "Resistor_SMD:R_0805_2012Metric")
    )
    (path "/00000000-0000-0000-0000-00006093043f/00000000-0000-0000-0000-0000609a769f"
      (reference "R9") (unit 1) (value "100") (footprint "Resistor_SMD:R_0805_2012Metric")
    )
    (path "/00000000-0000-0000-0000-00006093043f/00000000-0000-0000-0000-00006176d978"
      (reference "R10") (unit 1) (value "100K") (footprint "Resistor_SMD:R_0805_2012Metric")
    )
    (path "/00000000-0000-0000-0000-00006093043f/00000000-0000-0000-0000-0000609a768d"
      (reference "R11") (unit 1) (value "100K") (footprint "Resistor_SMD:R_0805_2012Metric")
    )
    (path "/00000000-0000-0000-0000-00006093043f/00000000-0000-0000-0000-0000609a7675"
      (reference "R12") (unit 1) (value "560K") (footprint "Resistor_SMD:R_0805_2012Metric")
    )
    (path "/00000000-0000-0000-0000-00006093043f/00000000-0000-0000-0000-0000609a767b"
      (reference "R13") (unit 1) (value "100K") (footprint "Resistor_SMD:R_0805_2012Metric")
    )
    (path "/00000000-0000-0000-0000-00006093043f/00000000-0000-0000-0000-0000609a7681"
      (reference "R14") (unit 1) (value "560K") (footprint "Resistor_SMD:R_0805_2012Metric")
    )
    (path "/00000000-0000-0000-0000-00006093043f/00000000-0000-0000-0000-0000609a7687"
      (reference "R15") (unit 1) (value "100K") (footprint "Resistor_SMD:R_0805_2012Metric")
    )
    (path "/00000000-0000-0000-0000-0000609302f8/00000000-0000-0000-0000-000060a22d31"
      (reference "R16") (unit 1) (value "10K") (footprint "Resistor_SMD:R_0805_2012Metric")
    )
    (path "/00000000-0000-0000-0000-0000609302f8/00000000-0000-0000-0000-000060a22ea8"
      (reference "R17") (unit 1) (value "10K") (footprint "Resistor_SMD:R_0805_2012Metric")
    )
    (path "/00000000-0000-0000-0000-0000609302f8/00000000-0000-0000-0000-000060a43ee1"
      (reference "R18") (unit 1) (value "2K") (footprint "Resistor_SMD:R_0805_2012Metric")
    )
    (path "/00000000-0000-0000-0000-00006092fbf4/00000000-0000-0000-0000-000060ab2fab"
      (reference "R19") (unit 1) (value "10K") (footprint "Resistor_SMD:R_0805_2012Metric")
    )
    (path "/00000000-0000-0000-0000-00006092fbf4/00000000-0000-0000-0000-000060ab02a2"
      (reference "R20") (unit 1) (value "470K") (footprint "Resistor_SMD:R_0805_2012Metric")
    )
    (path "/00000000-0000-0000-0000-00006092fbf4/00000000-0000-0000-0000-000060ab2d62"
      (reference "R21") (unit 1) (value "150K") (footprint "Resistor_SMD:R_0805_2012Metric")
    )
    (path "/00000000-0000-0000-0000-00006092fbf4/00000000-0000-0000-0000-000060aca012"
      (reference "R22") (unit 1) (value "560K") (footprint "Resistor_SMD:R_0805_2012Metric")
    )
    (path "/00000000-0000-0000-0000-00006092fbf4/00000000-0000-0000-0000-000060aca018"
      (reference "R23") (unit 1) (value "100K") (footprint "Resistor_SMD:R_0805_2012Metric")
    )
    (path "/00000000-0000-0000-0000-0000609304a1/00000000-0000-0000-0000-000060974072"
      (reference "S1") (unit 1) (value "TL1015AF160QG") (footprint "others:TL1015AF160QG")
    )
    (path "/00000000-0000-0000-0000-0000609304a1/00000000-0000-0000-0000-0000609748f7"
      (reference "S2") (unit 1) (value "TL1015AF160QG") (footprint "others:TL1015AF160QG")
    )
    (path "/00000000-0000-0000-0000-00006093055c/c46a482e-bfa4-4ed5-a49f-3179709c39a1"
      (reference "U1") (unit 1) (value "BNO055") (footprint "digikey-footprints:LGA-28_5.2x3.8mm_BNO0055")
    )
    (path "/00000000-0000-0000-0000-00006093064a/00000000-0000-0000-0000-0000616b0bc7"
      (reference "U2") (unit 1) (value "ublox_SAM-M8Q") (footprint "RF_GPS:ublox_SAM-M8Q")
    )
    (path "/00000000-0000-0000-0000-0000609305a3/00000000-0000-0000-0000-000060ad2973"
      (reference "U3") (unit 1) (value "H3LIS331DL") (footprint "digikey-footprints:TFLGA-16_3x3mm")
    )
    (path "/00000000-0000-0000-0000-00006093034b/00000000-0000-0000-0000-000061138ffa"
      (reference "U4") (unit 1) (value "E22-900M22S") (footprint "others:E22-900M22S")
    )
    (path "/00000000-0000-0000-0000-0000609305fe/00000000-0000-0000-0000-000061605d72"
      (reference "U5") (unit 1) (value "MS5611-01BA") (footprint "Package_LGA:LGA-8_3x5mm_P1.25mm")
    )
    (path "/00000000-0000-0000-0000-0000609302c0/00000000-0000-0000-0000-000060932951"
      (reference "U6") (unit 1) (value "ESP32-WROOM-32D") (footprint "others:ESP32-WROOM-32D")
    )
    (path "/00000000-0000-0000-0000-00006093043f/00000000-0000-0000-0000-0000609a766f"
      (reference "U7") (unit 1) (value "SI4202DY-T1-GE3") (footprint "others:SI4202DY-T1-GE3")
    )
    (path "/00000000-0000-0000-0000-0000609302f8/00000000-0000-0000-0000-000060a1778d"
      (reference "U8") (unit 1) (value "CP2102N-A01-GQFN28") (footprint "Package_DFN_QFN:QFN-28-1EP_5x5mm_P0.5mm_EP3.35x3.35mm")
    )
    (path "/00000000-0000-0000-0000-00006092fbf4/00000000-0000-0000-0000-000060aaa908"
      (reference "U9") (unit 1) (value "TPS630702RNMR") (footprint "others:TPS63070RNMT")
    )
    (path "/00000000-0000-0000-0000-00006093055c/9c31b948-8ab2-4b3c-9dbd-0e74f80fb8c9"
      (reference "Y1") (unit 1) (value "CRYSTAL-32.768KHZSMD-3.2X1.5") (footprint "CRYSTAL-SMD-3.2X1.5MM")
    )
  )
)
