(kicad_sch (version 20211123) (generator eeschema)

  (uuid ca28eea6-02de-428b-af17-c69b37440b4a)

  (paper "A4")

  (lib_symbols
    (symbol "BNO080:BNO080" (pin_names (offset 1.016)) (in_bom yes) (on_board yes)
      (property "Reference" "U" (id 0) (at -20.32 26.67 0)
        (effects (font (size 1.27 1.27)) (justify left bottom))
      )
      (property "Value" "BNO080" (id 1) (at -20.32 -29.21 0)
        (effects (font (size 1.27 1.27)) (justify left bottom))
      )
      (property "Footprint" "IC_BNO080" (id 2) (at 0 0 0)
        (effects (font (size 1.27 1.27)) (justify left bottom) hide)
      )
      (property "Datasheet" "" (id 3) (at 0 0 0)
        (effects (font (size 1.27 1.27)) (justify left bottom) hide)
      )
      (property "PARTREV" "1.6" (id 4) (at 0 0 0)
        (effects (font (size 1.27 1.27)) (justify left bottom) hide)
      )
      (property "MANUFACTURER" "Hillcrest Laboratories, Inc." (id 5) (at 0 0 0)
        (effects (font (size 1.27 1.27)) (justify left bottom) hide)
      )
      (property "MAXIMUM_PACKAGE_HEIGHT" "1.180 mm" (id 6) (at 0 0 0)
        (effects (font (size 1.27 1.27)) (justify left bottom) hide)
      )
      (property "STANDARD" "Manufacturer Recommendations" (id 7) (at 0 0 0)
        (effects (font (size 1.27 1.27)) (justify left bottom) hide)
      )
      (property "ki_locked" "" (id 8) (at 0 0 0)
        (effects (font (size 1.27 1.27)))
      )
      (symbol "BNO080_0_0"
        (rectangle (start -20.32 -25.4) (end 20.32 25.4)
          (stroke (width 0.1524) (type default) (color 0 0 0 0))
          (fill (type background))
        )
        (pin input line (at 25.4 -17.78 180) (length 5.08)
          (name "CLKSEL0" (effects (font (size 1.016 1.016))))
          (number "10" (effects (font (size 1.016 1.016))))
        )
        (pin input line (at 25.4 1.27 180) (length 5.08)
          (name "~{RST}" (effects (font (size 1.016 1.016))))
          (number "11" (effects (font (size 1.016 1.016))))
        )
        (pin output line (at 25.4 3.81 180) (length 5.08)
          (name "~{H_INT}" (effects (font (size 1.016 1.016))))
          (number "14" (effects (font (size 1.016 1.016))))
        )
        (pin bidirectional clock (at -25.4 -2.54 0) (length 5.08)
          (name "ENV_SCL" (effects (font (size 1.016 1.016))))
          (number "15" (effects (font (size 1.016 1.016))))
        )
        (pin bidirectional line (at -25.4 0 0) (length 5.08)
          (name "ENV_SDA" (effects (font (size 1.016 1.016))))
          (number "16" (effects (font (size 1.016 1.016))))
        )
        (pin input line (at 25.4 8.89 180) (length 5.08)
          (name "SA0/H_MOSI" (effects (font (size 1.016 1.016))))
          (number "17" (effects (font (size 1.016 1.016))))
        )
        (pin input line (at 25.4 6.35 180) (length 5.08)
          (name "~{H_CS}" (effects (font (size 1.016 1.016))))
          (number "18" (effects (font (size 1.016 1.016))))
        )
        (pin bidirectional line (at 25.4 13.97 180) (length 5.08)
          (name "H_SCL/SCK/RX" (effects (font (size 1.016 1.016))))
          (number "19" (effects (font (size 1.016 1.016))))
        )
        (pin power_in line (at 25.4 -22.86 180) (length 5.08)
          (name "GND" (effects (font (size 1.016 1.016))))
          (number "2" (effects (font (size 1.016 1.016))))
        )
        (pin bidirectional line (at 25.4 11.43 180) (length 5.08)
          (name "H_SDA/H_MISO/TX" (effects (font (size 1.016 1.016))))
          (number "20" (effects (font (size 1.016 1.016))))
        )
        (pin power_in line (at 25.4 -20.32 180) (length 5.08)
          (name "GNDIO" (effects (font (size 1.016 1.016))))
          (number "25" (effects (font (size 1.016 1.016))))
        )
        (pin output line (at 25.4 -12.7 180) (length 5.08)
          (name "XOUT32/CLKSEL1" (effects (font (size 1.016 1.016))))
          (number "26" (effects (font (size 1.016 1.016))))
        )
        (pin input line (at 25.4 -10.16 180) (length 5.08)
          (name "XIN32" (effects (font (size 1.016 1.016))))
          (number "27" (effects (font (size 1.016 1.016))))
        )
        (pin power_in line (at 25.4 20.32 180) (length 5.08)
          (name "VDDIO" (effects (font (size 1.016 1.016))))
          (number "28" (effects (font (size 1.016 1.016))))
        )
        (pin power_in line (at 25.4 22.86 180) (length 5.08)
          (name "VDD" (effects (font (size 1.016 1.016))))
          (number "3" (effects (font (size 1.016 1.016))))
        )
        (pin input line (at -25.4 15.24 0) (length 5.08)
          (name "~{BOOT}" (effects (font (size 1.016 1.016))))
          (number "4" (effects (font (size 1.016 1.016))))
        )
        (pin input line (at -25.4 22.86 0) (length 5.08)
          (name "PS1" (effects (font (size 1.016 1.016))))
          (number "5" (effects (font (size 1.016 1.016))))
        )
        (pin input line (at -25.4 20.32 0) (length 5.08)
          (name "PS0/WAKE" (effects (font (size 1.016 1.016))))
          (number "6" (effects (font (size 1.016 1.016))))
        )
        (pin passive line (at -25.4 -21.59 0) (length 5.08)
          (name "CAP" (effects (font (size 1.016 1.016))))
          (number "9" (effects (font (size 1.016 1.016))))
        )
      )
    )
    (symbol "Device:R_US" (pin_numbers hide) (pin_names (offset 0)) (in_bom yes) (on_board yes)
      (property "Reference" "R" (id 0) (at 2.54 0 90)
        (effects (font (size 1.27 1.27)))
      )
      (property "Value" "R_US" (id 1) (at -2.54 0 90)
        (effects (font (size 1.27 1.27)))
      )
      (property "Footprint" "" (id 2) (at 1.016 -0.254 90)
        (effects (font (size 1.27 1.27)) hide)
      )
      (property "Datasheet" "~" (id 3) (at 0 0 0)
        (effects (font (size 1.27 1.27)) hide)
      )
      (property "ki_keywords" "R res resistor" (id 4) (at 0 0 0)
        (effects (font (size 1.27 1.27)) hide)
      )
      (property "ki_description" "Resistor, US symbol" (id 5) (at 0 0 0)
        (effects (font (size 1.27 1.27)) hide)
      )
      (property "ki_fp_filters" "R_*" (id 6) (at 0 0 0)
        (effects (font (size 1.27 1.27)) hide)
      )
      (symbol "R_US_0_1"
        (polyline
          (pts
            (xy 0 -2.286)
            (xy 0 -2.54)
          )
          (stroke (width 0) (type default) (color 0 0 0 0))
          (fill (type none))
        )
        (polyline
          (pts
            (xy 0 2.286)
            (xy 0 2.54)
          )
          (stroke (width 0) (type default) (color 0 0 0 0))
          (fill (type none))
        )
        (polyline
          (pts
            (xy 0 -0.762)
            (xy 1.016 -1.143)
            (xy 0 -1.524)
            (xy -1.016 -1.905)
            (xy 0 -2.286)
          )
          (stroke (width 0) (type default) (color 0 0 0 0))
          (fill (type none))
        )
        (polyline
          (pts
            (xy 0 0.762)
            (xy 1.016 0.381)
            (xy 0 0)
            (xy -1.016 -0.381)
            (xy 0 -0.762)
          )
          (stroke (width 0) (type default) (color 0 0 0 0))
          (fill (type none))
        )
        (polyline
          (pts
            (xy 0 2.286)
            (xy 1.016 1.905)
            (xy 0 1.524)
            (xy -1.016 1.143)
            (xy 0 0.762)
          )
          (stroke (width 0) (type default) (color 0 0 0 0))
          (fill (type none))
        )
      )
      (symbol "R_US_1_1"
        (pin passive line (at 0 3.81 270) (length 1.27)
          (name "~" (effects (font (size 1.27 1.27))))
          (number "1" (effects (font (size 1.27 1.27))))
        )
        (pin passive line (at 0 -3.81 90) (length 1.27)
          (name "~" (effects (font (size 1.27 1.27))))
          (number "2" (effects (font (size 1.27 1.27))))
        )
      )
    )
    (symbol "SparkFun-Clocks:CRYSTAL-32.768KHZSMD-3.2X1.5" (pin_numbers hide) (pin_names (offset 1.016) hide) (in_bom yes) (on_board yes)
      (property "Reference" "Y" (id 0) (at 0 2.54 0)
        (effects (font (size 1.143 1.143)) (justify left bottom))
      )
      (property "Value" "SparkFun-Clocks_CRYSTAL-32.768KHZSMD-3.2X1.5" (id 1) (at 0 -3.81 0)
        (effects (font (size 1.143 1.143)) (justify left bottom))
      )
      (property "Footprint" "CRYSTAL-SMD-3.2X1.5MM" (id 2) (at 0 5.08 0)
        (effects (font (size 0.508 0.508)) hide)
      )
      (property "Datasheet" "" (id 3) (at 0 0 0)
        (effects (font (size 1.27 1.27)) hide)
      )
      (property "Field4" "XTAL-13062" (id 4) (at 0 6.35 0)
        (effects (font (size 1.524 1.524)))
      )
      (property "ki_locked" "" (id 5) (at 0 0 0)
        (effects (font (size 1.27 1.27)))
      )
      (property "ki_fp_filters" "*CRYSTAL-SMD-3.2X1.5MM*" (id 6) (at 0 0 0)
        (effects (font (size 1.27 1.27)) hide)
      )
      (symbol "CRYSTAL-32.768KHZSMD-3.2X1.5_1_0"
        (polyline
          (pts
            (xy -2.54 0)
            (xy -1.016 0)
          )
          (stroke (width 0) (type default) (color 0 0 0 0))
          (fill (type none))
        )
        (polyline
          (pts
            (xy -1.016 1.778)
            (xy -1.016 -1.778)
          )
          (stroke (width 0) (type default) (color 0 0 0 0))
          (fill (type none))
        )
        (polyline
          (pts
            (xy 1.016 0)
            (xy 2.54 0)
          )
          (stroke (width 0) (type default) (color 0 0 0 0))
          (fill (type none))
        )
        (polyline
          (pts
            (xy 1.016 1.778)
            (xy 1.016 -1.778)
          )
          (stroke (width 0) (type default) (color 0 0 0 0))
          (fill (type none))
        )
        (text "1" (at -1.8288 -0.7874 0)
          (effects (font (size 0.6858 0.6858)))
        )
        (text "2" (at 1.8542 -0.7874 0)
          (effects (font (size 0.6858 0.6858)))
        )
      )
      (symbol "CRYSTAL-32.768KHZSMD-3.2X1.5_1_1"
        (polyline
          (pts
            (xy -0.381 1.524)
            (xy -0.381 -1.524)
            (xy 0.381 -1.524)
            (xy 0.381 1.524)
            (xy -0.381 1.524)
          )
          (stroke (width 0) (type default) (color 0 0 0 0))
          (fill (type background))
        )
        (pin passive line (at -2.54 0 0) (length 0)
          (name "1" (effects (font (size 1.016 1.016))))
          (number "P$1" (effects (font (size 1.016 1.016))))
        )
        (pin passive line (at 2.54 0 180) (length 0)
          (name "2" (effects (font (size 1.016 1.016))))
          (number "P$2" (effects (font (size 1.016 1.016))))
        )
      )
    )
    (symbol "power:+3.3V" (power) (pin_names (offset 0)) (in_bom yes) (on_board yes)
      (property "Reference" "#PWR" (id 0) (at 0 -3.81 0)
        (effects (font (size 1.27 1.27)) hide)
      )
      (property "Value" "+3.3V" (id 1) (at 0 3.556 0)
        (effects (font (size 1.27 1.27)))
      )
      (property "Footprint" "" (id 2) (at 0 0 0)
        (effects (font (size 1.27 1.27)) hide)
      )
      (property "Datasheet" "" (id 3) (at 0 0 0)
        (effects (font (size 1.27 1.27)) hide)
      )
      (property "ki_keywords" "power-flag" (id 4) (at 0 0 0)
        (effects (font (size 1.27 1.27)) hide)
      )
      (property "ki_description" "Power symbol creates a global label with name \"+3.3V\"" (id 5) (at 0 0 0)
        (effects (font (size 1.27 1.27)) hide)
      )
      (symbol "+3.3V_0_1"
        (polyline
          (pts
            (xy -0.762 1.27)
            (xy 0 2.54)
          )
          (stroke (width 0) (type default) (color 0 0 0 0))
          (fill (type none))
        )
        (polyline
          (pts
            (xy 0 0)
            (xy 0 2.54)
          )
          (stroke (width 0) (type default) (color 0 0 0 0))
          (fill (type none))
        )
        (polyline
          (pts
            (xy 0 2.54)
            (xy 0.762 1.27)
          )
          (stroke (width 0) (type default) (color 0 0 0 0))
          (fill (type none))
        )
      )
      (symbol "+3.3V_1_1"
        (pin power_in line (at 0 0 90) (length 0) hide
          (name "+3V3" (effects (font (size 1.27 1.27))))
          (number "1" (effects (font (size 1.27 1.27))))
        )
      )
    )
    (symbol "power:GND" (power) (pin_names (offset 0)) (in_bom yes) (on_board yes)
      (property "Reference" "#PWR" (id 0) (at 0 -6.35 0)
        (effects (font (size 1.27 1.27)) hide)
      )
      (property "Value" "GND" (id 1) (at 0 -3.81 0)
        (effects (font (size 1.27 1.27)))
      )
      (property "Footprint" "" (id 2) (at 0 0 0)
        (effects (font (size 1.27 1.27)) hide)
      )
      (property "Datasheet" "" (id 3) (at 0 0 0)
        (effects (font (size 1.27 1.27)) hide)
      )
      (property "ki_keywords" "power-flag" (id 4) (at 0 0 0)
        (effects (font (size 1.27 1.27)) hide)
      )
      (property "ki_description" "Power symbol creates a global label with name \"GND\" , ground" (id 5) (at 0 0 0)
        (effects (font (size 1.27 1.27)) hide)
      )
      (symbol "GND_0_1"
        (polyline
          (pts
            (xy 0 0)
            (xy 0 -1.27)
            (xy 1.27 -1.27)
            (xy 0 -2.54)
            (xy -1.27 -1.27)
            (xy 0 -1.27)
          )
          (stroke (width 0) (type default) (color 0 0 0 0))
          (fill (type none))
        )
      )
      (symbol "GND_1_1"
        (pin power_in line (at 0 0 270) (length 0) hide
          (name "GND" (effects (font (size 1.27 1.27))))
          (number "1" (effects (font (size 1.27 1.27))))
        )
      )
    )
    (symbol "roket-rescue:Cap-805_cap" (pin_names (offset 1.016) hide) (in_bom yes) (on_board yes)
      (property "Reference" "C" (id 0) (at 0 3.81 0)
        (effects (font (size 1.27 1.27)) (justify left bottom))
      )
      (property "Value" "Cap-805_cap" (id 1) (at 0 -5.08 0)
        (effects (font (size 1.27 1.27)) (justify left bottom))
      )
      (property "Footprint" "CAPC2012X135N" (id 2) (at 0 0 0)
        (effects (font (size 1.27 1.27)) (justify left bottom) hide)
      )
      (property "Datasheet" "" (id 3) (at 0 0 0)
        (effects (font (size 1.27 1.27)) (justify left bottom) hide)
      )
      (property "ki_locked" "" (id 4) (at 0 0 0)
        (effects (font (size 1.27 1.27)))
      )
      (symbol "Cap-805_cap_0_0"
        (rectangle (start 0 -1.905) (end 0.635 1.905)
          (stroke (width 0) (type default) (color 0 0 0 0))
          (fill (type outline))
        )
        (rectangle (start 1.905 -1.905) (end 2.54 1.905)
          (stroke (width 0) (type default) (color 0 0 0 0))
          (fill (type outline))
        )
        (pin passive line (at 5.08 0 180) (length 2.54)
          (name "~" (effects (font (size 1.016 1.016))))
          (number "1" (effects (font (size 1.016 1.016))))
        )
        (pin passive line (at -2.54 0 0) (length 2.54)
          (name "~" (effects (font (size 1.016 1.016))))
          (number "2" (effects (font (size 1.016 1.016))))
        )
      )
    )
  )

  (junction (at 123.19 71.12) (diameter 0) (color 0 0 0 0)
    (uuid 31c839ef-9942-458f-9858-07d7b2b37cd7)
  )
  (junction (at 176.53 76.2) (diameter 0) (color 0 0 0 0)
    (uuid 42e6472e-3841-482e-a06f-9101980600e9)
  )
  (junction (at 176.53 121.92) (diameter 0) (color 0 0 0 0)
    (uuid 4fc0daf8-457d-4b23-bf8d-f73540bb2c4f)
  )
  (junction (at 196.85 111.76) (diameter 0) (color 0 0 0 0)
    (uuid 67adee33-9b33-4150-82bd-68255a41facb)
  )
  (junction (at 176.53 74.93) (diameter 0) (color 0 0 0 0)
    (uuid 77152a6c-317a-446c-a2ca-77cdea91faf2)
  )
  (junction (at 191.77 124.46) (diameter 0) (color 0 0 0 0)
    (uuid 92b99004-6d7a-4973-8437-b5147eaf03fc)
  )
  (junction (at 125.73 76.2) (diameter 0) (color 0 0 0 0)
    (uuid a3467621-a670-413b-a54b-78ecf64f30b8)
  )
  (junction (at 176.53 119.38) (diameter 0) (color 0 0 0 0)
    (uuid c7697c83-ddb1-4556-9b2f-af13a7e2828b)
  )
  (junction (at 185.42 111.76) (diameter 0) (color 0 0 0 0)
    (uuid d0f2bcc9-91d7-44a1-9e48-94297bdbd684)
  )

  (no_connect (at 125.73 99.06) (uuid 530dd056-670d-410f-9fd1-cfbd3799424c))
  (no_connect (at 125.73 101.6) (uuid b2cd3c38-2104-4a96-b733-eba981cef5ec))

  (wire (pts (xy 187.96 111.76) (xy 185.42 111.76))
    (stroke (width 0) (type default) (color 0 0 0 0))
    (uuid 05167717-3e2a-41a9-9092-946fd0eba971)
  )
  (wire (pts (xy 125.73 71.12) (xy 125.73 76.2))
    (stroke (width 0) (type default) (color 0 0 0 0))
    (uuid 06a4ca10-456c-48f9-a5aa-61ba903da703)
  )
  (wire (pts (xy 176.53 74.93) (xy 191.77 74.93))
    (stroke (width 0) (type default) (color 0 0 0 0))
    (uuid 10bc5a97-bb67-457d-a1bc-89ac16153a91)
  )
  (wire (pts (xy 185.42 111.76) (xy 185.42 115.57))
    (stroke (width 0) (type default) (color 0 0 0 0))
    (uuid 21cdfab5-1b87-48fa-ba2c-c20d05d9699b)
  )
  (wire (pts (xy 176.53 116.84) (xy 176.53 119.38))
    (stroke (width 0) (type default) (color 0 0 0 0))
    (uuid 243f2c0c-85be-48f5-852b-b2605b6c7c07)
  )
  (wire (pts (xy 185.42 123.19) (xy 185.42 124.46))
    (stroke (width 0) (type default) (color 0 0 0 0))
    (uuid 27d4f84c-2332-4602-be70-1fb88f4dc463)
  )
  (wire (pts (xy 176.53 124.46) (xy 176.53 121.92))
    (stroke (width 0) (type default) (color 0 0 0 0))
    (uuid 3747b072-fac9-4630-a824-f4edfd1c2b44)
  )
  (wire (pts (xy 176.53 72.39) (xy 176.53 74.93))
    (stroke (width 0) (type default) (color 0 0 0 0))
    (uuid 3b495bbf-9908-4410-9bbb-60661e17f499)
  )
  (wire (pts (xy 196.85 111.76) (xy 193.04 111.76))
    (stroke (width 0) (type default) (color 0 0 0 0))
    (uuid 3fa15437-891f-43eb-8e01-f5f4c39881f3)
  )
  (wire (pts (xy 123.19 71.12) (xy 120.65 71.12))
    (stroke (width 0) (type default) (color 0 0 0 0))
    (uuid 48d24c22-cd90-437c-ab7d-7d29441c9862)
  )
  (wire (pts (xy 196.85 124.46) (xy 196.85 123.19))
    (stroke (width 0) (type default) (color 0 0 0 0))
    (uuid 74eb37a4-afcf-4775-a70f-0fc6ac3757b8)
  )
  (wire (pts (xy 196.85 111.76) (xy 196.85 115.57))
    (stroke (width 0) (type default) (color 0 0 0 0))
    (uuid 79184da2-ac4b-499b-bd05-04777bc07e62)
  )
  (wire (pts (xy 120.65 81.28) (xy 120.65 83.82))
    (stroke (width 0) (type default) (color 0 0 0 0))
    (uuid 7d3c59b4-fe37-4883-bd1e-36f7293f544d)
  )
  (wire (pts (xy 191.77 83.82) (xy 191.77 82.55))
    (stroke (width 0) (type default) (color 0 0 0 0))
    (uuid 7ff93689-16aa-4b5e-9417-068c76aca7e2)
  )
  (wire (pts (xy 191.77 125.73) (xy 191.77 124.46))
    (stroke (width 0) (type default) (color 0 0 0 0))
    (uuid 8217cd76-e25e-4fd4-9833-7c99d1bdcffc)
  )
  (wire (pts (xy 176.53 78.74) (xy 176.53 76.2))
    (stroke (width 0) (type default) (color 0 0 0 0))
    (uuid 8cb44562-2bb7-4f56-878e-bf863c1ee768)
  )
  (wire (pts (xy 176.53 74.93) (xy 176.53 76.2))
    (stroke (width 0) (type default) (color 0 0 0 0))
    (uuid 90e37319-3fe7-4645-b057-74480990ea11)
  )
  (wire (pts (xy 176.53 119.38) (xy 176.53 121.92))
    (stroke (width 0) (type default) (color 0 0 0 0))
    (uuid 90eb53d3-e95b-4cfc-af7f-5fede1478813)
  )
  (wire (pts (xy 125.73 76.2) (xy 125.73 78.74))
    (stroke (width 0) (type default) (color 0 0 0 0))
    (uuid 944011a7-5e2d-4456-87cc-008388926582)
  )
  (wire (pts (xy 125.73 83.82) (xy 120.65 83.82))
    (stroke (width 0) (type default) (color 0 0 0 0))
    (uuid 970f015f-3556-44fb-80de-978e8ac263ba)
  )
  (wire (pts (xy 120.65 71.12) (xy 120.65 73.66))
    (stroke (width 0) (type default) (color 0 0 0 0))
    (uuid 9dc1a16a-c60f-401d-a550-3a415929b3ef)
  )
  (wire (pts (xy 120.65 132.08) (xy 120.65 130.81))
    (stroke (width 0) (type default) (color 0 0 0 0))
    (uuid b59c7c2b-89bb-4df5-a98e-833e82d8ec3d)
  )
  (wire (pts (xy 196.85 111.76) (xy 196.85 109.22))
    (stroke (width 0) (type default) (color 0 0 0 0))
    (uuid caaa6595-e9d3-4a4b-a067-2fe3a3bd4d8d)
  )
  (wire (pts (xy 185.42 124.46) (xy 191.77 124.46))
    (stroke (width 0) (type default) (color 0 0 0 0))
    (uuid cb832db5-424e-41b0-8f7f-fcf9f2ceb2c8)
  )
  (wire (pts (xy 120.65 120.65) (xy 120.65 123.19))
    (stroke (width 0) (type default) (color 0 0 0 0))
    (uuid cc9e79f9-7308-4865-8985-ef6df4263d25)
  )
  (wire (pts (xy 176.53 111.76) (xy 185.42 111.76))
    (stroke (width 0) (type default) (color 0 0 0 0))
    (uuid d43dc539-8691-48d5-bcbf-b146088002e0)
  )
  (wire (pts (xy 123.19 71.12) (xy 125.73 71.12))
    (stroke (width 0) (type default) (color 0 0 0 0))
    (uuid df0b2e5e-587f-4725-acb9-7f1392a5625d)
  )
  (wire (pts (xy 191.77 124.46) (xy 196.85 124.46))
    (stroke (width 0) (type default) (color 0 0 0 0))
    (uuid df9f1d95-bf3c-4bba-88bb-63938815f6d9)
  )
  (wire (pts (xy 125.73 120.65) (xy 120.65 120.65))
    (stroke (width 0) (type default) (color 0 0 0 0))
    (uuid ef6f6353-a872-4b9f-9f5b-3d95afe648fb)
  )
  (wire (pts (xy 176.53 109.22) (xy 196.85 109.22))
    (stroke (width 0) (type default) (color 0 0 0 0))
    (uuid f040b49f-c39a-44e1-aef9-6eec2d9eeab6)
  )

  (hierarchical_label "RST" (shape input) (at 176.53 97.79 0)
    (effects (font (size 1.27 1.27)) (justify left))
    (uuid 1f264549-90ef-4da8-a998-ad110477cab1)
  )
  (hierarchical_label "INT" (shape input) (at 176.53 95.25 0)
    (effects (font (size 1.27 1.27)) (justify left))
    (uuid 42584cff-3ba6-49fd-b9b3-e112ef8d500e)
  )
  (hierarchical_label "MISO" (shape input) (at 176.53 87.63 0)
    (effects (font (size 1.27 1.27)) (justify left))
    (uuid 7560bc7c-edc7-4ac6-9493-a5066a60c8ba)
  )
  (hierarchical_label "MOSI" (shape input) (at 176.53 90.17 0)
    (effects (font (size 1.27 1.27)) (justify left))
    (uuid b3d492c2-14fa-4f1e-b931-e0ded96f6393)
  )
  (hierarchical_label "SCLK" (shape input) (at 176.53 85.09 0)
    (effects (font (size 1.27 1.27)) (justify left))
    (uuid c8c31355-0561-40eb-bd53-45c3d347e51c)
  )
  (hierarchical_label "CS" (shape input) (at 176.53 92.71 0)
    (effects (font (size 1.27 1.27)) (justify left))
    (uuid eb32e553-6789-4cfe-9e6f-d33d9bbcc804)
  )

  (symbol (lib_id "roket-rescue:Cap-805_cap") (at 120.65 125.73 90) (mirror x) (unit 1)
    (in_bom yes) (on_board yes)
    (uuid 00000000-0000-0000-0000-000060a368c2)
    (property "Reference" "C21" (id 0) (at 118.0338 125.8316 90)
      (effects (font (size 1.27 1.27)) (justify left))
    )
    (property "Value" "0.1uF" (id 1) (at 118.0338 128.143 90)
      (effects (font (size 1.27 1.27)) (justify left))
    )
    (property "Footprint" "Capacitor_SMD:C_0805_2012Metric" (id 2) (at 120.65 125.73 0)
      (effects (font (size 1.27 1.27)) (justify left bottom) hide)
    )
    (property "Datasheet" "" (id 3) (at 120.65 125.73 0)
      (effects (font (size 1.27 1.27)) (justify left bottom) hide)
    )
    (pin "1" (uuid c79c6bc6-50a3-42a1-b5bc-0e57785afa2c))
    (pin "2" (uuid c31dbb06-ff1d-489f-bbd6-fba656ca4f65))
  )

  (symbol (lib_id "power:GND") (at 120.65 132.08 0) (mirror y) (unit 1)
    (in_bom yes) (on_board yes)
    (uuid 00000000-0000-0000-0000-000060a37801)
    (property "Reference" "#PWR069" (id 0) (at 120.65 138.43 0)
      (effects (font (size 1.27 1.27)) hide)
    )
    (property "Value" "GND" (id 1) (at 120.523 136.4742 0))
    (property "Footprint" "" (id 2) (at 120.65 132.08 0)
      (effects (font (size 1.27 1.27)) hide)
    )
    (property "Datasheet" "" (id 3) (at 120.65 132.08 0)
      (effects (font (size 1.27 1.27)) hide)
    )
    (pin "1" (uuid a0ff6436-ba27-4aba-819d-052c89e45f2d))
  )

  (symbol (lib_id "power:+3.3V") (at 176.53 72.39 0) (unit 1)
    (in_bom yes) (on_board yes)
    (uuid 00000000-0000-0000-0000-000060a54860)
    (property "Reference" "#PWR065" (id 0) (at 176.53 76.2 0)
      (effects (font (size 1.27 1.27)) hide)
    )
    (property "Value" "+3.3V" (id 1) (at 176.911 67.9958 0))
    (property "Footprint" "" (id 2) (at 176.53 72.39 0)
      (effects (font (size 1.27 1.27)) hide)
    )
    (property "Datasheet" "" (id 3) (at 176.53 72.39 0)
      (effects (font (size 1.27 1.27)) hide)
    )
    (pin "1" (uuid 87c96aa9-10e2-4e8c-843c-baf073af6818))
  )

  (symbol (lib_id "power:GND") (at 176.53 124.46 0) (unit 1)
    (in_bom yes) (on_board yes)
    (uuid 00000000-0000-0000-0000-000060a559b4)
    (property "Reference" "#PWR067" (id 0) (at 176.53 130.81 0)
      (effects (font (size 1.27 1.27)) hide)
    )
    (property "Value" "GND" (id 1) (at 176.657 128.8542 0))
    (property "Footprint" "" (id 2) (at 176.53 124.46 0)
      (effects (font (size 1.27 1.27)) hide)
    )
    (property "Datasheet" "" (id 3) (at 176.53 124.46 0)
      (effects (font (size 1.27 1.27)) hide)
    )
    (pin "1" (uuid f7295dff-995c-433e-9af5-d3c92900d7a7))
  )

  (symbol (lib_id "roket-rescue:Cap-805_cap") (at 185.42 118.11 270) (unit 1)
    (in_bom yes) (on_board yes)
    (uuid 00000000-0000-0000-0000-000060a583c9)
    (property "Reference" "C19" (id 0) (at 188.0362 118.2116 90)
      (effects (font (size 1.27 1.27)) (justify left))
    )
    (property "Value" "22pF" (id 1) (at 188.0362 120.523 90)
      (effects (font (size 1.27 1.27)) (justify left))
    )
    (property "Footprint" "Capacitor_SMD:C_0805_2012Metric" (id 2) (at 185.42 118.11 0)
      (effects (font (size 1.27 1.27)) (justify left bottom) hide)
    )
    (property "Datasheet" "" (id 3) (at 185.42 118.11 0)
      (effects (font (size 1.27 1.27)) (justify left bottom) hide)
    )
    (pin "1" (uuid 55d30360-5559-46ae-95e0-0c284d7122a3))
    (pin "2" (uuid e51fec3d-ebe6-4743-8cb5-ffdc3dc715c9))
  )

  (symbol (lib_id "roket-rescue:Cap-805_cap") (at 196.85 118.11 270) (unit 1)
    (in_bom yes) (on_board yes)
    (uuid 00000000-0000-0000-0000-000060a583cf)
    (property "Reference" "C20" (id 0) (at 199.4662 118.2116 90)
      (effects (font (size 1.27 1.27)) (justify left))
    )
    (property "Value" "22pF" (id 1) (at 199.4662 120.523 90)
      (effects (font (size 1.27 1.27)) (justify left))
    )
    (property "Footprint" "Capacitor_SMD:C_0805_2012Metric" (id 2) (at 196.85 118.11 0)
      (effects (font (size 1.27 1.27)) (justify left bottom) hide)
    )
    (property "Datasheet" "" (id 3) (at 196.85 118.11 0)
      (effects (font (size 1.27 1.27)) (justify left bottom) hide)
    )
    (pin "1" (uuid 1407418c-d963-4c17-8431-4600813ebdad))
    (pin "2" (uuid efe7397e-f0d9-4cb4-9374-e09b4bc3e74f))
  )

  (symbol (lib_id "power:GND") (at 191.77 125.73 0) (unit 1)
    (in_bom yes) (on_board yes)
    (uuid 00000000-0000-0000-0000-000060a583da)
    (property "Reference" "#PWR068" (id 0) (at 191.77 132.08 0)
      (effects (font (size 1.27 1.27)) hide)
    )
    (property "Value" "GND" (id 1) (at 191.897 130.1242 0))
    (property "Footprint" "" (id 2) (at 191.77 125.73 0)
      (effects (font (size 1.27 1.27)) hide)
    )
    (property "Datasheet" "" (id 3) (at 191.77 125.73 0)
      (effects (font (size 1.27 1.27)) hide)
    )
    (pin "1" (uuid d060330c-f4dd-4d9b-83d1-7a6e30916dff))
  )

  (symbol (lib_id "BNO080:BNO080") (at 151.13 99.06 0) (unit 1)
    (in_bom yes) (on_board yes)
    (uuid 00000000-0000-0000-0000-000060bbd1a8)
    (property "Reference" "U8" (id 0) (at 151.13 69.469 0))
    (property "Value" "BNO080" (id 1) (at 151.13 71.7804 0))
    (property "Footprint" "digikey-footprints:LGA-28_5.2x3.8mm_BNO0055" (id 2) (at 151.13 99.06 0)
      (effects (font (size 1.27 1.27)) (justify left bottom) hide)
    )
    (property "Datasheet" "" (id 3) (at 151.13 99.06 0)
      (effects (font (size 1.27 1.27)) (justify left bottom) hide)
    )
    (property "PARTREV" "1.6" (id 4) (at 151.13 99.06 0)
      (effects (font (size 1.27 1.27)) (justify left bottom) hide)
    )
    (property "MANUFACTURER" "Hillcrest Laboratories, Inc." (id 5) (at 151.13 99.06 0)
      (effects (font (size 1.27 1.27)) (justify left bottom) hide)
    )
    (property "MAXIMUM_PACKAGE_HEIGHT" "1.180 mm" (id 6) (at 151.13 99.06 0)
      (effects (font (size 1.27 1.27)) (justify left bottom) hide)
    )
    (property "STANDARD" "Manufacturer Recommendations" (id 7) (at 151.13 99.06 0)
      (effects (font (size 1.27 1.27)) (justify left bottom) hide)
    )
    (pin "10" (uuid c80dc8bc-aa28-4fc2-9632-13f75cbaaee4))
    (pin "11" (uuid 611a964a-b9d4-4098-ba70-17244ba43922))
    (pin "14" (uuid 47eae46e-573c-4a9a-b62d-d9a0954260cb))
    (pin "15" (uuid 2521910f-b2c6-4e9a-8ba9-a18ca988da3a))
    (pin "16" (uuid f45f9242-aeb5-46a4-a442-2de3fbe07a7a))
    (pin "17" (uuid 340c3450-f197-4dea-aebc-b74d70013217))
    (pin "18" (uuid 3dbf2a88-d815-488c-aab2-ec1b6ac67fa0))
    (pin "19" (uuid 956a509a-1251-461a-bc8d-8494f9680ed1))
    (pin "2" (uuid bb07e307-1e13-4ec2-890b-c9bd3dcba965))
    (pin "20" (uuid 945b4e11-d57e-494a-aef5-b1bb0d899dd3))
    (pin "25" (uuid fc8b7b27-ee60-4214-9372-d13234cbac1b))
    (pin "26" (uuid 67f216cd-7460-434d-bca3-2f9633ea8009))
    (pin "27" (uuid 7b2c6603-1066-4b38-b5df-4ff96e5d6819))
    (pin "28" (uuid 7ae08b67-adff-457a-867c-61cb97f22fb8))
    (pin "3" (uuid 9c465609-6e59-435a-b2ba-93066070af7b))
    (pin "4" (uuid 97c96692-3012-4fc7-8a7a-a32399a0b291))
    (pin "5" (uuid b6d8d86f-9a82-4a4f-a726-91dad5e93b35))
    (pin "6" (uuid 807aa310-d256-4969-87ea-0f25f6c73799))
    (pin "9" (uuid 6cb42a48-018c-4910-9a8b-1489518763ba))
  )

  (symbol (lib_id "roket-rescue:Cap-805_cap") (at 191.77 77.47 270) (unit 1)
    (in_bom yes) (on_board yes)
    (uuid 00000000-0000-0000-0000-000060bcc618)
    (property "Reference" "C18" (id 0) (at 194.3862 77.5716 90)
      (effects (font (size 1.27 1.27)) (justify left))
    )
    (property "Value" "0.1uF" (id 1) (at 194.3862 79.883 90)
      (effects (font (size 1.27 1.27)) (justify left))
    )
    (property "Footprint" "Capacitor_SMD:C_0805_2012Metric" (id 2) (at 191.77 77.47 0)
      (effects (font (size 1.27 1.27)) (justify left bottom) hide)
    )
    (property "Datasheet" "" (id 3) (at 191.77 77.47 0)
      (effects (font (size 1.27 1.27)) (justify left bottom) hide)
    )
    (pin "1" (uuid 249fa0ce-6570-4fc4-a96c-b2661900c92b))
    (pin "2" (uuid 25d7d085-e13c-445c-a226-c233b7cb3c18))
  )

  (symbol (lib_id "power:GND") (at 191.77 83.82 0) (unit 1)
    (in_bom yes) (on_board yes)
    (uuid 00000000-0000-0000-0000-000060bccde6)
    (property "Reference" "#PWR066" (id 0) (at 191.77 90.17 0)
      (effects (font (size 1.27 1.27)) hide)
    )
    (property "Value" "GND" (id 1) (at 191.897 88.2142 0))
    (property "Footprint" "" (id 2) (at 191.77 83.82 0)
      (effects (font (size 1.27 1.27)) hide)
    )
    (property "Datasheet" "" (id 3) (at 191.77 83.82 0)
      (effects (font (size 1.27 1.27)) hide)
    )
    (pin "1" (uuid 684fd737-c417-4993-802c-19be10b6188c))
  )

  (symbol (lib_id "SparkFun-Clocks:CRYSTAL-32.768KHZSMD-3.2X1.5") (at 190.5 111.76 0) (unit 1)
    (in_bom yes) (on_board yes)
    (uuid 00000000-0000-0000-0000-000060be6929)
    (property "Reference" "Y1" (id 0) (at 190.5 103.378 0)
      (effects (font (size 1.143 1.143)))
    )
    (property "Value" "CRYSTAL-32.768KHZSMD-3.2X1.5" (id 1) (at 190.5 105.5116 0)
      (effects (font (size 1.143 1.143)))
    )
    (property "Footprint" "CRYSTAL-SMD-3.2X1.5MM" (id 2) (at 190.5 106.68 0)
      (effects (font (size 0.508 0.508)) hide)
    )
    (property "Datasheet" "" (id 3) (at 190.5 111.76 0)
      (effects (font (size 1.27 1.27)) hide)
    )
    (property "Field4" "XTAL-13062" (id 4) (at 190.5 107.9246 0)
      (effects (font (size 1.524 1.524)))
    )
    (pin "P$1" (uuid 6d36e287-2cfb-4f13-9a3f-a8f284961304))
    (pin "P$2" (uuid 235f4f81-3283-4817-a1ad-c039c7cf2ada))
  )

  (symbol (lib_id "Device:R_US") (at 120.65 77.47 180) (unit 1)
    (in_bom yes) (on_board yes)
    (uuid 00000000-0000-0000-0000-0000615f8df0)
    (property "Reference" "R25" (id 0) (at 123.19 80.01 0)
      (effects (font (size 1.27 1.27)) (justify left))
    )
    (property "Value" "10K" (id 1) (at 120.65 73.66 0)
      (effects (font (size 1.27 1.27)) (justify right))
    )
    (property "Footprint" "Resistor_SMD:R_0805_2012Metric" (id 2) (at 119.634 77.216 90)
      (effects (font (size 1.27 1.27)) hide)
    )
    (property "Datasheet" "~" (id 3) (at 120.65 77.47 0)
      (effects (font (size 1.27 1.27)) hide)
    )
    (pin "1" (uuid 71031f78-0ba4-4367-af6c-7e469c44f8ea))
    (pin "2" (uuid f7c1c811-b4c8-4b94-9a9e-c92e5ae71ae7))
  )

  (symbol (lib_id "power:+3.3V") (at 123.19 71.12 0) (unit 1)
    (in_bom yes) (on_board yes)
    (uuid 00000000-0000-0000-0000-0000615f9f4b)
    (property "Reference" "#PWR064" (id 0) (at 123.19 74.93 0)
      (effects (font (size 1.27 1.27)) hide)
    )
    (property "Value" "+3.3V" (id 1) (at 123.571 66.7258 0))
    (property "Footprint" "" (id 2) (at 123.19 71.12 0)
      (effects (font (size 1.27 1.27)) hide)
    )
    (property "Datasheet" "" (id 3) (at 123.19 71.12 0)
      (effects (font (size 1.27 1.27)) hide)
    )
    (pin "1" (uuid 67e977dd-ca6d-4c03-9edf-bc044bab8655))
  )
)
