(kicad_sch (version 20211123) (generator eeschema)

  (uuid ca28eea6-02de-428b-af17-c69b37440b4a)

  (paper "A4")

  (lib_symbols
    (symbol "ICM-20948:ICM-20948" (pin_names (offset 1.016)) (in_bom yes) (on_board yes)
      (property "Reference" "U" (id 0) (at -15.24 18.415 0)
        (effects (font (size 1.27 1.27)) (justify left bottom))
      )
      (property "Value" "ICM-20948" (id 1) (at -15.24 -20.32 0)
        (effects (font (size 1.27 1.27)) (justify left bottom))
      )
      (property "Footprint" "QFN40P300X300X105-24N" (id 2) (at 0 2.54 0)
        (effects (font (size 1.27 1.27)) (justify left bottom) hide)
      )
      (property "Datasheet" "" (id 3) (at 0 0 0)
        (effects (font (size 1.27 1.27)) (justify left bottom) hide)
      )
      (property "MAXIMUM_PACKAGE_HEIGHT" "1.05 mm" (id 4) (at 0 0 0)
        (effects (font (size 1.27 1.27)) (justify left bottom) hide)
      )
      (property "STANDARD" "IPC 7351B" (id 5) (at 0 0 0)
        (effects (font (size 1.27 1.27)) (justify left bottom) hide)
      )
      (property "MANUFACTURER" "TDK InvenSense" (id 6) (at 0 0 0)
        (effects (font (size 1.27 1.27)) (justify left bottom) hide)
      )
      (property "PARTREV" "1.3" (id 7) (at 0 0 0)
        (effects (font (size 1.27 1.27)) (justify left bottom) hide)
      )
      (property "ki_locked" "" (id 8) (at 0 0 0)
        (effects (font (size 1.27 1.27)))
      )
      (symbol "ICM-20948_0_0"
        (rectangle (start -15.24 -17.78) (end 15.24 17.78)
          (stroke (width 0.254) (type default) (color 0 0 0 0))
          (fill (type background))
        )
        (pin no_connect line (at 20.32 0 180) (length 5.08)
          (name "NC" (effects (font (size 1.016 1.016))))
          (number "1" (effects (font (size 1.016 1.016))))
        )
        (pin output line (at 20.32 8.89 180) (length 5.08)
          (name "REGOUT" (effects (font (size 1.016 1.016))))
          (number "10" (effects (font (size 1.016 1.016))))
        )
        (pin input line (at -20.32 -2.54 0) (length 5.08)
          (name "FSYNC" (effects (font (size 1.016 1.016))))
          (number "11" (effects (font (size 1.016 1.016))))
        )
        (pin output line (at 20.32 5.08 180) (length 5.08)
          (name "INT1" (effects (font (size 1.016 1.016))))
          (number "12" (effects (font (size 1.016 1.016))))
        )
        (pin power_in line (at 20.32 15.24 180) (length 5.08)
          (name "VDD" (effects (font (size 1.016 1.016))))
          (number "13" (effects (font (size 1.016 1.016))))
        )
        (pin no_connect line (at 20.32 -15.24 180) (length 5.08)
          (name "NC" (effects (font (size 1.016 1.016))))
          (number "14" (effects (font (size 1.016 1.016))))
        )
        (pin no_connect line (at -20.32 -10.16 0) (length 5.08)
          (name "NC" (effects (font (size 1.016 1.016))))
          (number "15" (effects (font (size 1.016 1.016))))
        )
        (pin no_connect line (at -20.32 -7.62 0) (length 5.08)
          (name "NC" (effects (font (size 1.016 1.016))))
          (number "16" (effects (font (size 1.016 1.016))))
        )
        (pin no_connect line (at -20.32 -5.08 0) (length 5.08)
          (name "NC" (effects (font (size 1.016 1.016))))
          (number "17" (effects (font (size 1.016 1.016))))
        )
        (pin power_in line (at -20.32 -16.51 0) (length 5.08)
          (name "GND" (effects (font (size 1.016 1.016))))
          (number "18" (effects (font (size 1.016 1.016))))
        )
        (pin passive line (at 20.32 2.54 180) (length 5.08)
          (name "RESV_19" (effects (font (size 1.016 1.016))))
          (number "19" (effects (font (size 1.016 1.016))))
        )
        (pin no_connect line (at 20.32 -2.54 180) (length 5.08)
          (name "NC" (effects (font (size 1.016 1.016))))
          (number "2" (effects (font (size 1.016 1.016))))
        )
        (pin passive line (at -20.32 -13.97 0) (length 5.08)
          (name "RESV_20" (effects (font (size 1.016 1.016))))
          (number "20" (effects (font (size 1.016 1.016))))
        )
        (pin bidirectional line (at -20.32 0 0) (length 5.08)
          (name "AUX_DA" (effects (font (size 1.016 1.016))))
          (number "21" (effects (font (size 1.016 1.016))))
        )
        (pin input line (at -20.32 15.24 0) (length 5.08)
          (name "~{CS}" (effects (font (size 1.016 1.016))))
          (number "22" (effects (font (size 1.016 1.016))))
        )
        (pin input clock (at -20.32 8.89 0) (length 5.08)
          (name "SCL/SCLK" (effects (font (size 1.016 1.016))))
          (number "23" (effects (font (size 1.016 1.016))))
        )
        (pin bidirectional line (at -20.32 6.35 0) (length 5.08)
          (name "SDA/SDI" (effects (font (size 1.016 1.016))))
          (number "24" (effects (font (size 1.016 1.016))))
        )
        (pin no_connect line (at 20.32 -5.08 180) (length 5.08)
          (name "NC" (effects (font (size 1.016 1.016))))
          (number "3" (effects (font (size 1.016 1.016))))
        )
        (pin no_connect line (at 20.32 -7.62 180) (length 5.08)
          (name "NC" (effects (font (size 1.016 1.016))))
          (number "4" (effects (font (size 1.016 1.016))))
        )
        (pin no_connect line (at 20.32 -10.16 180) (length 5.08)
          (name "NC" (effects (font (size 1.016 1.016))))
          (number "5" (effects (font (size 1.016 1.016))))
        )
        (pin no_connect line (at 20.32 -12.7 180) (length 5.08)
          (name "NC" (effects (font (size 1.016 1.016))))
          (number "6" (effects (font (size 1.016 1.016))))
        )
        (pin input clock (at -20.32 2.54 0) (length 5.08)
          (name "AUX_CL" (effects (font (size 1.016 1.016))))
          (number "7" (effects (font (size 1.016 1.016))))
        )
        (pin power_in line (at 20.32 12.7 180) (length 5.08)
          (name "VDDIO" (effects (font (size 1.016 1.016))))
          (number "8" (effects (font (size 1.016 1.016))))
        )
        (pin bidirectional line (at -20.32 12.7 0) (length 5.08)
          (name "AD0/SDO" (effects (font (size 1.016 1.016))))
          (number "9" (effects (font (size 1.016 1.016))))
        )
      )
    )
    (symbol "power:+1V8" (power) (pin_names (offset 0)) (in_bom yes) (on_board yes)
      (property "Reference" "#PWR" (id 0) (at 0 -3.81 0)
        (effects (font (size 1.27 1.27)) hide)
      )
      (property "Value" "+1V8" (id 1) (at 0 3.556 0)
        (effects (font (size 1.27 1.27)))
      )
      (property "Footprint" "" (id 2) (at 0 0 0)
        (effects (font (size 1.27 1.27)) hide)
      )
      (property "Datasheet" "" (id 3) (at 0 0 0)
        (effects (font (size 1.27 1.27)) hide)
      )
      (property "ki_keywords" "power-flag" (id 4) (at 0 0 0)
        (effects (font (size 1.27 1.27)) hide)
      )
      (property "ki_description" "Power symbol creates a global label with name \"+1V8\"" (id 5) (at 0 0 0)
        (effects (font (size 1.27 1.27)) hide)
      )
      (symbol "+1V8_0_1"
        (polyline
          (pts
            (xy -0.762 1.27)
            (xy 0 2.54)
          )
          (stroke (width 0) (type default) (color 0 0 0 0))
          (fill (type none))
        )
        (polyline
          (pts
            (xy 0 0)
            (xy 0 2.54)
          )
          (stroke (width 0) (type default) (color 0 0 0 0))
          (fill (type none))
        )
        (polyline
          (pts
            (xy 0 2.54)
            (xy 0.762 1.27)
          )
          (stroke (width 0) (type default) (color 0 0 0 0))
          (fill (type none))
        )
      )
      (symbol "+1V8_1_1"
        (pin power_in line (at 0 0 90) (length 0) hide
          (name "+1V8" (effects (font (size 1.27 1.27))))
          (number "1" (effects (font (size 1.27 1.27))))
        )
      )
    )
    (symbol "power:+3.3V" (power) (pin_names (offset 0)) (in_bom yes) (on_board yes)
      (property "Reference" "#PWR" (id 0) (at 0 -3.81 0)
        (effects (font (size 1.27 1.27)) hide)
      )
      (property "Value" "+3.3V" (id 1) (at 0 3.556 0)
        (effects (font (size 1.27 1.27)))
      )
      (property "Footprint" "" (id 2) (at 0 0 0)
        (effects (font (size 1.27 1.27)) hide)
      )
      (property "Datasheet" "" (id 3) (at 0 0 0)
        (effects (font (size 1.27 1.27)) hide)
      )
      (property "ki_keywords" "power-flag" (id 4) (at 0 0 0)
        (effects (font (size 1.27 1.27)) hide)
      )
      (property "ki_description" "Power symbol creates a global label with name \"+3.3V\"" (id 5) (at 0 0 0)
        (effects (font (size 1.27 1.27)) hide)
      )
      (symbol "+3.3V_0_1"
        (polyline
          (pts
            (xy -0.762 1.27)
            (xy 0 2.54)
          )
          (stroke (width 0) (type default) (color 0 0 0 0))
          (fill (type none))
        )
        (polyline
          (pts
            (xy 0 0)
            (xy 0 2.54)
          )
          (stroke (width 0) (type default) (color 0 0 0 0))
          (fill (type none))
        )
        (polyline
          (pts
            (xy 0 2.54)
            (xy 0.762 1.27)
          )
          (stroke (width 0) (type default) (color 0 0 0 0))
          (fill (type none))
        )
      )
      (symbol "+3.3V_1_1"
        (pin power_in line (at 0 0 90) (length 0) hide
          (name "+3V3" (effects (font (size 1.27 1.27))))
          (number "1" (effects (font (size 1.27 1.27))))
        )
      )
    )
    (symbol "power:GND" (power) (pin_names (offset 0)) (in_bom yes) (on_board yes)
      (property "Reference" "#PWR" (id 0) (at 0 -6.35 0)
        (effects (font (size 1.27 1.27)) hide)
      )
      (property "Value" "GND" (id 1) (at 0 -3.81 0)
        (effects (font (size 1.27 1.27)))
      )
      (property "Footprint" "" (id 2) (at 0 0 0)
        (effects (font (size 1.27 1.27)) hide)
      )
      (property "Datasheet" "" (id 3) (at 0 0 0)
        (effects (font (size 1.27 1.27)) hide)
      )
      (property "ki_keywords" "power-flag" (id 4) (at 0 0 0)
        (effects (font (size 1.27 1.27)) hide)
      )
      (property "ki_description" "Power symbol creates a global label with name \"GND\" , ground" (id 5) (at 0 0 0)
        (effects (font (size 1.27 1.27)) hide)
      )
      (symbol "GND_0_1"
        (polyline
          (pts
            (xy 0 0)
            (xy 0 -1.27)
            (xy 1.27 -1.27)
            (xy 0 -2.54)
            (xy -1.27 -1.27)
            (xy 0 -1.27)
          )
          (stroke (width 0) (type default) (color 0 0 0 0))
          (fill (type none))
        )
      )
      (symbol "GND_1_1"
        (pin power_in line (at 0 0 270) (length 0) hide
          (name "GND" (effects (font (size 1.27 1.27))))
          (number "1" (effects (font (size 1.27 1.27))))
        )
      )
    )
    (symbol "roket-rescue:Cap-805_cap" (pin_names (offset 1.016) hide) (in_bom yes) (on_board yes)
      (property "Reference" "C" (id 0) (at 0 3.81 0)
        (effects (font (size 1.27 1.27)) (justify left bottom))
      )
      (property "Value" "Cap-805_cap" (id 1) (at 0 -5.08 0)
        (effects (font (size 1.27 1.27)) (justify left bottom))
      )
      (property "Footprint" "CAPC2012X135N" (id 2) (at 0 0 0)
        (effects (font (size 1.27 1.27)) (justify left bottom) hide)
      )
      (property "Datasheet" "" (id 3) (at 0 0 0)
        (effects (font (size 1.27 1.27)) (justify left bottom) hide)
      )
      (property "ki_locked" "" (id 4) (at 0 0 0)
        (effects (font (size 1.27 1.27)))
      )
      (symbol "Cap-805_cap_0_0"
        (rectangle (start 0 -1.905) (end 0.635 1.905)
          (stroke (width 0) (type default) (color 0 0 0 0))
          (fill (type outline))
        )
        (rectangle (start 1.905 -1.905) (end 2.54 1.905)
          (stroke (width 0) (type default) (color 0 0 0 0))
          (fill (type outline))
        )
        (pin passive line (at 5.08 0 180) (length 2.54)
          (name "~" (effects (font (size 1.016 1.016))))
          (number "1" (effects (font (size 1.016 1.016))))
        )
        (pin passive line (at -2.54 0 0) (length 2.54)
          (name "~" (effects (font (size 1.016 1.016))))
          (number "2" (effects (font (size 1.016 1.016))))
        )
      )
    )
  )

  (junction (at 139.7 107.95) (diameter 0) (color 0 0 0 0)
    (uuid 6ffddf85-1931-4777-ae3b-ace62e65cf24)
  )
  (junction (at 199.39 76.2) (diameter 0) (color 0 0 0 0)
    (uuid 9577a02c-ea45-48cc-a503-8a1757c7dcc3)
  )
  (junction (at 139.7 105.41) (diameter 0) (color 0 0 0 0)
    (uuid ed907d86-2320-41a1-9289-c657959bbf67)
  )

  (no_connect (at 140.97 88.9) (uuid 6bbca1c2-6bc6-49db-9671-268d75d152b3))
  (no_connect (at 140.97 91.44) (uuid 6bbca1c2-6bc6-49db-9671-268d75d152b4))
  (no_connect (at 181.61 88.9) (uuid 6bbca1c2-6bc6-49db-9671-268d75d152b6))
  (no_connect (at 181.61 86.36) (uuid 6bbca1c2-6bc6-49db-9671-268d75d152b7))

  (wire (pts (xy 199.39 74.93) (xy 199.39 76.2))
    (stroke (width 0) (type default) (color 0 0 0 0))
    (uuid 5b4720b9-032e-439f-adbe-59f2662594a0)
  )
  (wire (pts (xy 190.5 82.55) (xy 190.5 86.36))
    (stroke (width 0) (type default) (color 0 0 0 0))
    (uuid 62b475c8-f56a-4819-a6be-8f0a1ecc8441)
  )
  (wire (pts (xy 140.97 107.95) (xy 139.7 107.95))
    (stroke (width 0) (type default) (color 0 0 0 0))
    (uuid 70a30e5d-904c-4417-990a-0ab3be5b8921)
  )
  (wire (pts (xy 199.39 86.36) (xy 199.39 85.09))
    (stroke (width 0) (type default) (color 0 0 0 0))
    (uuid 7e822440-1520-48c8-9d0c-b268350eafce)
  )
  (wire (pts (xy 140.97 105.41) (xy 139.7 105.41))
    (stroke (width 0) (type default) (color 0 0 0 0))
    (uuid 84d5d520-5e24-4339-a86f-5afd3e984423)
  )
  (wire (pts (xy 213.36 86.36) (xy 213.36 85.09))
    (stroke (width 0) (type default) (color 0 0 0 0))
    (uuid 95eaa164-b2f2-456a-b4e0-5b30a4ba949f)
  )
  (wire (pts (xy 190.5 95.25) (xy 190.5 93.98))
    (stroke (width 0) (type default) (color 0 0 0 0))
    (uuid 9b8604c6-25a9-4a51-b792-035420403c55)
  )
  (wire (pts (xy 181.61 76.2) (xy 199.39 76.2))
    (stroke (width 0) (type default) (color 0 0 0 0))
    (uuid aa750c59-9508-45f8-9286-b5cc61703354)
  )
  (wire (pts (xy 139.7 105.41) (xy 139.7 93.98))
    (stroke (width 0) (type default) (color 0 0 0 0))
    (uuid bba48047-4df3-41ed-ac2b-baf152fd60dc)
  )
  (wire (pts (xy 181.61 82.55) (xy 190.5 82.55))
    (stroke (width 0) (type default) (color 0 0 0 0))
    (uuid c8817ace-8995-44c6-b841-b86320268705)
  )
  (wire (pts (xy 199.39 76.2) (xy 199.39 77.47))
    (stroke (width 0) (type default) (color 0 0 0 0))
    (uuid cabcf5e8-126f-42c3-b480-005f9853dca4)
  )
  (wire (pts (xy 139.7 105.41) (xy 139.7 107.95))
    (stroke (width 0) (type default) (color 0 0 0 0))
    (uuid dc30daca-c840-4fd0-beb9-bf996593cc1f)
  )
  (wire (pts (xy 181.61 78.74) (xy 184.15 78.74))
    (stroke (width 0) (type default) (color 0 0 0 0))
    (uuid e0dc5bd9-70ed-4f7c-aa8c-7d536f780f6f)
  )
  (wire (pts (xy 213.36 76.2) (xy 213.36 77.47))
    (stroke (width 0) (type default) (color 0 0 0 0))
    (uuid e3c0a8b0-7c96-4699-8ec6-00316f529712)
  )
  (wire (pts (xy 139.7 93.98) (xy 140.97 93.98))
    (stroke (width 0) (type default) (color 0 0 0 0))
    (uuid fc79c26b-aed6-4661-b60e-ae39129c3fa3)
  )
  (wire (pts (xy 139.7 107.95) (xy 139.7 110.49))
    (stroke (width 0) (type default) (color 0 0 0 0))
    (uuid ffc018af-ade4-4519-807d-0355222f221a)
  )

  (hierarchical_label "SCLK" (shape input) (at 140.97 82.55 180)
    (effects (font (size 1.27 1.27)) (justify right))
    (uuid 094da4f3-b6e5-41c9-a7d2-9270796c3003)
  )
  (hierarchical_label "MISO" (shape input) (at 140.97 78.74 180)
    (effects (font (size 1.27 1.27)) (justify right))
    (uuid 344d6075-c2a7-490e-8fe1-7804e771e777)
  )
  (hierarchical_label "MOSI" (shape input) (at 140.97 85.09 180)
    (effects (font (size 1.27 1.27)) (justify right))
    (uuid 5d2d58f1-2c17-434a-939f-eb9d6c62defd)
  )
  (hierarchical_label "CS" (shape input) (at 140.97 76.2 180)
    (effects (font (size 1.27 1.27)) (justify right))
    (uuid d521bc21-55b0-4c9e-abcf-d46acfd7ae73)
  )

  (symbol (lib_id "power:+3.3V") (at 199.39 74.93 0) (unit 1)
    (in_bom yes) (on_board yes)
    (uuid 081e1f1a-9ec6-4cad-9c28-7e8ed9ca3dd0)
    (property "Reference" "#PWR0101" (id 0) (at 199.39 78.74 0)
      (effects (font (size 1.27 1.27)) hide)
    )
    (property "Value" "+3.3V" (id 1) (at 199.39 71.12 0))
    (property "Footprint" "" (id 2) (at 199.39 74.93 0)
      (effects (font (size 1.27 1.27)) hide)
    )
    (property "Datasheet" "" (id 3) (at 199.39 74.93 0)
      (effects (font (size 1.27 1.27)) hide)
    )
    (pin "1" (uuid 55172e75-2686-4029-a474-caee6aa072d5))
  )

  (symbol (lib_id "roket-rescue:Cap-805_cap") (at 199.39 80.01 270) (unit 1)
    (in_bom yes) (on_board yes)
    (uuid 0a8da77a-1e88-488a-af29-59821d96c550)
    (property "Reference" "C20" (id 0) (at 202.0062 80.1116 90)
      (effects (font (size 1.27 1.27)) (justify left))
    )
    (property "Value" "0.1uF" (id 1) (at 202.0062 82.423 90)
      (effects (font (size 1.27 1.27)) (justify left))
    )
    (property "Footprint" "Capacitor_SMD:C_0805_2012Metric" (id 2) (at 199.39 80.01 0)
      (effects (font (size 1.27 1.27)) (justify left bottom) hide)
    )
    (property "Datasheet" "" (id 3) (at 199.39 80.01 0)
      (effects (font (size 1.27 1.27)) (justify left bottom) hide)
    )
    (pin "1" (uuid 45b9315a-034a-4097-81c9-20bb892e8f10))
    (pin "2" (uuid 14c477d1-b3f5-4828-9350-ac0b3b4e4418))
  )

  (symbol (lib_id "power:+1V8") (at 213.36 76.2 0) (unit 1)
    (in_bom yes) (on_board yes)
    (uuid 17f88190-02a7-453e-ac51-d3eb41ca24d3)
    (property "Reference" "#PWR0107" (id 0) (at 213.36 80.01 0)
      (effects (font (size 1.27 1.27)) hide)
    )
    (property "Value" "+1V8" (id 1) (at 210.82 72.39 0)
      (effects (font (size 1.27 1.27)) (justify left))
    )
    (property "Footprint" "" (id 2) (at 213.36 76.2 0)
      (effects (font (size 1.27 1.27)) hide)
    )
    (property "Datasheet" "" (id 3) (at 213.36 76.2 0)
      (effects (font (size 1.27 1.27)) hide)
    )
    (pin "1" (uuid 7c8914de-c925-4075-b5b8-1ed116b0d291))
  )

  (symbol (lib_id "power:GND") (at 139.7 110.49 0) (unit 1)
    (in_bom yes) (on_board yes)
    (uuid 1bb6ab98-abb7-40dc-b6fc-67d8c538bb42)
    (property "Reference" "#PWR0106" (id 0) (at 139.7 116.84 0)
      (effects (font (size 1.27 1.27)) hide)
    )
    (property "Value" "GND" (id 1) (at 139.827 114.8842 0))
    (property "Footprint" "" (id 2) (at 139.7 110.49 0)
      (effects (font (size 1.27 1.27)) hide)
    )
    (property "Datasheet" "" (id 3) (at 139.7 110.49 0)
      (effects (font (size 1.27 1.27)) hide)
    )
    (pin "1" (uuid d8cbf9fa-8768-4d04-96fb-cbcb066c36b9))
  )

  (symbol (lib_id "power:+1V8") (at 184.15 78.74 270) (unit 1)
    (in_bom yes) (on_board yes) (fields_autoplaced)
    (uuid 253251ba-65c7-4cd6-a6ec-a3ecd33b1c86)
    (property "Reference" "#PWR0110" (id 0) (at 180.34 78.74 0)
      (effects (font (size 1.27 1.27)) hide)
    )
    (property "Value" "+1V8" (id 1) (at 187.325 79.219 90)
      (effects (font (size 1.27 1.27)) (justify left))
    )
    (property "Footprint" "" (id 2) (at 184.15 78.74 0)
      (effects (font (size 1.27 1.27)) hide)
    )
    (property "Datasheet" "" (id 3) (at 184.15 78.74 0)
      (effects (font (size 1.27 1.27)) hide)
    )
    (pin "1" (uuid b2584a21-aa11-4d0b-b4f3-8584c3bc3b5f))
  )

  (symbol (lib_id "power:GND") (at 213.36 86.36 0) (unit 1)
    (in_bom yes) (on_board yes)
    (uuid 38c41758-e9e6-409b-bacf-cddf1d85db7b)
    (property "Reference" "#PWR0113" (id 0) (at 213.36 92.71 0)
      (effects (font (size 1.27 1.27)) hide)
    )
    (property "Value" "GND" (id 1) (at 213.487 90.7542 0))
    (property "Footprint" "" (id 2) (at 213.36 86.36 0)
      (effects (font (size 1.27 1.27)) hide)
    )
    (property "Datasheet" "" (id 3) (at 213.36 86.36 0)
      (effects (font (size 1.27 1.27)) hide)
    )
    (pin "1" (uuid e8d0147c-100f-4d70-a178-a4d4f5cf26d5))
  )

  (symbol (lib_id "power:GND") (at 190.5 95.25 0) (mirror y) (unit 1)
    (in_bom yes) (on_board yes)
    (uuid 851b32c9-5dcf-4baf-b10e-f1b1cb643c8a)
    (property "Reference" "#PWR0108" (id 0) (at 190.5 101.6 0)
      (effects (font (size 1.27 1.27)) hide)
    )
    (property "Value" "GND" (id 1) (at 190.373 99.6442 0))
    (property "Footprint" "" (id 2) (at 190.5 95.25 0)
      (effects (font (size 1.27 1.27)) hide)
    )
    (property "Datasheet" "" (id 3) (at 190.5 95.25 0)
      (effects (font (size 1.27 1.27)) hide)
    )
    (pin "1" (uuid bb552a7f-bf67-44e1-abd2-3b81e38d350b))
  )

  (symbol (lib_id "roket-rescue:Cap-805_cap") (at 213.36 80.01 270) (unit 1)
    (in_bom yes) (on_board yes)
    (uuid 97f54e65-6ffe-4dbb-8897-4569dbef39d3)
    (property "Reference" "C19" (id 0) (at 215.9762 80.1116 90)
      (effects (font (size 1.27 1.27)) (justify left))
    )
    (property "Value" "0.1uF" (id 1) (at 215.9762 82.423 90)
      (effects (font (size 1.27 1.27)) (justify left))
    )
    (property "Footprint" "Capacitor_SMD:C_0805_2012Metric" (id 2) (at 213.36 80.01 0)
      (effects (font (size 1.27 1.27)) (justify left bottom) hide)
    )
    (property "Datasheet" "" (id 3) (at 213.36 80.01 0)
      (effects (font (size 1.27 1.27)) (justify left bottom) hide)
    )
    (pin "1" (uuid be087a6e-a90c-4a56-b819-25571d1d36dd))
    (pin "2" (uuid 10bdf757-ce01-48c2-8c3f-b1102cf9a41c))
  )

  (symbol (lib_id "roket-rescue:Cap-805_cap") (at 190.5 88.9 90) (mirror x) (unit 1)
    (in_bom yes) (on_board yes)
    (uuid a51f6d0e-de46-4c3e-bb92-8cc37da27525)
    (property "Reference" "C18" (id 0) (at 187.8838 89.0016 90)
      (effects (font (size 1.27 1.27)) (justify left))
    )
    (property "Value" "0.1uF" (id 1) (at 187.8838 91.313 90)
      (effects (font (size 1.27 1.27)) (justify left))
    )
    (property "Footprint" "Capacitor_SMD:C_0805_2012Metric" (id 2) (at 190.5 88.9 0)
      (effects (font (size 1.27 1.27)) (justify left bottom) hide)
    )
    (property "Datasheet" "" (id 3) (at 190.5 88.9 0)
      (effects (font (size 1.27 1.27)) (justify left bottom) hide)
    )
    (pin "1" (uuid c7cc65ad-80ea-42d9-9ec9-ef6f9b46909f))
    (pin "2" (uuid b7a1da4f-c21a-4ea3-b860-230fe220476d))
  )

  (symbol (lib_id "power:GND") (at 199.39 86.36 0) (unit 1)
    (in_bom yes) (on_board yes)
    (uuid ba905990-9630-4764-907a-00156854292a)
    (property "Reference" "#PWR0105" (id 0) (at 199.39 92.71 0)
      (effects (font (size 1.27 1.27)) hide)
    )
    (property "Value" "GND" (id 1) (at 199.517 90.7542 0))
    (property "Footprint" "" (id 2) (at 199.39 86.36 0)
      (effects (font (size 1.27 1.27)) hide)
    )
    (property "Datasheet" "" (id 3) (at 199.39 86.36 0)
      (effects (font (size 1.27 1.27)) hide)
    )
    (pin "1" (uuid 3b7ed7db-8a4e-49bb-b341-1ad14e6f4124))
  )

  (symbol (lib_id "ICM-20948:ICM-20948") (at 161.29 91.44 0) (unit 1)
    (in_bom yes) (on_board yes) (fields_autoplaced)
    (uuid d97cb9e5-e1de-4528-aee5-e0e31141e6d5)
    (property "Reference" "U8" (id 0) (at 161.29 69.6935 0))
    (property "Value" "ICM-20948" (id 1) (at 161.29 72.4686 0))
    (property "Footprint" "Package_DFN_QFN:QFN-24-1EP_3x3mm_P0.4mm_EP1.75x1.6mm" (id 2) (at 161.29 88.9 0)
      (effects (font (size 1.27 1.27)) (justify left bottom) hide)
    )
    (property "Datasheet" "" (id 3) (at 161.29 91.44 0)
      (effects (font (size 1.27 1.27)) (justify left bottom) hide)
    )
    (property "MAXIMUM_PACKAGE_HEIGHT" "1.05 mm" (id 4) (at 161.29 91.44 0)
      (effects (font (size 1.27 1.27)) (justify left bottom) hide)
    )
    (property "STANDARD" "IPC 7351B" (id 5) (at 161.29 91.44 0)
      (effects (font (size 1.27 1.27)) (justify left bottom) hide)
    )
    (property "MANUFACTURER" "TDK InvenSense" (id 6) (at 161.29 91.44 0)
      (effects (font (size 1.27 1.27)) (justify left bottom) hide)
    )
    (property "PARTREV" "1.3" (id 7) (at 161.29 91.44 0)
      (effects (font (size 1.27 1.27)) (justify left bottom) hide)
    )
    (pin "1" (uuid facb326d-f536-4420-8c25-620402cb00da))
    (pin "10" (uuid 85e5ba4e-27c5-4953-97da-30453358411c))
    (pin "11" (uuid 466502de-6b33-43dd-979c-d2b77f804196))
    (pin "12" (uuid 3eeddd3a-9a95-4683-a914-5c508db430a3))
    (pin "13" (uuid 3912a0fa-daac-4ee7-a844-09f149496e38))
    (pin "14" (uuid fb19e5c5-3acf-4ea1-afa6-c5d46f40644d))
    (pin "15" (uuid 8fd1450e-ea75-4d52-965c-6c240f70223d))
    (pin "16" (uuid 5afe1881-ef0d-47e0-8150-9eacf02489e8))
    (pin "17" (uuid 656b042d-303f-4221-8f97-e16356b26f03))
    (pin "18" (uuid 63e820eb-0663-4109-8e84-5af6c1fc907b))
    (pin "19" (uuid 584394c2-ba17-43e3-8201-b01256ad2a0e))
    (pin "2" (uuid 4a794a6c-2999-494a-8e8f-8c2da759703b))
    (pin "20" (uuid fd139142-05da-4c50-8a33-ae6a9be8379b))
    (pin "21" (uuid 04f08b3b-9cdb-4c32-9518-cb2b93f4877b))
    (pin "22" (uuid 0150466f-ce29-4592-90c4-9b392099c1dd))
    (pin "23" (uuid b81289f2-27cf-4233-b1fc-a46009c0e108))
    (pin "24" (uuid cc5cfc5b-07f7-4d97-89c7-bcfdfbae9ca7))
    (pin "3" (uuid 8bcf6e53-34b2-4037-af92-6fe4b43c7b40))
    (pin "4" (uuid 7883b55e-a470-4788-8dc6-9d00271e750b))
    (pin "5" (uuid bb8accc2-7fc6-4ae1-8ce2-396db33598fe))
    (pin "6" (uuid 6d055421-2d78-4e6e-a357-1cdaa124e7ac))
    (pin "7" (uuid e61c7578-28ab-439b-b249-5303c0f3bbca))
    (pin "8" (uuid c61b62f0-0adc-4230-9006-9b609c54ab78))
    (pin "9" (uuid 101106de-7571-4edf-8239-74dfc5e0968e))
  )
)
