(kicad_sch (version 20211123) (generator eeschema)

  (uuid 895d27b1-dd61-4b4c-802a-bcfa9d04a91f)

  (paper "A4")

  (lib_symbols
    (symbol "PCA9539BS_118:PCA9539BS,118" (pin_names (offset 1.016)) (in_bom yes) (on_board yes)
      (property "Reference" "U" (id 0) (at -4.9784 30.7848 0)
        (effects (font (size 1.27 1.27)) (justify left bottom))
      )
      (property "Value" "PCA9539BS,118" (id 1) (at -5.8674 -37.5666 0)
        (effects (font (size 1.27 1.27)) (justify left bottom))
      )
      (property "Footprint" "QFN50P400X400X100-25N" (id 2) (at 0 0 0)
        (effects (font (size 1.27 1.27)) (justify left bottom) hide)
      )
      (property "Datasheet" "" (id 3) (at 0 0 0)
        (effects (font (size 1.27 1.27)) (justify left bottom) hide)
      )
      (property "PACKAGE" "HVQFN-24" (id 4) (at 0 0 0)
        (effects (font (size 1.27 1.27)) (justify left bottom) hide)
      )
      (property "SUPPLIER" "NXP" (id 5) (at 0 0 0)
        (effects (font (size 1.27 1.27)) (justify left bottom) hide)
      )
      (property "OC_FARNELL" "-" (id 6) (at 0 0 0)
        (effects (font (size 1.27 1.27)) (justify left bottom) hide)
      )
      (property "OC_NEWARK" "70R6553" (id 7) (at 0 0 0)
        (effects (font (size 1.27 1.27)) (justify left bottom) hide)
      )
      (property "MPN" "PCA9539BS,118" (id 8) (at 0 0 0)
        (effects (font (size 1.27 1.27)) (justify left bottom) hide)
      )
      (property "ki_locked" "" (id 9) (at 0 0 0)
        (effects (font (size 1.27 1.27)))
      )
      (symbol "PCA9539BS,118_0_0"
        (rectangle (start -12.7 -33.02) (end 12.7 27.94)
          (stroke (width 0.4064) (type default) (color 0 0 0 0))
          (fill (type background))
        )
        (pin bidirectional line (at 17.78 -22.86 180) (length 5.08)
          (name "IO0_0" (effects (font (size 1.016 1.016))))
          (number "1" (effects (font (size 1.016 1.016))))
        )
        (pin bidirectional line (at 17.78 22.86 180) (length 5.08)
          (name "IO1_0" (effects (font (size 1.016 1.016))))
          (number "10" (effects (font (size 1.016 1.016))))
        )
        (pin bidirectional line (at 17.78 20.32 180) (length 5.08)
          (name "IO1_1" (effects (font (size 1.016 1.016))))
          (number "11" (effects (font (size 1.016 1.016))))
        )
        (pin bidirectional line (at 17.78 17.78 180) (length 5.08)
          (name "IO1_2" (effects (font (size 1.016 1.016))))
          (number "12" (effects (font (size 1.016 1.016))))
        )
        (pin bidirectional line (at 17.78 15.24 180) (length 5.08)
          (name "IO1_3" (effects (font (size 1.016 1.016))))
          (number "13" (effects (font (size 1.016 1.016))))
        )
        (pin bidirectional line (at 17.78 12.7 180) (length 5.08)
          (name "IO1_4" (effects (font (size 1.016 1.016))))
          (number "14" (effects (font (size 1.016 1.016))))
        )
        (pin bidirectional line (at 17.78 10.16 180) (length 5.08)
          (name "IO1_5" (effects (font (size 1.016 1.016))))
          (number "15" (effects (font (size 1.016 1.016))))
        )
        (pin bidirectional line (at 17.78 7.62 180) (length 5.08)
          (name "IO1_6" (effects (font (size 1.016 1.016))))
          (number "16" (effects (font (size 1.016 1.016))))
        )
        (pin bidirectional line (at 17.78 5.08 180) (length 5.08)
          (name "IO1_7" (effects (font (size 1.016 1.016))))
          (number "17" (effects (font (size 1.016 1.016))))
        )
        (pin input line (at -17.78 12.7 0) (length 5.08)
          (name "A0" (effects (font (size 1.016 1.016))))
          (number "18" (effects (font (size 1.016 1.016))))
        )
        (pin input line (at -17.78 -1.27 0) (length 5.08)
          (name "SCL" (effects (font (size 1.016 1.016))))
          (number "19" (effects (font (size 1.016 1.016))))
        )
        (pin bidirectional line (at 17.78 -20.32 180) (length 5.08)
          (name "IO0_1" (effects (font (size 1.016 1.016))))
          (number "2" (effects (font (size 1.016 1.016))))
        )
        (pin bidirectional line (at -17.78 -3.81 0) (length 5.08)
          (name "SDA" (effects (font (size 1.016 1.016))))
          (number "20" (effects (font (size 1.016 1.016))))
        )
        (pin power_in line (at -17.78 22.86 0) (length 5.08)
          (name "VDD" (effects (font (size 1.016 1.016))))
          (number "21" (effects (font (size 1.016 1.016))))
        )
        (pin output line (at 17.78 0 180) (length 5.08)
          (name "~{INT}" (effects (font (size 1.016 1.016))))
          (number "22" (effects (font (size 1.016 1.016))))
        )
        (pin input line (at -17.78 10.16 0) (length 5.08)
          (name "A1" (effects (font (size 1.016 1.016))))
          (number "23" (effects (font (size 1.016 1.016))))
        )
        (pin input line (at -17.78 20.32 0) (length 5.08)
          (name "~{RESET}" (effects (font (size 1.016 1.016))))
          (number "24" (effects (font (size 1.016 1.016))))
        )
        (pin passive line (at -17.78 -22.86 0) (length 5.08)
          (name "EP" (effects (font (size 1.016 1.016))))
          (number "25" (effects (font (size 1.016 1.016))))
        )
        (pin bidirectional line (at 17.78 -17.78 180) (length 5.08)
          (name "IO0_2" (effects (font (size 1.016 1.016))))
          (number "3" (effects (font (size 1.016 1.016))))
        )
        (pin bidirectional line (at 17.78 -15.24 180) (length 5.08)
          (name "IO0_3" (effects (font (size 1.016 1.016))))
          (number "4" (effects (font (size 1.016 1.016))))
        )
        (pin bidirectional line (at 17.78 -12.7 180) (length 5.08)
          (name "IO0_4" (effects (font (size 1.016 1.016))))
          (number "5" (effects (font (size 1.016 1.016))))
        )
        (pin bidirectional line (at 17.78 -10.16 180) (length 5.08)
          (name "IO0_5" (effects (font (size 1.016 1.016))))
          (number "6" (effects (font (size 1.016 1.016))))
        )
        (pin bidirectional line (at 17.78 -7.62 180) (length 5.08)
          (name "IO0_6" (effects (font (size 1.016 1.016))))
          (number "7" (effects (font (size 1.016 1.016))))
        )
        (pin bidirectional line (at 17.78 -5.08 180) (length 5.08)
          (name "IO0_7" (effects (font (size 1.016 1.016))))
          (number "8" (effects (font (size 1.016 1.016))))
        )
        (pin passive line (at -17.78 -27.94 0) (length 5.08)
          (name "VSS" (effects (font (size 1.016 1.016))))
          (number "9" (effects (font (size 1.016 1.016))))
        )
      )
    )
    (symbol "power:+3.3V" (power) (pin_names (offset 0)) (in_bom yes) (on_board yes)
      (property "Reference" "#PWR" (id 0) (at 0 -3.81 0)
        (effects (font (size 1.27 1.27)) hide)
      )
      (property "Value" "+3.3V" (id 1) (at 0 3.556 0)
        (effects (font (size 1.27 1.27)))
      )
      (property "Footprint" "" (id 2) (at 0 0 0)
        (effects (font (size 1.27 1.27)) hide)
      )
      (property "Datasheet" "" (id 3) (at 0 0 0)
        (effects (font (size 1.27 1.27)) hide)
      )
      (property "ki_keywords" "power-flag" (id 4) (at 0 0 0)
        (effects (font (size 1.27 1.27)) hide)
      )
      (property "ki_description" "Power symbol creates a global label with name \"+3.3V\"" (id 5) (at 0 0 0)
        (effects (font (size 1.27 1.27)) hide)
      )
      (symbol "+3.3V_0_1"
        (polyline
          (pts
            (xy -0.762 1.27)
            (xy 0 2.54)
          )
          (stroke (width 0) (type default) (color 0 0 0 0))
          (fill (type none))
        )
        (polyline
          (pts
            (xy 0 0)
            (xy 0 2.54)
          )
          (stroke (width 0) (type default) (color 0 0 0 0))
          (fill (type none))
        )
        (polyline
          (pts
            (xy 0 2.54)
            (xy 0.762 1.27)
          )
          (stroke (width 0) (type default) (color 0 0 0 0))
          (fill (type none))
        )
      )
      (symbol "+3.3V_1_1"
        (pin power_in line (at 0 0 90) (length 0) hide
          (name "+3V3" (effects (font (size 1.27 1.27))))
          (number "1" (effects (font (size 1.27 1.27))))
        )
      )
    )
    (symbol "power:GND" (power) (pin_names (offset 0)) (in_bom yes) (on_board yes)
      (property "Reference" "#PWR" (id 0) (at 0 -6.35 0)
        (effects (font (size 1.27 1.27)) hide)
      )
      (property "Value" "GND" (id 1) (at 0 -3.81 0)
        (effects (font (size 1.27 1.27)))
      )
      (property "Footprint" "" (id 2) (at 0 0 0)
        (effects (font (size 1.27 1.27)) hide)
      )
      (property "Datasheet" "" (id 3) (at 0 0 0)
        (effects (font (size 1.27 1.27)) hide)
      )
      (property "ki_keywords" "power-flag" (id 4) (at 0 0 0)
        (effects (font (size 1.27 1.27)) hide)
      )
      (property "ki_description" "Power symbol creates a global label with name \"GND\" , ground" (id 5) (at 0 0 0)
        (effects (font (size 1.27 1.27)) hide)
      )
      (symbol "GND_0_1"
        (polyline
          (pts
            (xy 0 0)
            (xy 0 -1.27)
            (xy 1.27 -1.27)
            (xy 0 -2.54)
            (xy -1.27 -1.27)
            (xy 0 -1.27)
          )
          (stroke (width 0) (type default) (color 0 0 0 0))
          (fill (type none))
        )
      )
      (symbol "GND_1_1"
        (pin power_in line (at 0 0 270) (length 0) hide
          (name "GND" (effects (font (size 1.27 1.27))))
          (number "1" (effects (font (size 1.27 1.27))))
        )
      )
    )
  )

  (junction (at 129.54 69.85) (diameter 0) (color 0 0 0 0)
    (uuid 84ad04b0-0f25-49a2-9058-d781a47d2670)
  )

  (wire (pts (xy 129.54 69.85) (xy 129.54 72.39))
    (stroke (width 0) (type default) (color 0 0 0 0))
    (uuid 11178317-e2ab-42c2-87e3-d0497c40ad1b)
  )
  (wire (pts (xy 129.54 82.55) (xy 129.54 83.82))
    (stroke (width 0) (type default) (color 0 0 0 0))
    (uuid 3520cc5d-77b4-40e7-818d-149d7fa79031)
  )
  (wire (pts (xy 167.64 80.01) (xy 165.1 80.01))
    (stroke (width 0) (type default) (color 0 0 0 0))
    (uuid 55790324-af45-49c9-a51b-2c0e849a960d)
  )
  (wire (pts (xy 167.64 102.87) (xy 165.1 102.87))
    (stroke (width 0) (type default) (color 0 0 0 0))
    (uuid 5ad5baab-2043-49d5-a069-b799d2fd5adf)
  )
  (wire (pts (xy 129.54 96.52) (xy 127 96.52))
    (stroke (width 0) (type default) (color 0 0 0 0))
    (uuid 5c919e62-92f7-47e5-8951-9e0aae8baf8e)
  )
  (wire (pts (xy 129.54 68.58) (xy 129.54 69.85))
    (stroke (width 0) (type default) (color 0 0 0 0))
    (uuid 6cf1d641-c7c9-4669-976e-f49b339f3d03)
  )
  (wire (pts (xy 129.54 120.65) (xy 127 120.65))
    (stroke (width 0) (type default) (color 0 0 0 0))
    (uuid 70e43ac6-615a-4362-9c2b-c393cfe6e4a1)
  )
  (wire (pts (xy 127 120.65) (xy 127 121.92))
    (stroke (width 0) (type default) (color 0 0 0 0))
    (uuid 96653d09-dc00-4a98-a312-a4d89fcbdc43)
  )
  (wire (pts (xy 127 93.98) (xy 129.54 93.98))
    (stroke (width 0) (type default) (color 0 0 0 0))
    (uuid b5ed280d-1f18-4801-a7df-355b07c3dfa1)
  )
  (wire (pts (xy 167.64 77.47) (xy 165.1 77.47))
    (stroke (width 0) (type default) (color 0 0 0 0))
    (uuid c8659389-f7ab-4a4a-8cdb-3c0cf2a58ad7)
  )
  (wire (pts (xy 167.64 105.41) (xy 165.1 105.41))
    (stroke (width 0) (type default) (color 0 0 0 0))
    (uuid f58f7f04-5594-428a-8cf8-3af8f3d7917e)
  )

  (hierarchical_label "Led2" (shape input) (at 167.64 80.01 0)
    (effects (font (size 1.27 1.27)) (justify left))
    (uuid 42c6457a-868f-4ba0-ad54-6c05a2699f7f)
  )
  (hierarchical_label "SDA" (shape input) (at 127 96.52 180)
    (effects (font (size 1.27 1.27)) (justify right))
    (uuid 67dc5105-97b7-46ce-81ae-14fc06c4d147)
  )
  (hierarchical_label "Led1" (shape input) (at 167.64 77.47 0)
    (effects (font (size 1.27 1.27)) (justify left))
    (uuid 6c7c392c-7744-4996-b5de-7c1182ecd052)
  )
  (hierarchical_label "SCL" (shape input) (at 127 93.98 180)
    (effects (font (size 1.27 1.27)) (justify right))
    (uuid ab4de7da-a830-4835-b90a-5be0088fb8dc)
  )
  (hierarchical_label "Pyro1" (shape input) (at 167.64 105.41 0)
    (effects (font (size 1.27 1.27)) (justify left))
    (uuid b7169b21-9f04-4721-8cf2-b15cef8387bd)
  )
  (hierarchical_label "Pyro2" (shape input) (at 167.64 102.87 0)
    (effects (font (size 1.27 1.27)) (justify left))
    (uuid ee408712-43e3-4e7e-b4fb-4b0068f332c1)
  )

  (symbol (lib_id "power:GND") (at 127 121.92 0) (unit 1)
    (in_bom yes) (on_board yes)
    (uuid 00000000-0000-0000-0000-000061264b89)
    (property "Reference" "#PWR074" (id 0) (at 127 128.27 0)
      (effects (font (size 1.27 1.27)) hide)
    )
    (property "Value" "GND" (id 1) (at 127.127 126.3142 0))
    (property "Footprint" "" (id 2) (at 127 121.92 0)
      (effects (font (size 1.27 1.27)) hide)
    )
    (property "Datasheet" "" (id 3) (at 127 121.92 0)
      (effects (font (size 1.27 1.27)) hide)
    )
    (pin "1" (uuid 6008df01-532d-43f7-a53e-9fb48c5411df))
  )

  (symbol (lib_id "power:+3.3V") (at 129.54 68.58 0) (unit 1)
    (in_bom yes) (on_board yes)
    (uuid 00000000-0000-0000-0000-000061266d57)
    (property "Reference" "#PWR073" (id 0) (at 129.54 72.39 0)
      (effects (font (size 1.27 1.27)) hide)
    )
    (property "Value" "+3.3V" (id 1) (at 129.921 64.1858 0))
    (property "Footprint" "" (id 2) (at 129.54 68.58 0)
      (effects (font (size 1.27 1.27)) hide)
    )
    (property "Datasheet" "" (id 3) (at 129.54 68.58 0)
      (effects (font (size 1.27 1.27)) hide)
    )
    (pin "1" (uuid 539345dc-e577-4546-a686-3305ac6266a4))
  )

  (symbol (lib_id "power:GND") (at 129.54 80.01 180) (unit 1)
    (in_bom yes) (on_board yes)
    (uuid 00000000-0000-0000-0000-000061267e80)
    (property "Reference" "#PWR075" (id 0) (at 129.54 73.66 0)
      (effects (font (size 1.27 1.27)) hide)
    )
    (property "Value" "GND" (id 1) (at 129.413 75.6158 0))
    (property "Footprint" "" (id 2) (at 129.54 80.01 0)
      (effects (font (size 1.27 1.27)) hide)
    )
    (property "Datasheet" "" (id 3) (at 129.54 80.01 0)
      (effects (font (size 1.27 1.27)) hide)
    )
    (pin "1" (uuid 5135464b-671a-4b66-a938-b183e6a70f56))
  )

  (symbol (lib_id "PCA9539BS_118:PCA9539BS,118") (at 147.32 92.71 0) (unit 1)
    (in_bom yes) (on_board yes)
    (uuid 00000000-0000-0000-0000-00006171a2f2)
    (property "Reference" "U10" (id 0) (at 147.32 60.452 0))
    (property "Value" "PCA9539BS,118" (id 1) (at 147.32 62.7634 0))
    (property "Footprint" "Package_DFN_QFN:QFN-24-1EP_4x4mm_P0.5mm_EP2.6x2.6mm" (id 2) (at 147.32 92.71 0)
      (effects (font (size 1.27 1.27)) (justify left bottom) hide)
    )
    (property "Datasheet" "" (id 3) (at 147.32 92.71 0)
      (effects (font (size 1.27 1.27)) (justify left bottom) hide)
    )
    (property "PACKAGE" "HVQFN-24" (id 4) (at 147.32 92.71 0)
      (effects (font (size 1.27 1.27)) (justify left bottom) hide)
    )
    (property "SUPPLIER" "NXP" (id 5) (at 147.32 92.71 0)
      (effects (font (size 1.27 1.27)) (justify left bottom) hide)
    )
    (property "OC_FARNELL" "-" (id 6) (at 147.32 92.71 0)
      (effects (font (size 1.27 1.27)) (justify left bottom) hide)
    )
    (property "OC_NEWARK" "70R6553" (id 7) (at 147.32 92.71 0)
      (effects (font (size 1.27 1.27)) (justify left bottom) hide)
    )
    (property "MPN" "PCA9539BS,118" (id 8) (at 147.32 92.71 0)
      (effects (font (size 1.27 1.27)) (justify left bottom) hide)
    )
    (pin "1" (uuid e11bc7ac-8291-44e7-a512-4e79888f01fe))
    (pin "10" (uuid d49f5e3e-174e-478f-be03-8d569fc31914))
    (pin "11" (uuid cf5bbfae-d6fb-4e17-8b01-b298eb6cc3ae))
    (pin "12" (uuid c04c9999-0b58-4a21-a933-2dc00da94c7e))
    (pin "13" (uuid 798fa9e3-bc93-4cac-b128-b7f6bc6d3b01))
    (pin "14" (uuid 3a2a3a4c-132a-4119-aa6b-34afa2b3d275))
    (pin "15" (uuid 9155eb44-1884-4209-bc1b-82c5179e0978))
    (pin "16" (uuid 3011315b-68c3-4daf-9f78-c631421a5348))
    (pin "17" (uuid 98879993-b9b4-438a-9cf0-8d7db81c7a1a))
    (pin "18" (uuid 61b17912-014f-444c-879d-df8c8c93fe41))
    (pin "19" (uuid 0c6253d5-13c4-4d6a-a31d-df1b208dffbe))
    (pin "2" (uuid b4aa2600-6315-4b7e-b9e1-b844ab2ebb0c))
    (pin "20" (uuid ce1faf79-8f12-4335-92dc-2435b5be630c))
    (pin "21" (uuid 6b8a691c-ee1e-42a1-8014-f9e281f946d3))
    (pin "22" (uuid d9b524ab-c71c-4b3b-85ae-8922ede6dfe0))
    (pin "23" (uuid 5c77ffc7-de78-45d6-9ec2-47c3d15f643b))
    (pin "24" (uuid 1ac034ac-acc0-4dc4-80df-9ee5484e4222))
    (pin "25" (uuid eef26c06-3502-4548-a68d-905baa9bfcc0))
    (pin "3" (uuid dfcff9e1-eb57-499b-88d2-64705256e386))
    (pin "4" (uuid f4547e04-ab08-43cf-b773-63c538507dbc))
    (pin "5" (uuid 7d5a1e71-d222-44ed-8159-0addb7c0e3ec))
    (pin "6" (uuid ad7db84c-694f-4c2c-bda1-12bc74429707))
    (pin "7" (uuid cb569b8a-9049-42df-9547-8b14a8726402))
    (pin "8" (uuid 2bade174-2aef-4987-8bfe-30e5cec87f80))
    (pin "9" (uuid d78ac4b4-3501-445b-b8a9-fc84bbfe7775))
  )

  (symbol (lib_id "power:+3.3V") (at 129.54 83.82 180) (unit 1)
    (in_bom yes) (on_board yes)
    (uuid 00000000-0000-0000-0000-0000617c19dc)
    (property "Reference" "#PWR0102" (id 0) (at 129.54 80.01 0)
      (effects (font (size 1.27 1.27)) hide)
    )
    (property "Value" "+3.3V" (id 1) (at 129.159 88.2142 0))
    (property "Footprint" "" (id 2) (at 129.54 83.82 0)
      (effects (font (size 1.27 1.27)) hide)
    )
    (property "Datasheet" "" (id 3) (at 129.54 83.82 0)
      (effects (font (size 1.27 1.27)) hide)
    )
    (pin "1" (uuid 6aacda6d-14af-42c6-b637-8b6d61eaad92))
  )
)
