(kicad_sch (version 20211123) (generator eeschema)

  (uuid 0f46dab4-e820-4a66-889b-49e965b76256)

  (paper "A4")

  (lib_symbols
    (symbol "E22-900M22S:E22-900M22S" (pin_names (offset 1.016)) (in_bom yes) (on_board yes)
      (property "Reference" "U" (id 0) (at 0 0 0)
        (effects (font (size 1.27 1.27)) (justify left bottom) hide)
      )
      (property "Value" "E22-900M22S" (id 1) (at 0 0 0)
        (effects (font (size 1.27 1.27)) (justify left bottom) hide)
      )
      (property "Footprint" "E22-900M22S" (id 2) (at 0 0 0)
        (effects (font (size 1.27 1.27)) (justify left bottom) hide)
      )
      (property "Datasheet" "" (id 3) (at 0 0 0)
        (effects (font (size 1.27 1.27)) (justify left bottom) hide)
      )
      (property "ki_locked" "" (id 4) (at 0 0 0)
        (effects (font (size 1.27 1.27)))
      )
      (symbol "E22-900M22S_0_0"
        (rectangle (start -20.32 -10.16) (end 15.24 17.78)
          (stroke (width 0.254) (type default) (color 0 0 0 0))
          (fill (type background))
        )
        (pin bidirectional line (at -25.4 11.43 0) (length 5.08)
          (name "ANT" (effects (font (size 1.016 1.016))))
          (number "ANT" (effects (font (size 1.016 1.016))))
        )
        (pin bidirectional line (at -25.4 -5.08 0) (length 5.08)
          (name "GND1" (effects (font (size 1.016 1.016))))
          (number "P$1" (effects (font (size 1.016 1.016))))
        )
        (pin bidirectional line (at -25.4 -5.08 0) (length 5.08)
          (name "GND1" (effects (font (size 1.016 1.016))))
          (number "P$10" (effects (font (size 1.016 1.016))))
        )
        (pin bidirectional line (at -25.4 -5.08 0) (length 5.08)
          (name "GND1" (effects (font (size 1.016 1.016))))
          (number "P$11" (effects (font (size 1.016 1.016))))
        )
        (pin bidirectional line (at -25.4 -5.08 0) (length 5.08)
          (name "GND1" (effects (font (size 1.016 1.016))))
          (number "P$12" (effects (font (size 1.016 1.016))))
        )
        (pin bidirectional line (at 20.32 -5.08 180) (length 5.08)
          (name "DIO1" (effects (font (size 1.016 1.016))))
          (number "P$13" (effects (font (size 1.016 1.016))))
        )
        (pin bidirectional line (at 20.32 -2.54 180) (length 5.08)
          (name "BUSY" (effects (font (size 1.016 1.016))))
          (number "P$14" (effects (font (size 1.016 1.016))))
        )
        (pin bidirectional line (at 20.32 0 180) (length 5.08)
          (name "NRST" (effects (font (size 1.016 1.016))))
          (number "P$15" (effects (font (size 1.016 1.016))))
        )
        (pin bidirectional line (at 20.32 2.54 180) (length 5.08)
          (name "MISO" (effects (font (size 1.016 1.016))))
          (number "P$16" (effects (font (size 1.016 1.016))))
        )
        (pin bidirectional line (at 20.32 5.08 180) (length 5.08)
          (name "MOSI" (effects (font (size 1.016 1.016))))
          (number "P$17" (effects (font (size 1.016 1.016))))
        )
        (pin bidirectional line (at 20.32 7.62 180) (length 5.08)
          (name "SCK" (effects (font (size 1.016 1.016))))
          (number "P$18" (effects (font (size 1.016 1.016))))
        )
        (pin bidirectional line (at 20.32 10.16 180) (length 5.08)
          (name "NSS" (effects (font (size 1.016 1.016))))
          (number "P$19" (effects (font (size 1.016 1.016))))
        )
        (pin bidirectional line (at -25.4 -5.08 0) (length 5.08)
          (name "GND1" (effects (font (size 1.016 1.016))))
          (number "P$2" (effects (font (size 1.016 1.016))))
        )
        (pin bidirectional line (at -25.4 -5.08 0) (length 5.08)
          (name "GND1" (effects (font (size 1.016 1.016))))
          (number "P$20" (effects (font (size 1.016 1.016))))
        )
        (pin bidirectional line (at -25.4 -5.08 0) (length 5.08)
          (name "GND1" (effects (font (size 1.016 1.016))))
          (number "P$22" (effects (font (size 1.016 1.016))))
        )
        (pin bidirectional line (at -25.4 -5.08 0) (length 5.08)
          (name "GND1" (effects (font (size 1.016 1.016))))
          (number "P$3" (effects (font (size 1.016 1.016))))
        )
        (pin bidirectional line (at -25.4 -5.08 0) (length 5.08)
          (name "GND1" (effects (font (size 1.016 1.016))))
          (number "P$4" (effects (font (size 1.016 1.016))))
        )
        (pin bidirectional line (at -25.4 -5.08 0) (length 5.08)
          (name "GND1" (effects (font (size 1.016 1.016))))
          (number "P$5" (effects (font (size 1.016 1.016))))
        )
        (pin bidirectional line (at -25.4 5.08 0) (length 5.08)
          (name "RXEN" (effects (font (size 1.016 1.016))))
          (number "P$6" (effects (font (size 1.016 1.016))))
        )
        (pin bidirectional line (at 20.32 -7.62 180) (length 5.08)
          (name "TXEN" (effects (font (size 1.016 1.016))))
          (number "P$7" (effects (font (size 1.016 1.016))))
        )
        (pin bidirectional line (at -25.4 2.54 0) (length 5.08)
          (name "DIO2" (effects (font (size 1.016 1.016))))
          (number "P$8" (effects (font (size 1.016 1.016))))
        )
        (pin bidirectional line (at -25.4 15.24 0) (length 5.08)
          (name "VCC" (effects (font (size 1.016 1.016))))
          (number "P$9" (effects (font (size 1.016 1.016))))
        )
      )
    )
    (symbol "SMA-J-P-H-ST-EM1:SMA-J-P-H-ST-EM1" (pin_numbers hide) (pin_names (offset 1.016) hide) (in_bom yes) (on_board yes)
      (property "Reference" "J" (id 0) (at -3.81 4.064 0)
        (effects (font (size 1.27 1.27)) (justify left bottom))
      )
      (property "Value" "SMA-J-P-H-ST-EM1" (id 1) (at -4.064 -4.318 0)
        (effects (font (size 1.27 1.27)) (justify left bottom))
      )
      (property "Footprint" "SAMTEC_SMA-J-P-H-ST-EM1" (id 2) (at 0 0 0)
        (effects (font (size 1.27 1.27)) (justify left bottom) hide)
      )
      (property "Datasheet" "" (id 3) (at 0 0 0)
        (effects (font (size 1.27 1.27)) (justify left bottom) hide)
      )
      (property "MAXIMUM_PACKAGE_HEIGHT" "3.675mm" (id 4) (at 0 0 0)
        (effects (font (size 1.27 1.27)) (justify left bottom) hide)
      )
      (property "MANUFACTURER" "Samtec" (id 5) (at 0 0 0)
        (effects (font (size 1.27 1.27)) (justify left bottom) hide)
      )
      (property "PARTREV" "G" (id 6) (at 0 0 0)
        (effects (font (size 1.27 1.27)) (justify left bottom) hide)
      )
      (property "STANDARD" "Manufacturer Recommendations" (id 7) (at 0 0 0)
        (effects (font (size 1.27 1.27)) (justify left bottom) hide)
      )
      (property "ki_locked" "" (id 8) (at 0 0 0)
        (effects (font (size 1.27 1.27)))
      )
      (symbol "SMA-J-P-H-ST-EM1_0_0"
        (polyline
          (pts
            (xy -3.302 -0.762)
            (xy -2.54 0)
          )
          (stroke (width 0.254) (type default) (color 0 0 0 0))
          (fill (type none))
        )
        (polyline
          (pts
            (xy -3.302 0.762)
            (xy -2.54 0)
          )
          (stroke (width 0.254) (type default) (color 0 0 0 0))
          (fill (type none))
        )
        (polyline
          (pts
            (xy -3.302 1.778)
            (xy -2.54 2.54)
          )
          (stroke (width 0.254) (type default) (color 0 0 0 0))
          (fill (type none))
        )
        (polyline
          (pts
            (xy -3.302 3.302)
            (xy -2.54 2.54)
          )
          (stroke (width 0.254) (type default) (color 0 0 0 0))
          (fill (type none))
        )
        (polyline
          (pts
            (xy -2.54 0)
            (xy 0 0)
          )
          (stroke (width 0.254) (type default) (color 0 0 0 0))
          (fill (type none))
        )
        (polyline
          (pts
            (xy -2.54 2.54)
            (xy 2.54 2.54)
          )
          (stroke (width 0.254) (type default) (color 0 0 0 0))
          (fill (type none))
        )
        (polyline
          (pts
            (xy -1.016 1.524)
            (xy 0 1.524)
          )
          (stroke (width 0.254) (type default) (color 0 0 0 0))
          (fill (type none))
        )
        (polyline
          (pts
            (xy -0.762 -0.762)
            (xy -1.27 -1.524)
          )
          (stroke (width 0.254) (type default) (color 0 0 0 0))
          (fill (type none))
        )
        (polyline
          (pts
            (xy 0 -0.762)
            (xy -0.762 -0.762)
          )
          (stroke (width 0.254) (type default) (color 0 0 0 0))
          (fill (type none))
        )
        (polyline
          (pts
            (xy 0 -0.762)
            (xy -0.508 -1.524)
          )
          (stroke (width 0.254) (type default) (color 0 0 0 0))
          (fill (type none))
        )
        (polyline
          (pts
            (xy 0 -0.762)
            (xy 0.762 -0.762)
          )
          (stroke (width 0.254) (type default) (color 0 0 0 0))
          (fill (type none))
        )
        (polyline
          (pts
            (xy 0 0)
            (xy -2.286 0)
          )
          (stroke (width 0.254) (type default) (color 0 0 0 0))
          (fill (type none))
        )
        (polyline
          (pts
            (xy 0 0)
            (xy 0 -0.762)
          )
          (stroke (width 0.254) (type default) (color 0 0 0 0))
          (fill (type none))
        )
        (polyline
          (pts
            (xy 0 1.524)
            (xy 0 0)
          )
          (stroke (width 0.254) (type default) (color 0 0 0 0))
          (fill (type none))
        )
        (polyline
          (pts
            (xy 0 1.524)
            (xy 1.016 1.524)
          )
          (stroke (width 0.254) (type default) (color 0 0 0 0))
          (fill (type none))
        )
        (polyline
          (pts
            (xy 0.762 -0.762)
            (xy 0.254 -1.524)
          )
          (stroke (width 0.254) (type default) (color 0 0 0 0))
          (fill (type none))
        )
        (polyline
          (pts
            (xy 2.54 0)
            (xy 0 0)
          )
          (stroke (width 0.254) (type default) (color 0 0 0 0))
          (fill (type none))
        )
        (circle (center 0 0) (radius 0.254)
          (stroke (width 0.254) (type default) (color 0 0 0 0))
          (fill (type none))
        )
        (circle (center 0 2.54) (radius 1.016)
          (stroke (width 0.254) (type default) (color 0 0 0 0))
          (fill (type none))
        )
        (pin passive line (at 2.54 2.54 180) (length 5.08)
          (name "~" (effects (font (size 1.016 1.016))))
          (number "1" (effects (font (size 1.016 1.016))))
        )
        (pin passive line (at 2.54 0 180) (length 5.08)
          (name "~" (effects (font (size 1.016 1.016))))
          (number "2_1" (effects (font (size 1.016 1.016))))
        )
        (pin passive line (at 2.54 0 180) (length 5.08)
          (name "~" (effects (font (size 1.016 1.016))))
          (number "2_2" (effects (font (size 1.016 1.016))))
        )
        (pin passive line (at 2.54 0 180) (length 5.08)
          (name "~" (effects (font (size 1.016 1.016))))
          (number "3_1" (effects (font (size 1.016 1.016))))
        )
        (pin passive line (at 2.54 0 180) (length 5.08)
          (name "~" (effects (font (size 1.016 1.016))))
          (number "3_2" (effects (font (size 1.016 1.016))))
        )
      )
    )
    (symbol "power:+3.3V" (power) (pin_names (offset 0)) (in_bom yes) (on_board yes)
      (property "Reference" "#PWR" (id 0) (at 0 -3.81 0)
        (effects (font (size 1.27 1.27)) hide)
      )
      (property "Value" "+3.3V" (id 1) (at 0 3.556 0)
        (effects (font (size 1.27 1.27)))
      )
      (property "Footprint" "" (id 2) (at 0 0 0)
        (effects (font (size 1.27 1.27)) hide)
      )
      (property "Datasheet" "" (id 3) (at 0 0 0)
        (effects (font (size 1.27 1.27)) hide)
      )
      (property "ki_keywords" "power-flag" (id 4) (at 0 0 0)
        (effects (font (size 1.27 1.27)) hide)
      )
      (property "ki_description" "Power symbol creates a global label with name \"+3.3V\"" (id 5) (at 0 0 0)
        (effects (font (size 1.27 1.27)) hide)
      )
      (symbol "+3.3V_0_1"
        (polyline
          (pts
            (xy -0.762 1.27)
            (xy 0 2.54)
          )
          (stroke (width 0) (type default) (color 0 0 0 0))
          (fill (type none))
        )
        (polyline
          (pts
            (xy 0 0)
            (xy 0 2.54)
          )
          (stroke (width 0) (type default) (color 0 0 0 0))
          (fill (type none))
        )
        (polyline
          (pts
            (xy 0 2.54)
            (xy 0.762 1.27)
          )
          (stroke (width 0) (type default) (color 0 0 0 0))
          (fill (type none))
        )
      )
      (symbol "+3.3V_1_1"
        (pin power_in line (at 0 0 90) (length 0) hide
          (name "+3V3" (effects (font (size 1.27 1.27))))
          (number "1" (effects (font (size 1.27 1.27))))
        )
      )
    )
    (symbol "power:GND" (power) (pin_names (offset 0)) (in_bom yes) (on_board yes)
      (property "Reference" "#PWR" (id 0) (at 0 -6.35 0)
        (effects (font (size 1.27 1.27)) hide)
      )
      (property "Value" "GND" (id 1) (at 0 -3.81 0)
        (effects (font (size 1.27 1.27)))
      )
      (property "Footprint" "" (id 2) (at 0 0 0)
        (effects (font (size 1.27 1.27)) hide)
      )
      (property "Datasheet" "" (id 3) (at 0 0 0)
        (effects (font (size 1.27 1.27)) hide)
      )
      (property "ki_keywords" "power-flag" (id 4) (at 0 0 0)
        (effects (font (size 1.27 1.27)) hide)
      )
      (property "ki_description" "Power symbol creates a global label with name \"GND\" , ground" (id 5) (at 0 0 0)
        (effects (font (size 1.27 1.27)) hide)
      )
      (symbol "GND_0_1"
        (polyline
          (pts
            (xy 0 0)
            (xy 0 -1.27)
            (xy 1.27 -1.27)
            (xy 0 -2.54)
            (xy -1.27 -1.27)
            (xy 0 -1.27)
          )
          (stroke (width 0) (type default) (color 0 0 0 0))
          (fill (type none))
        )
      )
      (symbol "GND_1_1"
        (pin power_in line (at 0 0 270) (length 0) hide
          (name "GND" (effects (font (size 1.27 1.27))))
          (number "1" (effects (font (size 1.27 1.27))))
        )
      )
    )
  )


  (no_connect (at 128.27 92.71) (uuid 0b08db19-d2bf-48a4-9cd8-f5ec2ce7c568))
  (no_connect (at 128.27 90.17) (uuid c5dba3bd-8fb1-4ee2-bdae-ea2e66623655))

  (wire (pts (xy 127 80.01) (xy 127 78.74))
    (stroke (width 0) (type default) (color 0 0 0 0))
    (uuid 1475cd4d-fd41-4d5a-a8c2-32ff5e683f2a)
  )
  (wire (pts (xy 127 100.33) (xy 127 101.6))
    (stroke (width 0) (type default) (color 0 0 0 0))
    (uuid 382d511c-eafd-4a18-a6ca-c49c2da64cbf)
  )
  (wire (pts (xy 118.11 86.36) (xy 116.84 86.36))
    (stroke (width 0) (type default) (color 0 0 0 0))
    (uuid 42ab01fd-7900-4730-a3b0-a4fcc616378d)
  )
  (wire (pts (xy 175.26 95.25) (xy 173.99 95.25))
    (stroke (width 0) (type default) (color 0 0 0 0))
    (uuid 42b88bd9-e341-4d32-b24a-1bce35f04934)
  )
  (wire (pts (xy 175.26 87.63) (xy 173.99 87.63))
    (stroke (width 0) (type default) (color 0 0 0 0))
    (uuid 719470ee-5789-457b-b056-ffb92a8a3e09)
  )
  (wire (pts (xy 118.11 87.63) (xy 118.11 86.36))
    (stroke (width 0) (type default) (color 0 0 0 0))
    (uuid 82076d0d-56c5-49a3-ba5f-2563d52134fd)
  )
  (wire (pts (xy 128.27 100.33) (xy 127 100.33))
    (stroke (width 0) (type default) (color 0 0 0 0))
    (uuid 8362a836-6c01-4d3a-8629-3acfd9a0d079)
  )
  (wire (pts (xy 175.26 85.09) (xy 173.99 85.09))
    (stroke (width 0) (type default) (color 0 0 0 0))
    (uuid 9c098e02-3d4c-42b9-b22f-501c388bd10b)
  )
  (wire (pts (xy 128.27 80.01) (xy 127 80.01))
    (stroke (width 0) (type default) (color 0 0 0 0))
    (uuid 9cbd8d10-4b6a-4ddc-baff-eb9535bed949)
  )
  (wire (pts (xy 175.26 100.33) (xy 173.99 100.33))
    (stroke (width 0) (type default) (color 0 0 0 0))
    (uuid a723adf4-d7eb-445a-9b4f-5929ba91ffaf)
  )
  (wire (pts (xy 175.26 97.79) (xy 173.99 97.79))
    (stroke (width 0) (type default) (color 0 0 0 0))
    (uuid b0aa4799-72a1-4fb6-9b8e-e01159c64dff)
  )
  (wire (pts (xy 175.26 92.71) (xy 173.99 92.71))
    (stroke (width 0) (type default) (color 0 0 0 0))
    (uuid e7b67a9f-edcd-4a95-acd4-74983c515a91)
  )
  (wire (pts (xy 175.26 102.87) (xy 173.99 102.87))
    (stroke (width 0) (type default) (color 0 0 0 0))
    (uuid eae99992-80c4-485c-ba79-9eb49018b794)
  )
  (wire (pts (xy 128.27 83.82) (xy 116.84 83.82))
    (stroke (width 0) (type default) (color 0 0 0 0))
    (uuid ed67ba55-fd68-4aad-bc99-a96bb5f5c003)
  )
  (wire (pts (xy 175.26 90.17) (xy 173.99 90.17))
    (stroke (width 0) (type default) (color 0 0 0 0))
    (uuid f53ecac4-2107-472b-be44-e47b0e07ab06)
  )

  (hierarchical_label "MOSI" (shape input) (at 175.26 90.17 0)
    (effects (font (size 1.27 1.27)) (justify left))
    (uuid 0135088b-c0fb-4089-addf-95e63272e325)
  )
  (hierarchical_label "BUSY" (shape input) (at 175.26 97.79 0)
    (effects (font (size 1.27 1.27)) (justify left))
    (uuid 1f9432f2-73e0-4256-b259-fdb8781e6330)
  )
  (hierarchical_label "MISO" (shape input) (at 175.26 92.71 0)
    (effects (font (size 1.27 1.27)) (justify left))
    (uuid 32301f25-6945-43d1-9d74-6ea8cab9f1b1)
  )
  (hierarchical_label "NRST" (shape input) (at 175.26 95.25 0)
    (effects (font (size 1.27 1.27)) (justify left))
    (uuid 3ffa5799-fe7f-4ef1-af1d-35265d0b69db)
  )
  (hierarchical_label "TXEN" (shape input) (at 175.26 102.87 0)
    (effects (font (size 1.27 1.27)) (justify left))
    (uuid 45392a0d-070a-4c22-85ea-51ae4707088b)
  )
  (hierarchical_label "DIO1" (shape input) (at 175.26 100.33 0)
    (effects (font (size 1.27 1.27)) (justify left))
    (uuid 4c4e492b-ade8-48bb-9dc2-cc8fb3a16289)
  )
  (hierarchical_label "SCK" (shape input) (at 175.26 87.63 0)
    (effects (font (size 1.27 1.27)) (justify left))
    (uuid 572e5933-e25c-4a35-a9e7-632d005c9026)
  )
  (hierarchical_label "NSS" (shape input) (at 175.26 85.09 0)
    (effects (font (size 1.27 1.27)) (justify left))
    (uuid dacd5dab-73f9-4c0f-a96f-236524b12681)
  )

  (symbol (lib_id "E22-900M22S:E22-900M22S") (at 153.67 95.25 0) (unit 1)
    (in_bom yes) (on_board yes)
    (uuid 00000000-0000-0000-0000-000061138ffa)
    (property "Reference" "U9" (id 0) (at 133.35 76.2 0)
      (effects (font (size 1.27 1.27)) (justify left bottom))
    )
    (property "Value" "E22-900M22S" (id 1) (at 133.35 107.95 0)
      (effects (font (size 1.27 1.27)) (justify left bottom))
    )
    (property "Footprint" "others:E22-900M22S" (id 2) (at 153.67 95.25 0)
      (effects (font (size 1.27 1.27)) (justify left bottom) hide)
    )
    (property "Datasheet" "" (id 3) (at 153.67 95.25 0)
      (effects (font (size 1.27 1.27)) (justify left bottom) hide)
    )
    (pin "ANT" (uuid 173c7090-41f2-42d9-b069-3f20e06cbcd2))
    (pin "P$1" (uuid 9105b48d-8843-4114-801f-be559a714cb5))
    (pin "P$10" (uuid 464d2656-7344-48e1-9cfd-33f289ccfe1c))
    (pin "P$11" (uuid 36b74a7b-72da-475d-8933-6a179904c6a7))
    (pin "P$12" (uuid 1ece4fcf-1c44-4184-bb34-5ba0bdaed2d3))
    (pin "P$13" (uuid a168a3e5-842f-4745-adab-02e531c2f064))
    (pin "P$14" (uuid e614761d-57f9-4171-8a6d-3affcb6b9fe5))
    (pin "P$15" (uuid dad74c8b-436a-4f7b-859f-b4b8851f367b))
    (pin "P$16" (uuid 723f301a-144a-46bc-bddc-1f81201b6e16))
    (pin "P$17" (uuid 5d375399-b481-4ca3-a8ba-01f9fce69368))
    (pin "P$18" (uuid ea6841d9-cd61-47f5-ba7b-91995e857663))
    (pin "P$19" (uuid 1c868b78-f180-4998-8dde-e3c5b0e0a9dc))
    (pin "P$2" (uuid 8bcaeba0-daf8-45e7-8b85-b3ad9b7930de))
    (pin "P$20" (uuid e6cf2bf6-e917-4ea8-9687-ef3fe444a7c0))
    (pin "P$22" (uuid a231c6c8-fa9d-492b-89c9-e8fb1564e5d7))
    (pin "P$3" (uuid 625f539f-61da-4c99-84ff-15e23b7bfdd0))
    (pin "P$4" (uuid 0b6709e6-d358-4af2-89c0-8d2efc9d3fc1))
    (pin "P$5" (uuid b02801da-ffa3-4b28-86ea-5180bcdfb66c))
    (pin "P$6" (uuid efdf50bc-46cc-430e-b54e-e82999c065c7))
    (pin "P$7" (uuid c0554f61-4bac-4646-97a0-2fdffaf4d364))
    (pin "P$8" (uuid ef967151-28ff-4ba5-91b3-b77cf75e706b))
    (pin "P$9" (uuid 190d44e9-1936-4454-8cfe-8da94eea06c8))
  )

  (symbol (lib_id "power:+3.3V") (at 127 78.74 0) (unit 1)
    (in_bom yes) (on_board yes)
    (uuid 00000000-0000-0000-0000-0000611f0aa3)
    (property "Reference" "#PWR070" (id 0) (at 127 82.55 0)
      (effects (font (size 1.27 1.27)) hide)
    )
    (property "Value" "+3.3V" (id 1) (at 127.381 74.3458 0))
    (property "Footprint" "" (id 2) (at 127 78.74 0)
      (effects (font (size 1.27 1.27)) hide)
    )
    (property "Datasheet" "" (id 3) (at 127 78.74 0)
      (effects (font (size 1.27 1.27)) hide)
    )
    (pin "1" (uuid 92cf8a5f-1b5a-43e0-bccc-08ddf8c95766))
  )

  (symbol (lib_id "power:GND") (at 127 101.6 0) (unit 1)
    (in_bom yes) (on_board yes)
    (uuid 00000000-0000-0000-0000-0000611f0aa9)
    (property "Reference" "#PWR072" (id 0) (at 127 107.95 0)
      (effects (font (size 1.27 1.27)) hide)
    )
    (property "Value" "GND" (id 1) (at 127.127 105.9942 0))
    (property "Footprint" "" (id 2) (at 127 101.6 0)
      (effects (font (size 1.27 1.27)) hide)
    )
    (property "Datasheet" "" (id 3) (at 127 101.6 0)
      (effects (font (size 1.27 1.27)) hide)
    )
    (pin "1" (uuid e49d25e9-1399-404f-b146-3baa4f4fbe17))
  )

  (symbol (lib_id "SMA-J-P-H-ST-EM1:SMA-J-P-H-ST-EM1") (at 114.3 86.36 0) (unit 1)
    (in_bom yes) (on_board yes)
    (uuid 00000000-0000-0000-0000-0000611f23b3)
    (property "Reference" "J5" (id 0) (at 114.0968 78.5622 0))
    (property "Value" "SMA-J-P-H-ST-EM1" (id 1) (at 114.0968 80.8736 0))
    (property "Footprint" "others:SMA-J-P-H-ST-EM1" (id 2) (at 114.3 86.36 0)
      (effects (font (size 1.27 1.27)) (justify left bottom) hide)
    )
    (property "Datasheet" "" (id 3) (at 114.3 86.36 0)
      (effects (font (size 1.27 1.27)) (justify left bottom) hide)
    )
    (property "MAXIMUM_PACKAGE_HEIGHT" "3.675mm" (id 4) (at 114.3 86.36 0)
      (effects (font (size 1.27 1.27)) (justify left bottom) hide)
    )
    (property "MANUFACTURER" "Samtec" (id 5) (at 114.3 86.36 0)
      (effects (font (size 1.27 1.27)) (justify left bottom) hide)
    )
    (property "PARTREV" "G" (id 6) (at 114.3 86.36 0)
      (effects (font (size 1.27 1.27)) (justify left bottom) hide)
    )
    (property "STANDARD" "Manufacturer Recommendations" (id 7) (at 114.3 86.36 0)
      (effects (font (size 1.27 1.27)) (justify left bottom) hide)
    )
    (pin "1" (uuid e31aeede-f55a-4bd1-a989-9ff00c12cf42))
    (pin "2_1" (uuid 11820ab5-fa8b-49f9-b23a-93ba531f6112))
    (pin "2_2" (uuid d6fd9891-4bbf-4261-a7e6-d61b8a90b641))
    (pin "3_1" (uuid 8872b4c5-aef4-4723-933b-1cdb7f70fb0d))
    (pin "3_2" (uuid 2bc5a21a-1d79-419d-a592-6852cc07b00a))
  )

  (symbol (lib_id "power:GND") (at 118.11 87.63 0) (unit 1)
    (in_bom yes) (on_board yes)
    (uuid 00000000-0000-0000-0000-0000611f42c4)
    (property "Reference" "#PWR071" (id 0) (at 118.11 93.98 0)
      (effects (font (size 1.27 1.27)) hide)
    )
    (property "Value" "GND" (id 1) (at 118.237 92.0242 0))
    (property "Footprint" "" (id 2) (at 118.11 87.63 0)
      (effects (font (size 1.27 1.27)) hide)
    )
    (property "Datasheet" "" (id 3) (at 118.11 87.63 0)
      (effects (font (size 1.27 1.27)) hide)
    )
    (pin "1" (uuid d6677625-47a3-4ab2-a37e-d1ec758e0e35))
  )
)
