(kicad_sch (version 20211123) (generator eeschema)

  (uuid 8bc91f0f-ca08-4afc-a6c0-f5ea71c45176)

  (paper "A4")

  (lib_symbols
    (symbol "Device:R_US" (pin_numbers hide) (pin_names (offset 0)) (in_bom yes) (on_board yes)
      (property "Reference" "R" (id 0) (at 2.54 0 90)
        (effects (font (size 1.27 1.27)))
      )
      (property "Value" "R_US" (id 1) (at -2.54 0 90)
        (effects (font (size 1.27 1.27)))
      )
      (property "Footprint" "" (id 2) (at 1.016 -0.254 90)
        (effects (font (size 1.27 1.27)) hide)
      )
      (property "Datasheet" "~" (id 3) (at 0 0 0)
        (effects (font (size 1.27 1.27)) hide)
      )
      (property "ki_keywords" "R res resistor" (id 4) (at 0 0 0)
        (effects (font (size 1.27 1.27)) hide)
      )
      (property "ki_description" "Resistor, US symbol" (id 5) (at 0 0 0)
        (effects (font (size 1.27 1.27)) hide)
      )
      (property "ki_fp_filters" "R_*" (id 6) (at 0 0 0)
        (effects (font (size 1.27 1.27)) hide)
      )
      (symbol "R_US_0_1"
        (polyline
          (pts
            (xy 0 -2.286)
            (xy 0 -2.54)
          )
          (stroke (width 0) (type default) (color 0 0 0 0))
          (fill (type none))
        )
        (polyline
          (pts
            (xy 0 2.286)
            (xy 0 2.54)
          )
          (stroke (width 0) (type default) (color 0 0 0 0))
          (fill (type none))
        )
        (polyline
          (pts
            (xy 0 -0.762)
            (xy 1.016 -1.143)
            (xy 0 -1.524)
            (xy -1.016 -1.905)
            (xy 0 -2.286)
          )
          (stroke (width 0) (type default) (color 0 0 0 0))
          (fill (type none))
        )
        (polyline
          (pts
            (xy 0 0.762)
            (xy 1.016 0.381)
            (xy 0 0)
            (xy -1.016 -0.381)
            (xy 0 -0.762)
          )
          (stroke (width 0) (type default) (color 0 0 0 0))
          (fill (type none))
        )
        (polyline
          (pts
            (xy 0 2.286)
            (xy 1.016 1.905)
            (xy 0 1.524)
            (xy -1.016 1.143)
            (xy 0 0.762)
          )
          (stroke (width 0) (type default) (color 0 0 0 0))
          (fill (type none))
        )
      )
      (symbol "R_US_1_1"
        (pin passive line (at 0 3.81 270) (length 1.27)
          (name "~" (effects (font (size 1.27 1.27))))
          (number "1" (effects (font (size 1.27 1.27))))
        )
        (pin passive line (at 0 -3.81 90) (length 1.27)
          (name "~" (effects (font (size 1.27 1.27))))
          (number "2" (effects (font (size 1.27 1.27))))
        )
      )
    )
    (symbol "power:+3.3V" (power) (pin_names (offset 0)) (in_bom yes) (on_board yes)
      (property "Reference" "#PWR" (id 0) (at 0 -3.81 0)
        (effects (font (size 1.27 1.27)) hide)
      )
      (property "Value" "+3.3V" (id 1) (at 0 3.556 0)
        (effects (font (size 1.27 1.27)))
      )
      (property "Footprint" "" (id 2) (at 0 0 0)
        (effects (font (size 1.27 1.27)) hide)
      )
      (property "Datasheet" "" (id 3) (at 0 0 0)
        (effects (font (size 1.27 1.27)) hide)
      )
      (property "ki_keywords" "power-flag" (id 4) (at 0 0 0)
        (effects (font (size 1.27 1.27)) hide)
      )
      (property "ki_description" "Power symbol creates a global label with name \"+3.3V\"" (id 5) (at 0 0 0)
        (effects (font (size 1.27 1.27)) hide)
      )
      (symbol "+3.3V_0_1"
        (polyline
          (pts
            (xy -0.762 1.27)
            (xy 0 2.54)
          )
          (stroke (width 0) (type default) (color 0 0 0 0))
          (fill (type none))
        )
        (polyline
          (pts
            (xy 0 0)
            (xy 0 2.54)
          )
          (stroke (width 0) (type default) (color 0 0 0 0))
          (fill (type none))
        )
        (polyline
          (pts
            (xy 0 2.54)
            (xy 0.762 1.27)
          )
          (stroke (width 0) (type default) (color 0 0 0 0))
          (fill (type none))
        )
      )
      (symbol "+3.3V_1_1"
        (pin power_in line (at 0 0 90) (length 0) hide
          (name "+3V3" (effects (font (size 1.27 1.27))))
          (number "1" (effects (font (size 1.27 1.27))))
        )
      )
    )
    (symbol "power:GND" (power) (pin_names (offset 0)) (in_bom yes) (on_board yes)
      (property "Reference" "#PWR" (id 0) (at 0 -6.35 0)
        (effects (font (size 1.27 1.27)) hide)
      )
      (property "Value" "GND" (id 1) (at 0 -3.81 0)
        (effects (font (size 1.27 1.27)))
      )
      (property "Footprint" "" (id 2) (at 0 0 0)
        (effects (font (size 1.27 1.27)) hide)
      )
      (property "Datasheet" "" (id 3) (at 0 0 0)
        (effects (font (size 1.27 1.27)) hide)
      )
      (property "ki_keywords" "power-flag" (id 4) (at 0 0 0)
        (effects (font (size 1.27 1.27)) hide)
      )
      (property "ki_description" "Power symbol creates a global label with name \"GND\" , ground" (id 5) (at 0 0 0)
        (effects (font (size 1.27 1.27)) hide)
      )
      (symbol "GND_0_1"
        (polyline
          (pts
            (xy 0 0)
            (xy 0 -1.27)
            (xy 1.27 -1.27)
            (xy 0 -2.54)
            (xy -1.27 -1.27)
            (xy 0 -1.27)
          )
          (stroke (width 0) (type default) (color 0 0 0 0))
          (fill (type none))
        )
      )
      (symbol "GND_1_1"
        (pin power_in line (at 0 0 270) (length 0) hide
          (name "GND" (effects (font (size 1.27 1.27))))
          (number "1" (effects (font (size 1.27 1.27))))
        )
      )
    )
    (symbol "power:VCC" (power) (pin_names (offset 0)) (in_bom yes) (on_board yes)
      (property "Reference" "#PWR" (id 0) (at 0 -3.81 0)
        (effects (font (size 1.27 1.27)) hide)
      )
      (property "Value" "VCC" (id 1) (at 0 3.81 0)
        (effects (font (size 1.27 1.27)))
      )
      (property "Footprint" "" (id 2) (at 0 0 0)
        (effects (font (size 1.27 1.27)) hide)
      )
      (property "Datasheet" "" (id 3) (at 0 0 0)
        (effects (font (size 1.27 1.27)) hide)
      )
      (property "ki_keywords" "power-flag" (id 4) (at 0 0 0)
        (effects (font (size 1.27 1.27)) hide)
      )
      (property "ki_description" "Power symbol creates a global label with name \"VCC\"" (id 5) (at 0 0 0)
        (effects (font (size 1.27 1.27)) hide)
      )
      (symbol "VCC_0_1"
        (polyline
          (pts
            (xy -0.762 1.27)
            (xy 0 2.54)
          )
          (stroke (width 0) (type default) (color 0 0 0 0))
          (fill (type none))
        )
        (polyline
          (pts
            (xy 0 0)
            (xy 0 2.54)
          )
          (stroke (width 0) (type default) (color 0 0 0 0))
          (fill (type none))
        )
        (polyline
          (pts
            (xy 0 2.54)
            (xy 0.762 1.27)
          )
          (stroke (width 0) (type default) (color 0 0 0 0))
          (fill (type none))
        )
      )
      (symbol "VCC_1_1"
        (pin power_in line (at 0 0 90) (length 0) hide
          (name "VCC" (effects (font (size 1.27 1.27))))
          (number "1" (effects (font (size 1.27 1.27))))
        )
      )
    )
    (symbol "roket-rescue:10118194-0001LF-dk_USB-DVI-HDMI-Connectors" (pin_names (offset 1.016)) (in_bom yes) (on_board yes)
      (property "Reference" "J" (id 0) (at -4.445 15.24 0)
        (effects (font (size 1.524 1.524)))
      )
      (property "Value" "10118194-0001LF-dk_USB-DVI-HDMI-Connectors" (id 1) (at -6.35 -7.62 90)
        (effects (font (size 1.524 1.524)))
      )
      (property "Footprint" "digikey-footprints:USB_Micro_B_Female_10118194-0001LF" (id 2) (at 5.08 5.08 0)
        (effects (font (size 1.524 1.524)) (justify left) hide)
      )
      (property "Datasheet" "http://www.amphenol-icc.com/media/wysiwyg/files/drawing/10118194.pdf" (id 3) (at 5.08 7.62 0)
        (effects (font (size 1.524 1.524)) (justify left) hide)
      )
      (property "Digi-Key_PN" "609-4618-1-ND" (id 4) (at 5.08 10.16 0)
        (effects (font (size 1.524 1.524)) (justify left) hide)
      )
      (property "MPN" "10118194-0001LF" (id 5) (at 5.08 12.7 0)
        (effects (font (size 1.524 1.524)) (justify left) hide)
      )
      (property "Category" "Connectors, Interconnects" (id 6) (at 5.08 15.24 0)
        (effects (font (size 1.524 1.524)) (justify left) hide)
      )
      (property "Family" "USB, DVI, HDMI Connectors" (id 7) (at 5.08 17.78 0)
        (effects (font (size 1.524 1.524)) (justify left) hide)
      )
      (property "DK_Datasheet_Link" "http://www.amphenol-icc.com/media/wysiwyg/files/drawing/10118194.pdf" (id 8) (at 5.08 20.32 0)
        (effects (font (size 1.524 1.524)) (justify left) hide)
      )
      (property "DK_Detail_Page" "/product-detail/en/amphenol-icc-fci/10118194-0001LF/609-4618-1-ND/2785382" (id 9) (at 5.08 22.86 0)
        (effects (font (size 1.524 1.524)) (justify left) hide)
      )
      (property "Description" "CONN RCPT USB2.0 MICRO B SMD R/A" (id 10) (at 5.08 25.4 0)
        (effects (font (size 1.524 1.524)) (justify left) hide)
      )
      (property "Manufacturer" "Amphenol ICC (FCI)" (id 11) (at 5.08 27.94 0)
        (effects (font (size 1.524 1.524)) (justify left) hide)
      )
      (property "Status" "Active" (id 12) (at 5.08 30.48 0)
        (effects (font (size 1.524 1.524)) (justify left) hide)
      )
      (symbol "10118194-0001LF-dk_USB-DVI-HDMI-Connectors_0_1"
        (polyline
          (pts
            (xy 3.7846 12.2428)
            (xy 3.7846 -12.5476)
          )
          (stroke (width 0) (type default) (color 0 0 0 0))
          (fill (type none))
        )
        (polyline
          (pts
            (xy 0.4826 -4.2926)
            (xy 0.4826 -3.2766)
            (xy 1.8796 -3.2766)
            (xy 1.8796 -4.2926)
            (xy 0.4826 -4.2926)
            (xy 1.1176 -3.7846)
            (xy 0.4826 -3.2766)
            (xy 1.8796 -3.2766)
            (xy 1.8796 -3.7846)
            (xy 1.1176 -3.7846)
          )
          (stroke (width 0) (type default) (color 0 0 0 0))
          (fill (type none))
        )
        (polyline
          (pts
            (xy 0.4826 -1.7526)
            (xy 0.4826 -0.7366)
            (xy 1.8796 -0.7366)
            (xy 1.8796 -1.7526)
            (xy 0.4826 -1.7526)
            (xy 1.1176 -1.2446)
            (xy 0.4826 -0.7366)
            (xy 1.8796 -0.7366)
            (xy 1.8796 -1.2446)
            (xy 1.1176 -1.2446)
          )
          (stroke (width 0) (type default) (color 0 0 0 0))
          (fill (type none))
        )
        (polyline
          (pts
            (xy 0.4826 1.7526)
            (xy 0.4826 0.7366)
            (xy 1.8796 0.7366)
            (xy 1.8796 1.7526)
            (xy 0.4826 1.7526)
            (xy 1.1176 1.2446)
            (xy 0.4826 0.7366)
            (xy 1.8796 0.7366)
            (xy 1.8796 1.2446)
            (xy 1.1176 1.2446)
          )
          (stroke (width 0) (type default) (color 0 0 0 0))
          (fill (type none))
        )
        (polyline
          (pts
            (xy 0.4826 4.2926)
            (xy 0.4826 3.2766)
            (xy 1.8796 3.2766)
            (xy 1.8796 4.2926)
            (xy 0.4826 4.2926)
            (xy 1.1176 3.7846)
            (xy 0.4826 3.2766)
            (xy 1.8796 3.2766)
            (xy 1.8796 3.7846)
            (xy 1.1176 3.7846)
          )
          (stroke (width 0) (type default) (color 0 0 0 0))
          (fill (type none))
        )
        (polyline
          (pts
            (xy 1.905 -0.0254)
            (xy 1.905 5.842)
            (xy 0.635 5.842)
            (xy 0.635 6.1468)
            (xy 0.8128 6.4262)
            (xy 1.1938 6.5786)
            (xy 1.651 6.6294)
            (xy 2.2606 6.5532)
            (xy 2.7178 6.3246)
            (xy 2.9464 6.0706)
            (xy 3.0226 5.6388)
            (xy 3.0226 4.8006)
            (xy 3.0226 -0.127)
          )
          (stroke (width 0) (type default) (color 0 0 0 0))
          (fill (type none))
        )
        (polyline
          (pts
            (xy 1.905 0.0254)
            (xy 1.905 -5.842)
            (xy 0.635 -5.842)
            (xy 0.635 -6.1468)
            (xy 0.8128 -6.4262)
            (xy 1.1938 -6.5786)
            (xy 1.651 -6.6294)
            (xy 2.2606 -6.5532)
            (xy 2.7178 -6.3246)
            (xy 2.9464 -6.0706)
            (xy 3.0226 -5.6388)
            (xy 3.0226 -4.8006)
            (xy 3.0226 0.127)
          )
          (stroke (width 0) (type default) (color 0 0 0 0))
          (fill (type none))
        )
        (polyline
          (pts
            (xy 4.8514 -12.5476)
            (xy 3.8354 -12.5476)
            (xy 3.7846 -12.5476)
            (xy 3.7846 -12.9032)
            (xy 3.6068 -13.2334)
            (xy 3.429 -13.3604)
            (xy 3.2258 -13.4366)
            (xy 0.4572 -13.4366)
            (xy 0.0508 -13.4112)
            (xy -0.3302 -13.3096)
            (xy -0.6604 -13.1318)
            (xy -0.9906 -12.9032)
            (xy -3.1496 -10.8458)
            (xy -3.4036 -10.3886)
            (xy -3.5306 -9.779)
            (xy -3.556 -8.636)
            (xy -3.556 9.2202)
            (xy -3.5306 9.4234)
            (xy -3.4544 9.8298)
            (xy -3.302 10.1854)
            (xy -3.0226 10.6172)
            (xy -1.7526 11.8364)
            (xy -0.8636 12.5984)
            (xy -0.3302 12.8778)
            (xy 0.0762 13.0048)
            (xy 0.6096 13.081)
            (xy 3.0734 13.081)
            (xy 3.3274 13.0048)
            (xy 3.5814 12.8524)
            (xy 3.7846 12.5222)
            (xy 3.7846 12.2174)
            (xy 4.8514 12.2174)
          )
          (stroke (width 0) (type default) (color 0 0 0 0))
          (fill (type none))
        )
        (polyline
          (pts
            (xy 4.8514 -11.4808)
            (xy 4.8514 -12.8016)
            (xy 4.7752 -13.4366)
            (xy 4.572 -13.8684)
            (xy 4.0386 -14.3256)
            (xy 3.5814 -14.5288)
            (xy 3.0988 -14.605)
            (xy -0.2794 -14.5542)
            (xy -0.7112 -14.4526)
            (xy -1.2446 -14.1986)
            (xy -2.2098 -13.4366)
            (xy -3.556 -12.1412)
            (xy -4.0132 -11.6586)
            (xy -4.3688 -11.1506)
            (xy -4.6228 -10.5918)
            (xy -4.7498 -9.7536)
            (xy -4.7498 9.3726)
            (xy -4.5974 10.0838)
            (xy -4.4704 10.4648)
            (xy -4.2164 10.9728)
            (xy -3.6068 11.6078)
            (xy -1.4478 13.589)
            (xy -0.9652 13.8684)
            (xy -0.5588 14.0208)
            (xy 0.0762 14.1224)
            (xy 0.5588 14.1732)
            (xy 3.2766 14.1732)
            (xy 3.7592 14.0208)
            (xy 4.2164 13.7414)
            (xy 4.445 13.5128)
            (xy 4.699 13.1572)
            (xy 4.826 12.8524)
            (xy 4.8514 12.446)
            (xy 4.8514 -11.5062)
          )
          (stroke (width 0) (type default) (color 0 0 0 0))
          (fill (type background))
        )
        (rectangle (start 0.889 -4.318) (end 1.905 -5.842)
          (stroke (width 0) (type default) (color 0 0 0 0))
          (fill (type outline))
        )
        (rectangle (start 0.889 -3.302) (end 1.905 -1.778)
          (stroke (width 0) (type default) (color 0 0 0 0))
          (fill (type outline))
        )
        (rectangle (start 0.889 -0.635) (end 1.905 0.381)
          (stroke (width 0) (type default) (color 0 0 0 0))
          (fill (type outline))
        )
        (rectangle (start 0.889 0.635) (end 1.905 -0.381)
          (stroke (width 0) (type default) (color 0 0 0 0))
          (fill (type outline))
        )
        (rectangle (start 0.889 3.302) (end 1.905 1.778)
          (stroke (width 0) (type default) (color 0 0 0 0))
          (fill (type outline))
        )
        (rectangle (start 0.889 4.318) (end 1.905 5.842)
          (stroke (width 0) (type default) (color 0 0 0 0))
          (fill (type outline))
        )
      )
      (symbol "10118194-0001LF-dk_USB-DVI-HDMI-Connectors_1_1"
        (pin passive line (at 7.62 5.08 180) (length 2.794)
          (name "~" (effects (font (size 1.27 1.27))))
          (number "1" (effects (font (size 1.27 1.27))))
        )
        (pin passive line (at 7.62 2.54 180) (length 2.794)
          (name "~" (effects (font (size 1.27 1.27))))
          (number "2" (effects (font (size 1.27 1.27))))
        )
        (pin passive line (at 7.62 0 180) (length 2.794)
          (name "~" (effects (font (size 1.27 1.27))))
          (number "3" (effects (font (size 1.27 1.27))))
        )
        (pin passive line (at 7.62 -2.54 180) (length 2.794)
          (name "~" (effects (font (size 1.27 1.27))))
          (number "4" (effects (font (size 1.27 1.27))))
        )
        (pin passive line (at 7.62 -5.08 180) (length 2.794)
          (name "~" (effects (font (size 1.27 1.27))))
          (number "5" (effects (font (size 1.27 1.27))))
        )
        (pin passive line (at -2.54 -15.24 90) (length 2.032)
          (name "~" (effects (font (size 1.27 1.27))))
          (number "SH" (effects (font (size 1.27 1.27))))
        )
      )
    )
    (symbol "roket-rescue:CP2102N-A01-GQFN28-CP2102N-A01-GQFN28" (pin_names (offset 1.016)) (in_bom yes) (on_board yes)
      (property "Reference" "U" (id 0) (at -17.8308 31.0896 0)
        (effects (font (size 1.27 1.27)) (justify left bottom))
      )
      (property "Value" "CP2102N-A01-GQFN28-CP2102N-A01-GQFN28" (id 1) (at -17.8054 -31.0388 0)
        (effects (font (size 1.27 1.27)) (justify left bottom))
      )
      (property "Footprint" "QFN50P500X500X80-29N" (id 2) (at 0 0 0)
        (effects (font (size 1.27 1.27)) (justify left bottom) hide)
      )
      (property "Datasheet" "" (id 3) (at 0 0 0)
        (effects (font (size 1.27 1.27)) (justify left bottom) hide)
      )
      (property "MAXIMUM_PACKAGE_HEIGHT" "0.8mm" (id 4) (at 0 0 0)
        (effects (font (size 1.27 1.27)) (justify left bottom) hide)
      )
      (property "STANDARD" "IPC 7351B" (id 5) (at 0 0 0)
        (effects (font (size 1.27 1.27)) (justify left bottom) hide)
      )
      (property "PARTREV" "1.0" (id 6) (at 0 0 0)
        (effects (font (size 1.27 1.27)) (justify left bottom) hide)
      )
      (property "MANUFACTURER" "SILICON LABS" (id 7) (at 0 0 0)
        (effects (font (size 1.27 1.27)) (justify left bottom) hide)
      )
      (property "ki_locked" "" (id 8) (at 0 0 0)
        (effects (font (size 1.27 1.27)))
      )
      (symbol "CP2102N-A01-GQFN28-CP2102N-A01-GQFN28_0_0"
        (rectangle (start -17.78 -30.48) (end 17.78 30.48)
          (stroke (width 0.254) (type default) (color 0 0 0 0))
          (fill (type background))
        )
        (pin input line (at -22.86 2.54 0) (length 5.08)
          (name "DCD" (effects (font (size 1.016 1.016))))
          (number "1" (effects (font (size 1.016 1.016))))
        )
        (pin no_connect line (at 22.86 -25.4 180) (length 5.08)
          (name "NC" (effects (font (size 1.016 1.016))))
          (number "10" (effects (font (size 1.016 1.016))))
        )
        (pin output line (at 22.86 -7.62 180) (length 5.08)
          (name "~{SUSPENDB}" (effects (font (size 1.016 1.016))))
          (number "11" (effects (font (size 1.016 1.016))))
        )
        (pin output line (at 22.86 -10.16 180) (length 5.08)
          (name "SUSPEND" (effects (font (size 1.016 1.016))))
          (number "12" (effects (font (size 1.016 1.016))))
        )
        (pin output line (at 22.86 -20.32 180) (length 5.08)
          (name "CHREN" (effects (font (size 1.016 1.016))))
          (number "13" (effects (font (size 1.016 1.016))))
        )
        (pin output line (at 22.86 -15.24 180) (length 5.08)
          (name "CHR1" (effects (font (size 1.016 1.016))))
          (number "14" (effects (font (size 1.016 1.016))))
        )
        (pin output line (at 22.86 -17.78 180) (length 5.08)
          (name "CHR0" (effects (font (size 1.016 1.016))))
          (number "15" (effects (font (size 1.016 1.016))))
        )
        (pin bidirectional line (at 22.86 5.08 180) (length 5.08)
          (name "GPIO.3/WAKEUP" (effects (font (size 1.016 1.016))))
          (number "16" (effects (font (size 1.016 1.016))))
        )
        (pin bidirectional line (at 22.86 7.62 180) (length 5.08)
          (name "GPIO.2/RS485" (effects (font (size 1.016 1.016))))
          (number "17" (effects (font (size 1.016 1.016))))
        )
        (pin bidirectional line (at 22.86 10.16 180) (length 5.08)
          (name "GPIO.1/RXT" (effects (font (size 1.016 1.016))))
          (number "18" (effects (font (size 1.016 1.016))))
        )
        (pin bidirectional line (at 22.86 12.7 180) (length 5.08)
          (name "GPIO.0/TXT" (effects (font (size 1.016 1.016))))
          (number "19" (effects (font (size 1.016 1.016))))
        )
        (pin bidirectional line (at -22.86 -17.78 0) (length 5.08)
          (name "RI/CLK" (effects (font (size 1.016 1.016))))
          (number "2" (effects (font (size 1.016 1.016))))
        )
        (pin bidirectional line (at 22.86 -2.54 180) (length 5.08)
          (name "GPIO.6" (effects (font (size 1.016 1.016))))
          (number "20" (effects (font (size 1.016 1.016))))
        )
        (pin bidirectional line (at 22.86 0 180) (length 5.08)
          (name "GPIO.5" (effects (font (size 1.016 1.016))))
          (number "21" (effects (font (size 1.016 1.016))))
        )
        (pin bidirectional line (at 22.86 2.54 180) (length 5.08)
          (name "GPIO.4" (effects (font (size 1.016 1.016))))
          (number "22" (effects (font (size 1.016 1.016))))
        )
        (pin input line (at -22.86 10.16 0) (length 5.08)
          (name "CTS" (effects (font (size 1.016 1.016))))
          (number "23" (effects (font (size 1.016 1.016))))
        )
        (pin output line (at -22.86 12.7 0) (length 5.08)
          (name "RTS" (effects (font (size 1.016 1.016))))
          (number "24" (effects (font (size 1.016 1.016))))
        )
        (pin input line (at -22.86 17.78 0) (length 5.08)
          (name "RXD" (effects (font (size 1.016 1.016))))
          (number "25" (effects (font (size 1.016 1.016))))
        )
        (pin output line (at -22.86 15.24 0) (length 5.08)
          (name "TXD" (effects (font (size 1.016 1.016))))
          (number "26" (effects (font (size 1.016 1.016))))
        )
        (pin input line (at -22.86 7.62 0) (length 5.08)
          (name "DSR" (effects (font (size 1.016 1.016))))
          (number "27" (effects (font (size 1.016 1.016))))
        )
        (pin output line (at -22.86 5.08 0) (length 5.08)
          (name "DTR" (effects (font (size 1.016 1.016))))
          (number "28" (effects (font (size 1.016 1.016))))
        )
        (pin power_in line (at 22.86 -27.94 180) (length 5.08)
          (name "GND" (effects (font (size 1.016 1.016))))
          (number "29" (effects (font (size 1.016 1.016))))
        )
        (pin power_in line (at 22.86 -27.94 180) (length 5.08)
          (name "GND" (effects (font (size 1.016 1.016))))
          (number "3" (effects (font (size 1.016 1.016))))
        )
        (pin bidirectional line (at -22.86 -2.54 0) (length 5.08)
          (name "D+" (effects (font (size 1.016 1.016))))
          (number "4" (effects (font (size 1.016 1.016))))
        )
        (pin bidirectional line (at -22.86 -5.08 0) (length 5.08)
          (name "D-" (effects (font (size 1.016 1.016))))
          (number "5" (effects (font (size 1.016 1.016))))
        )
        (pin power_in line (at 22.86 27.94 180) (length 5.08)
          (name "VDD" (effects (font (size 1.016 1.016))))
          (number "6" (effects (font (size 1.016 1.016))))
        )
        (pin power_in line (at 22.86 25.4 180) (length 5.08)
          (name "VREGIN" (effects (font (size 1.016 1.016))))
          (number "7" (effects (font (size 1.016 1.016))))
        )
        (pin power_in line (at -22.86 27.94 0) (length 5.08)
          (name "VBUS" (effects (font (size 1.016 1.016))))
          (number "8" (effects (font (size 1.016 1.016))))
        )
        (pin input line (at -22.86 -10.16 0) (length 5.08)
          (name "~{RST}" (effects (font (size 1.016 1.016))))
          (number "9" (effects (font (size 1.016 1.016))))
        )
      )
    )
    (symbol "roket-rescue:Cap-805_cap" (pin_names (offset 1.016) hide) (in_bom yes) (on_board yes)
      (property "Reference" "C" (id 0) (at 0 3.81 0)
        (effects (font (size 1.27 1.27)) (justify left bottom))
      )
      (property "Value" "Cap-805_cap" (id 1) (at 0 -5.08 0)
        (effects (font (size 1.27 1.27)) (justify left bottom))
      )
      (property "Footprint" "CAPC2012X135N" (id 2) (at 0 0 0)
        (effects (font (size 1.27 1.27)) (justify left bottom) hide)
      )
      (property "Datasheet" "" (id 3) (at 0 0 0)
        (effects (font (size 1.27 1.27)) (justify left bottom) hide)
      )
      (property "ki_locked" "" (id 4) (at 0 0 0)
        (effects (font (size 1.27 1.27)))
      )
      (symbol "Cap-805_cap_0_0"
        (rectangle (start 0 -1.905) (end 0.635 1.905)
          (stroke (width 0) (type default) (color 0 0 0 0))
          (fill (type outline))
        )
        (rectangle (start 1.905 -1.905) (end 2.54 1.905)
          (stroke (width 0) (type default) (color 0 0 0 0))
          (fill (type outline))
        )
        (pin passive line (at 5.08 0 180) (length 2.54)
          (name "~" (effects (font (size 1.016 1.016))))
          (number "1" (effects (font (size 1.016 1.016))))
        )
        (pin passive line (at -2.54 0 0) (length 2.54)
          (name "~" (effects (font (size 1.016 1.016))))
          (number "2" (effects (font (size 1.016 1.016))))
        )
      )
    )
    (symbol "roket-rescue:PESD1LIN-SOD323_ESD" (pin_numbers hide) (pin_names (offset 1.016) hide) (in_bom yes) (on_board yes)
      (property "Reference" "D" (id 0) (at -5.08 0 0)
        (effects (font (size 1.27 1.27)) (justify left bottom))
      )
      (property "Value" "PESD1LIN-SOD323_ESD" (id 1) (at -5.08 -5.08 0)
        (effects (font (size 1.27 1.27)) (justify left bottom))
      )
      (property "Footprint" "SOD323-W" (id 2) (at 0 0 0)
        (effects (font (size 1.27 1.27)) (justify left bottom) hide)
      )
      (property "Datasheet" "" (id 3) (at 0 0 0)
        (effects (font (size 1.27 1.27)) (justify left bottom) hide)
      )
      (property "ki_locked" "" (id 4) (at 0 0 0)
        (effects (font (size 1.27 1.27)))
      )
      (symbol "PESD1LIN-SOD323_ESD_0_0"
        (polyline
          (pts
            (xy -8.89 -2.286)
            (xy -7.62 -4.064)
          )
          (stroke (width 0.254) (type default) (color 0 0 0 0))
          (fill (type none))
        )
        (polyline
          (pts
            (xy -8.89 -0.254)
            (xy -6.35 -0.254)
          )
          (stroke (width 0.254) (type default) (color 0 0 0 0))
          (fill (type none))
        )
        (polyline
          (pts
            (xy -8.89 1.651)
            (xy -8.89 0.762)
          )
          (stroke (width 0.254) (type default) (color 0 0 0 0))
          (fill (type none))
        )
        (polyline
          (pts
            (xy -8.89 1.651)
            (xy -6.35 1.651)
          )
          (stroke (width 0.254) (type default) (color 0 0 0 0))
          (fill (type none))
        )
        (polyline
          (pts
            (xy -7.62 -4.064)
            (xy -6.35 -2.286)
          )
          (stroke (width 0.254) (type default) (color 0 0 0 0))
          (fill (type none))
        )
        (polyline
          (pts
            (xy -7.62 1.524)
            (xy -8.89 -0.254)
          )
          (stroke (width 0.254) (type default) (color 0 0 0 0))
          (fill (type none))
        )
        (polyline
          (pts
            (xy -7.62 2.54)
            (xy -7.62 -5.08)
          )
          (stroke (width 0.1524) (type default) (color 0 0 0 0))
          (fill (type none))
        )
        (polyline
          (pts
            (xy -6.35 -4.191)
            (xy -8.89 -4.191)
          )
          (stroke (width 0.254) (type default) (color 0 0 0 0))
          (fill (type none))
        )
        (polyline
          (pts
            (xy -6.35 -4.191)
            (xy -6.35 -3.302)
          )
          (stroke (width 0.254) (type default) (color 0 0 0 0))
          (fill (type none))
        )
        (polyline
          (pts
            (xy -6.35 -2.286)
            (xy -8.89 -2.286)
          )
          (stroke (width 0.254) (type default) (color 0 0 0 0))
          (fill (type none))
        )
        (polyline
          (pts
            (xy -6.35 -0.254)
            (xy -7.62 1.524)
          )
          (stroke (width 0.254) (type default) (color 0 0 0 0))
          (fill (type none))
        )
        (pin passive line (at -7.62 5.08 270) (length 2.54)
          (name "~" (effects (font (size 1.016 1.016))))
          (number "1" (effects (font (size 1.016 1.016))))
        )
        (pin passive line (at -7.62 -7.62 90) (length 2.54)
          (name "~" (effects (font (size 1.016 1.016))))
          (number "2" (effects (font (size 1.016 1.016))))
        )
      )
    )
    (symbol "roket-rescue:SS24-SS24" (pin_names (offset 1.016) hide) (in_bom yes) (on_board yes)
      (property "Reference" "D" (id 0) (at -5.08 2.54 0)
        (effects (font (size 1.27 1.27)) (justify left bottom))
      )
      (property "Value" "SS24-SS24" (id 1) (at -5.08 -3.81 0)
        (effects (font (size 1.27 1.27)) (justify left bottom))
      )
      (property "Footprint" "DIOM5336X265N" (id 2) (at 0 0 0)
        (effects (font (size 1.27 1.27)) (justify left bottom) hide)
      )
      (property "Datasheet" "" (id 3) (at 0 0 0)
        (effects (font (size 1.27 1.27)) (justify left bottom) hide)
      )
      (property "STANDARD" "IPC 7351B" (id 4) (at 0 0 0)
        (effects (font (size 1.27 1.27)) (justify left bottom) hide)
      )
      (property "PARTREV" "1.1.2" (id 5) (at 0 0 0)
        (effects (font (size 1.27 1.27)) (justify left bottom) hide)
      )
      (property "MANUFACTURER" "ON Semiconductor" (id 6) (at 0 0 0)
        (effects (font (size 1.27 1.27)) (justify left bottom) hide)
      )
      (property "MAXIMUM_PACKAGE_HEIGHT" "2.65 mm" (id 7) (at 0 0 0)
        (effects (font (size 1.27 1.27)) (justify left bottom) hide)
      )
      (property "ki_locked" "" (id 8) (at 0 0 0)
        (effects (font (size 1.27 1.27)))
      )
      (symbol "SS24-SS24_0_0"
        (polyline
          (pts
            (xy -2.54 0)
            (xy -1.27 0)
          )
          (stroke (width 0.254) (type default) (color 0 0 0 0))
          (fill (type none))
        )
        (polyline
          (pts
            (xy -1.27 -1.27)
            (xy 1.27 0)
          )
          (stroke (width 0.254) (type default) (color 0 0 0 0))
          (fill (type none))
        )
        (polyline
          (pts
            (xy -1.27 0)
            (xy -1.27 -1.27)
          )
          (stroke (width 0.254) (type default) (color 0 0 0 0))
          (fill (type none))
        )
        (polyline
          (pts
            (xy -1.27 1.27)
            (xy -1.27 0)
          )
          (stroke (width 0.254) (type default) (color 0 0 0 0))
          (fill (type none))
        )
        (polyline
          (pts
            (xy 0.635 -1.016)
            (xy 0.635 -1.27)
          )
          (stroke (width 0.254) (type default) (color 0 0 0 0))
          (fill (type none))
        )
        (polyline
          (pts
            (xy 1.27 -1.27)
            (xy 0.635 -1.27)
          )
          (stroke (width 0.254) (type default) (color 0 0 0 0))
          (fill (type none))
        )
        (polyline
          (pts
            (xy 1.27 0)
            (xy -1.27 1.27)
          )
          (stroke (width 0.254) (type default) (color 0 0 0 0))
          (fill (type none))
        )
        (polyline
          (pts
            (xy 1.27 0)
            (xy 1.27 -1.27)
          )
          (stroke (width 0.254) (type default) (color 0 0 0 0))
          (fill (type none))
        )
        (polyline
          (pts
            (xy 1.27 1.27)
            (xy 1.27 0)
          )
          (stroke (width 0.254) (type default) (color 0 0 0 0))
          (fill (type none))
        )
        (polyline
          (pts
            (xy 1.905 1.27)
            (xy 1.27 1.27)
          )
          (stroke (width 0.254) (type default) (color 0 0 0 0))
          (fill (type none))
        )
        (polyline
          (pts
            (xy 1.905 1.27)
            (xy 1.905 1.016)
          )
          (stroke (width 0.254) (type default) (color 0 0 0 0))
          (fill (type none))
        )
        (polyline
          (pts
            (xy 2.54 0)
            (xy 1.27 0)
          )
          (stroke (width 0.254) (type default) (color 0 0 0 0))
          (fill (type none))
        )
        (pin passive line (at -5.08 0 0) (length 2.54)
          (name "~" (effects (font (size 1.016 1.016))))
          (number "A" (effects (font (size 1.016 1.016))))
        )
        (pin passive line (at 5.08 0 180) (length 2.54)
          (name "~" (effects (font (size 1.016 1.016))))
          (number "C" (effects (font (size 1.016 1.016))))
        )
      )
    )
    (symbol "roket-rescue:SS8050-G-SS8050-G" (pin_numbers hide) (pin_names (offset 1.016) hide) (in_bom yes) (on_board yes)
      (property "Reference" "Q" (id 0) (at -10.16 7.62 0)
        (effects (font (size 1.27 1.27)) (justify left bottom))
      )
      (property "Value" "SS8050-G-SS8050-G" (id 1) (at -10.16 -7.62 0)
        (effects (font (size 1.27 1.27)) (justify left bottom))
      )
      (property "Footprint" "SOT95P230X110-3N" (id 2) (at 0 0 0)
        (effects (font (size 1.27 1.27)) (justify left bottom) hide)
      )
      (property "Datasheet" "" (id 3) (at 0 0 0)
        (effects (font (size 1.27 1.27)) (justify left bottom) hide)
      )
      (property "STANDARD" "IPC 7351B" (id 4) (at 0 0 0)
        (effects (font (size 1.27 1.27)) (justify left bottom) hide)
      )
      (property "PARTREV" "7" (id 5) (at 0 0 0)
        (effects (font (size 1.27 1.27)) (justify left bottom) hide)
      )
      (property "MAXIMUM_PACKAGE_HEIGHT" "1.1 mm" (id 6) (at 0 0 0)
        (effects (font (size 1.27 1.27)) (justify left bottom) hide)
      )
      (property "MANUFACTURER" "Nexperia" (id 7) (at 0 0 0)
        (effects (font (size 1.27 1.27)) (justify left bottom) hide)
      )
      (property "ki_locked" "" (id 8) (at 0 0 0)
        (effects (font (size 1.27 1.27)))
      )
      (symbol "SS8050-G-SS8050-G_0_0"
        (rectangle (start -0.254 -2.54) (end 0.508 2.54)
          (stroke (width 0) (type default) (color 0 0 0 0))
          (fill (type outline))
        )
        (polyline
          (pts
            (xy 1.27 -2.54)
            (xy 1.778 -1.524)
          )
          (stroke (width 0.1524) (type default) (color 0 0 0 0))
          (fill (type none))
        )
        (polyline
          (pts
            (xy 1.524 -2.413)
            (xy 2.286 -2.413)
          )
          (stroke (width 0.254) (type default) (color 0 0 0 0))
          (fill (type none))
        )
        (polyline
          (pts
            (xy 1.524 -2.286)
            (xy 1.905 -2.286)
          )
          (stroke (width 0.254) (type default) (color 0 0 0 0))
          (fill (type none))
        )
        (polyline
          (pts
            (xy 1.5494 -2.032)
            (xy 0.3048 -1.4224)
          )
          (stroke (width 0.1524) (type default) (color 0 0 0 0))
          (fill (type none))
        )
        (polyline
          (pts
            (xy 1.778 -1.778)
            (xy 1.524 -2.286)
          )
          (stroke (width 0.254) (type default) (color 0 0 0 0))
          (fill (type none))
        )
        (polyline
          (pts
            (xy 1.778 -1.524)
            (xy 2.54 -2.54)
          )
          (stroke (width 0.1524) (type default) (color 0 0 0 0))
          (fill (type none))
        )
        (polyline
          (pts
            (xy 1.905 -2.286)
            (xy 1.778 -2.032)
          )
          (stroke (width 0.254) (type default) (color 0 0 0 0))
          (fill (type none))
        )
        (polyline
          (pts
            (xy 2.286 -2.413)
            (xy 1.778 -1.778)
          )
          (stroke (width 0.254) (type default) (color 0 0 0 0))
          (fill (type none))
        )
        (polyline
          (pts
            (xy 2.54 -2.54)
            (xy 1.27 -2.54)
          )
          (stroke (width 0.1524) (type default) (color 0 0 0 0))
          (fill (type none))
        )
        (polyline
          (pts
            (xy 2.54 2.54)
            (xy 0.508 1.524)
          )
          (stroke (width 0.1524) (type default) (color 0 0 0 0))
          (fill (type none))
        )
        (pin passive line (at -2.54 0 0) (length 2.54)
          (name "~" (effects (font (size 1.016 1.016))))
          (number "1" (effects (font (size 1.016 1.016))))
        )
        (pin passive line (at 2.54 -5.08 90) (length 2.54)
          (name "~" (effects (font (size 1.016 1.016))))
          (number "2" (effects (font (size 1.016 1.016))))
        )
        (pin passive line (at 2.54 5.08 270) (length 2.54)
          (name "~" (effects (font (size 1.016 1.016))))
          (number "3" (effects (font (size 1.016 1.016))))
        )
      )
    )
  )

  (junction (at 73.66 36.83) (diameter 0) (color 0 0 0 0)
    (uuid 18ad3e6e-0359-4195-bfbc-ab4d8a56a687)
  )
  (junction (at 237.49 55.88) (diameter 0) (color 0 0 0 0)
    (uuid 1b34747b-9a7b-4c2e-af52-d68e2689e7fa)
  )
  (junction (at 48.26 127) (diameter 0) (color 0 0 0 0)
    (uuid 4eb95f66-5a26-4495-9630-c73cfa6eff28)
  )
  (junction (at 247.65 55.88) (diameter 0) (color 0 0 0 0)
    (uuid 4f61ee33-294e-4b74-bd42-f2fd2ac1dbf8)
  )
  (junction (at 50.8 110.49) (diameter 0) (color 0 0 0 0)
    (uuid af76db07-9f0f-45ea-87a6-e7278e52436e)
  )
  (junction (at 232.41 55.88) (diameter 0) (color 0 0 0 0)
    (uuid f90384ed-7c3e-4610-8de8-dfa11a0e24f9)
  )

  (no_connect (at 232.41 86.36) (uuid 04f57fa9-346b-461b-9a53-2aa02e03ee23))
  (no_connect (at 186.69 73.66) (uuid 05f7ab95-9b00-4c2c-899b-cd61d24a891f))
  (no_connect (at 81.28 44.45) (uuid 16d73492-8aa2-40c2-8f32-8985d5d231bd))
  (no_connect (at 186.69 81.28) (uuid 22a2fa27-2399-4793-9e51-784bba3aeb3e))
  (no_connect (at 232.41 71.12) (uuid 241ea7a2-e72c-4c6a-b629-70a057266b43))
  (no_connect (at 232.41 91.44) (uuid 2d62673e-f5da-4f4a-8bca-fb060fbd236a))
  (no_connect (at 232.41 76.2) (uuid 4a09f58d-d085-4644-bc04-5f3a5f03f31f))
  (no_connect (at 232.41 109.22) (uuid 4fb189b6-cd14-4758-9db3-3c9c7603d157))
  (no_connect (at 186.69 101.6) (uuid 8ebaf065-59ec-400b-aa8b-119643295cfe))
  (no_connect (at 232.41 93.98) (uuid 91804317-d1b9-4343-950e-cb618721b7b8))
  (no_connect (at 232.41 104.14) (uuid 91bad5a7-19e1-4572-9a79-8963530be64b))
  (no_connect (at 232.41 99.06) (uuid ae5abd01-7600-4631-a034-1075d230da91))
  (no_connect (at 232.41 73.66) (uuid b3c7e888-3e2d-4ed9-ba87-33f904eb99a2))
  (no_connect (at 232.41 78.74) (uuid b5b3530a-fbcc-4439-9e69-6b94259dd5ba))
  (no_connect (at 232.41 81.28) (uuid d5cde087-62fd-4c06-86a5-94c4cd27259c))
  (no_connect (at 232.41 83.82) (uuid dd69d821-9d82-4ab8-8c8b-e32308b0ef55))
  (no_connect (at 186.69 76.2) (uuid e7789232-2434-4fa4-89c7-f83bb8a75ac3))
  (no_connect (at 232.41 101.6) (uuid eae5faa2-0e71-468b-9db0-18fbe1879d62))

  (wire (pts (xy 73.66 36.83) (xy 81.28 36.83))
    (stroke (width 0) (type default) (color 0 0 0 0))
    (uuid 0151a7ca-c87f-45ce-bd92-a5839d3159f7)
  )
  (wire (pts (xy 62.23 110.49) (xy 68.58 110.49))
    (stroke (width 0) (type default) (color 0 0 0 0))
    (uuid 01625f54-3a36-48cf-a89b-ee1f524ce352)
  )
  (wire (pts (xy 247.65 55.88) (xy 247.65 57.15))
    (stroke (width 0) (type default) (color 0 0 0 0))
    (uuid 1d3079e3-5c05-4105-b593-7b9ffdec6d39)
  )
  (wire (pts (xy 175.26 93.98) (xy 172.72 93.98))
    (stroke (width 0) (type default) (color 0 0 0 0))
    (uuid 23005107-8f2e-484c-bcf6-b688dbe9f47f)
  )
  (wire (pts (xy 237.49 55.88) (xy 247.65 55.88))
    (stroke (width 0) (type default) (color 0 0 0 0))
    (uuid 2baaff23-dbc1-4fbb-b52f-470530ec0bd1)
  )
  (wire (pts (xy 73.66 105.41) (xy 73.66 102.87))
    (stroke (width 0) (type default) (color 0 0 0 0))
    (uuid 2e4aa329-8def-4313-8f99-ae3fae0d0e39)
  )
  (wire (pts (xy 73.66 120.65) (xy 50.8 120.65))
    (stroke (width 0) (type default) (color 0 0 0 0))
    (uuid 343d2f3c-18f0-41a5-a7db-db10ffcbbabf)
  )
  (wire (pts (xy 73.66 36.83) (xy 69.85 36.83))
    (stroke (width 0) (type default) (color 0 0 0 0))
    (uuid 3a630d0e-32c3-41bd-aa22-6fc970557689)
  )
  (wire (pts (xy 73.66 48.26) (xy 73.66 36.83))
    (stroke (width 0) (type default) (color 0 0 0 0))
    (uuid 3e37fc9d-0b60-4413-8d7a-6c181fb4e41d)
  )
  (wire (pts (xy 50.8 62.23) (xy 50.8 60.96))
    (stroke (width 0) (type default) (color 0 0 0 0))
    (uuid 3f40c867-f2d9-41dc-942e-708deebaf89e)
  )
  (wire (pts (xy 73.66 62.23) (xy 73.66 60.96))
    (stroke (width 0) (type default) (color 0 0 0 0))
    (uuid 4194e6a5-e720-46fe-9cdb-39919a15343e)
  )
  (wire (pts (xy 50.8 120.65) (xy 50.8 110.49))
    (stroke (width 0) (type default) (color 0 0 0 0))
    (uuid 454d49de-b0a0-4c03-9514-0745ae009b20)
  )
  (wire (pts (xy 58.42 41.91) (xy 81.28 41.91))
    (stroke (width 0) (type default) (color 0 0 0 0))
    (uuid 49c894fa-1817-4a1e-a27a-49698fa51601)
  )
  (wire (pts (xy 43.18 127) (xy 48.26 127))
    (stroke (width 0) (type default) (color 0 0 0 0))
    (uuid 53463159-668f-4995-9575-bfadfed27473)
  )
  (wire (pts (xy 182.88 93.98) (xy 186.69 93.98))
    (stroke (width 0) (type default) (color 0 0 0 0))
    (uuid 542601b2-a6fe-42e6-b928-b38073902807)
  )
  (wire (pts (xy 177.8 88.9) (xy 186.69 88.9))
    (stroke (width 0) (type default) (color 0 0 0 0))
    (uuid 551142b2-e78f-474c-9396-0255ddc50193)
  )
  (wire (pts (xy 73.66 121.92) (xy 73.66 120.65))
    (stroke (width 0) (type default) (color 0 0 0 0))
    (uuid 578783be-47eb-4de7-bfa7-4193fd4bc187)
  )
  (wire (pts (xy 184.15 55.88) (xy 184.15 54.61))
    (stroke (width 0) (type default) (color 0 0 0 0))
    (uuid 5d8cd412-3bc8-443d-8083-5731d42aef5c)
  )
  (wire (pts (xy 237.49 57.15) (xy 237.49 55.88))
    (stroke (width 0) (type default) (color 0 0 0 0))
    (uuid 5f58d76c-c429-4403-9a81-e46599e48068)
  )
  (wire (pts (xy 58.42 62.23) (xy 58.42 60.96))
    (stroke (width 0) (type default) (color 0 0 0 0))
    (uuid 6101078a-a090-4678-ac4b-9c032e795c3e)
  )
  (wire (pts (xy 232.41 58.42) (xy 232.41 55.88))
    (stroke (width 0) (type default) (color 0 0 0 0))
    (uuid 65d26a44-38fa-4579-8c0a-970f2b7ec5ed)
  )
  (wire (pts (xy 186.69 55.88) (xy 184.15 55.88))
    (stroke (width 0) (type default) (color 0 0 0 0))
    (uuid 790193d7-b496-4009-bc19-0803d839aedc)
  )
  (wire (pts (xy 184.15 66.04) (xy 186.69 66.04))
    (stroke (width 0) (type default) (color 0 0 0 0))
    (uuid 794826bd-8eb8-4fc7-b3a9-ab96aa538d98)
  )
  (wire (pts (xy 73.66 132.08) (xy 73.66 134.62))
    (stroke (width 0) (type default) (color 0 0 0 0))
    (uuid 801047ee-dfe5-45eb-8d7d-ecb078751a54)
  )
  (wire (pts (xy 57.15 36.83) (xy 57.15 35.56))
    (stroke (width 0) (type default) (color 0 0 0 0))
    (uuid 8399afe8-08a7-4cb2-b5d1-445deec4e160)
  )
  (wire (pts (xy 58.42 41.91) (xy 58.42 48.26))
    (stroke (width 0) (type default) (color 0 0 0 0))
    (uuid 90631451-654e-4adc-a309-e09094632c74)
  )
  (wire (pts (xy 237.49 66.04) (xy 237.49 64.77))
    (stroke (width 0) (type default) (color 0 0 0 0))
    (uuid 99566f6e-8615-4771-89b3-db9b5c70abc2)
  )
  (wire (pts (xy 91.44 59.69) (xy 91.44 57.15))
    (stroke (width 0) (type default) (color 0 0 0 0))
    (uuid 99adc7c1-ebe8-4ee9-8b9e-ebf32b7b4215)
  )
  (wire (pts (xy 177.8 86.36) (xy 186.69 86.36))
    (stroke (width 0) (type default) (color 0 0 0 0))
    (uuid 9ba057f7-29a3-48dc-ac2e-d347951a1360)
  )
  (wire (pts (xy 48.26 127) (xy 54.61 127))
    (stroke (width 0) (type default) (color 0 0 0 0))
    (uuid a84a2751-a1a6-4e73-b6ab-ce8bc89c24fe)
  )
  (wire (pts (xy 50.8 39.37) (xy 50.8 48.26))
    (stroke (width 0) (type default) (color 0 0 0 0))
    (uuid ae0193e9-7385-4723-930c-f3f025fab6df)
  )
  (wire (pts (xy 177.8 78.74) (xy 186.69 78.74))
    (stroke (width 0) (type default) (color 0 0 0 0))
    (uuid b001ab04-8895-4a76-9d1f-8ee897a57995)
  )
  (wire (pts (xy 177.8 71.12) (xy 186.69 71.12))
    (stroke (width 0) (type default) (color 0 0 0 0))
    (uuid b19cba3b-3700-4f5a-ac63-77cf5c0498d2)
  )
  (wire (pts (xy 50.8 39.37) (xy 81.28 39.37))
    (stroke (width 0) (type default) (color 0 0 0 0))
    (uuid b5294b94-7d75-419e-9b32-1b652aec21f6)
  )
  (wire (pts (xy 232.41 113.03) (xy 232.41 111.76))
    (stroke (width 0) (type default) (color 0 0 0 0))
    (uuid b7204c72-36bf-407d-956d-26264d9c134f)
  )
  (wire (pts (xy 73.66 102.87) (xy 76.2 102.87))
    (stroke (width 0) (type default) (color 0 0 0 0))
    (uuid c13f0021-0e73-4ae1-806d-4a387f17abfe)
  )
  (wire (pts (xy 81.28 52.07) (xy 81.28 46.99))
    (stroke (width 0) (type default) (color 0 0 0 0))
    (uuid c1bc3174-1cd6-4140-b3ca-67aec9c80883)
  )
  (wire (pts (xy 48.26 118.11) (xy 48.26 127))
    (stroke (width 0) (type default) (color 0 0 0 0))
    (uuid d0e63392-2d1b-4367-b451-ef628587e97a)
  )
  (wire (pts (xy 73.66 134.62) (xy 76.2 134.62))
    (stroke (width 0) (type default) (color 0 0 0 0))
    (uuid d5a3f356-8484-480c-8597-9e63dbdf848e)
  )
  (wire (pts (xy 247.65 66.04) (xy 247.65 64.77))
    (stroke (width 0) (type default) (color 0 0 0 0))
    (uuid db293caa-a836-4ccc-80a9-5f4edb0c654b)
  )
  (wire (pts (xy 184.15 68.58) (xy 186.69 68.58))
    (stroke (width 0) (type default) (color 0 0 0 0))
    (uuid db6bfd54-2a40-4e26-87b7-b6f923bfd76d)
  )
  (wire (pts (xy 50.8 110.49) (xy 54.61 110.49))
    (stroke (width 0) (type default) (color 0 0 0 0))
    (uuid dcf17675-ef74-4e3c-be62-145ece85e4da)
  )
  (wire (pts (xy 73.66 118.11) (xy 48.26 118.11))
    (stroke (width 0) (type default) (color 0 0 0 0))
    (uuid e486e535-4ea1-4db4-b397-b9aff106d62a)
  )
  (wire (pts (xy 247.65 55.88) (xy 247.65 54.61))
    (stroke (width 0) (type default) (color 0 0 0 0))
    (uuid e4dc80bc-0a4b-4fe0-be5f-f1b85fe2ec2b)
  )
  (wire (pts (xy 62.23 127) (xy 68.58 127))
    (stroke (width 0) (type default) (color 0 0 0 0))
    (uuid f07f7839-a5e0-4cca-abc5-5439ea065a5b)
  )
  (wire (pts (xy 232.41 55.88) (xy 237.49 55.88))
    (stroke (width 0) (type default) (color 0 0 0 0))
    (uuid f4d422ae-fee4-4e79-8f44-40be67155d40)
  )
  (wire (pts (xy 43.18 110.49) (xy 50.8 110.49))
    (stroke (width 0) (type default) (color 0 0 0 0))
    (uuid f6255d42-489a-4457-8d68-711bce759147)
  )
  (wire (pts (xy 59.69 36.83) (xy 57.15 36.83))
    (stroke (width 0) (type default) (color 0 0 0 0))
    (uuid fad01dd9-87f5-47e9-a195-60edcafba4a0)
  )
  (wire (pts (xy 73.66 115.57) (xy 73.66 118.11))
    (stroke (width 0) (type default) (color 0 0 0 0))
    (uuid fef6abb5-6721-484c-a8e2-e85bb51886e1)
  )

  (label "DTR" (at 177.8 78.74 0)
    (effects (font (size 1.27 1.27)) (justify left bottom))
    (uuid 0d86500c-70fe-4f24-b17d-10b2e67d5d56)
  )
  (label "USB_DN" (at 177.8 88.9 0)
    (effects (font (size 1.27 1.27)) (justify left bottom))
    (uuid 0f19d9b9-d2ef-44db-9e01-5a6cbd957d39)
  )
  (label "USB_DP" (at 58.42 41.91 0)
    (effects (font (size 1.27 1.27)) (justify left bottom))
    (uuid 16393da2-1d57-44a3-9211-e3b5dcea63d9)
  )
  (label "USB_DN" (at 50.8 39.37 0)
    (effects (font (size 1.27 1.27)) (justify left bottom))
    (uuid 452fa7d2-9102-46eb-8ca7-97312785e0e8)
  )
  (label "RTS" (at 177.8 71.12 0)
    (effects (font (size 1.27 1.27)) (justify left bottom))
    (uuid 5a89d0fe-a1e3-4270-bff8-02e3cdec7c36)
  )
  (label "USB_DP" (at 177.8 86.36 0)
    (effects (font (size 1.27 1.27)) (justify left bottom))
    (uuid 7c985d28-a910-4166-ab52-f771fef485cd)
  )
  (label "RTS" (at 43.18 127 0)
    (effects (font (size 1.27 1.27)) (justify left bottom))
    (uuid 936691a2-9a8d-487c-9fd9-ef9431a15424)
  )
  (label "DTR" (at 43.18 110.49 0)
    (effects (font (size 1.27 1.27)) (justify left bottom))
    (uuid b1ca7d76-fa5f-4483-b6be-d461315b3991)
  )

  (hierarchical_label "TXD0" (shape input) (at 184.15 66.04 180)
    (effects (font (size 1.27 1.27)) (justify right))
    (uuid 74fa63ae-bfa8-401e-806a-1642a10b4b98)
  )
  (hierarchical_label "I0O" (shape input) (at 76.2 134.62 0)
    (effects (font (size 1.27 1.27)) (justify left))
    (uuid 90685dac-3edc-45e6-bc84-7aac576557a6)
  )
  (hierarchical_label "RXD0" (shape input) (at 184.15 68.58 180)
    (effects (font (size 1.27 1.27)) (justify right))
    (uuid 97ca597b-e10f-465a-b120-25d8173b2584)
  )
  (hierarchical_label "EN" (shape input) (at 76.2 102.87 0)
    (effects (font (size 1.27 1.27)) (justify left))
    (uuid fb79e48b-c541-49ac-8513-dd16a73deb39)
  )

  (symbol (lib_id "roket-rescue:10118194-0001LF-dk_USB-DVI-HDMI-Connectors") (at 88.9 41.91 0) (mirror y) (unit 1)
    (in_bom yes) (on_board yes)
    (uuid 00000000-0000-0000-0000-000060970dfa)
    (property "Reference" "J4" (id 0) (at 94.3356 41.3004 0)
      (effects (font (size 1.524 1.524)) (justify right))
    )
    (property "Value" "10118194-0001LF" (id 1) (at 94.3356 43.9928 0)
      (effects (font (size 1.524 1.524)) (justify right))
    )
    (property "Footprint" "digikey-footprints:USB_Micro_B_Female_10118194-0001LF" (id 2) (at 83.82 36.83 0)
      (effects (font (size 1.524 1.524)) (justify left) hide)
    )
    (property "Datasheet" "http://www.amphenol-icc.com/media/wysiwyg/files/drawing/10118194.pdf" (id 3) (at 83.82 34.29 0)
      (effects (font (size 1.524 1.524)) (justify left) hide)
    )
    (property "Digi-Key_PN" "609-4618-1-ND" (id 4) (at 83.82 31.75 0)
      (effects (font (size 1.524 1.524)) (justify left) hide)
    )
    (property "MPN" "10118194-0001LF" (id 5) (at 83.82 29.21 0)
      (effects (font (size 1.524 1.524)) (justify left) hide)
    )
    (property "Category" "Connectors, Interconnects" (id 6) (at 83.82 26.67 0)
      (effects (font (size 1.524 1.524)) (justify left) hide)
    )
    (property "Family" "USB, DVI, HDMI Connectors" (id 7) (at 83.82 24.13 0)
      (effects (font (size 1.524 1.524)) (justify left) hide)
    )
    (property "DK_Datasheet_Link" "http://www.amphenol-icc.com/media/wysiwyg/files/drawing/10118194.pdf" (id 8) (at 83.82 21.59 0)
      (effects (font (size 1.524 1.524)) (justify left) hide)
    )
    (property "DK_Detail_Page" "/product-detail/en/amphenol-icc-fci/10118194-0001LF/609-4618-1-ND/2785382" (id 9) (at 83.82 19.05 0)
      (effects (font (size 1.524 1.524)) (justify left) hide)
    )
    (property "Description" "CONN RCPT USB2.0 MICRO B SMD R/A" (id 10) (at 83.82 16.51 0)
      (effects (font (size 1.524 1.524)) (justify left) hide)
    )
    (property "Manufacturer" "Amphenol ICC (FCI)" (id 11) (at 83.82 13.97 0)
      (effects (font (size 1.524 1.524)) (justify left) hide)
    )
    (property "Status" "Active" (id 12) (at 83.82 11.43 0)
      (effects (font (size 1.524 1.524)) (justify left) hide)
    )
    (pin "1" (uuid a55753a8-38aa-4b72-ae40-af1a62c5c84b))
    (pin "2" (uuid f0ab3d62-a087-4fda-9be0-7c97d4300f97))
    (pin "3" (uuid 384c80ff-3a43-462b-b3af-378d7d3df27f))
    (pin "4" (uuid 3f31e380-04ff-415e-a2cf-5868e931e122))
    (pin "5" (uuid cfd7f9bf-48e4-4ff2-b434-5a75e2de9793))
    (pin "SH" (uuid f3d202fb-0c8b-4f89-8820-75c83f4018d7))
  )

  (symbol (lib_id "power:GND") (at 91.44 59.69 0) (unit 1)
    (in_bom yes) (on_board yes)
    (uuid 00000000-0000-0000-0000-000060987d11)
    (property "Reference" "#PWR056" (id 0) (at 91.44 66.04 0)
      (effects (font (size 1.27 1.27)) hide)
    )
    (property "Value" "GND" (id 1) (at 91.567 64.0842 0))
    (property "Footprint" "" (id 2) (at 91.44 59.69 0)
      (effects (font (size 1.27 1.27)) hide)
    )
    (property "Datasheet" "" (id 3) (at 91.44 59.69 0)
      (effects (font (size 1.27 1.27)) hide)
    )
    (pin "1" (uuid 4f5bced4-eeed-44c6-9970-b82c31b45a1c))
  )

  (symbol (lib_id "roket-rescue:CP2102N-A01-GQFN28-CP2102N-A01-GQFN28") (at 209.55 83.82 0) (unit 1)
    (in_bom yes) (on_board yes)
    (uuid 00000000-0000-0000-0000-000060a1778d)
    (property "Reference" "U7" (id 0) (at 209.55 49.0982 0))
    (property "Value" "CP2102N-A01-GQFN28" (id 1) (at 209.55 51.4096 0))
    (property "Footprint" "Package_DFN_QFN:QFN-28-1EP_5x5mm_P0.5mm_EP3.35x3.35mm" (id 2) (at 209.55 83.82 0)
      (effects (font (size 1.27 1.27)) (justify left bottom) hide)
    )
    (property "Datasheet" "" (id 3) (at 209.55 83.82 0)
      (effects (font (size 1.27 1.27)) (justify left bottom) hide)
    )
    (property "MAXIMUM_PACKAGE_HEIGHT" "0.8mm" (id 4) (at 209.55 83.82 0)
      (effects (font (size 1.27 1.27)) (justify left bottom) hide)
    )
    (property "STANDARD" "IPC 7351B" (id 5) (at 209.55 83.82 0)
      (effects (font (size 1.27 1.27)) (justify left bottom) hide)
    )
    (property "PARTREV" "1.0" (id 6) (at 209.55 83.82 0)
      (effects (font (size 1.27 1.27)) (justify left bottom) hide)
    )
    (property "MANUFACTURER" "SILICON LABS" (id 7) (at 209.55 83.82 0)
      (effects (font (size 1.27 1.27)) (justify left bottom) hide)
    )
    (pin "1" (uuid b0e084cf-70d9-4379-95d8-ab78f575a265))
    (pin "10" (uuid 098e965b-817f-40dc-aa5a-18e6a23d2736))
    (pin "11" (uuid e5b26696-6934-433c-bd36-371123ee6c77))
    (pin "12" (uuid 55525bc9-4c46-4189-9657-f33027c23b94))
    (pin "13" (uuid 9748e643-68cd-41e9-b96d-65ad5f6cfef7))
    (pin "14" (uuid 4082ecc5-2261-4eeb-9aec-21b5ca2a3b22))
    (pin "15" (uuid 8980effa-c050-4961-adbb-84ca7367df83))
    (pin "16" (uuid 15f42b70-9caa-429c-9e8d-5d546dbd9466))
    (pin "17" (uuid c871c076-b2c6-474e-94a0-1de65d729d79))
    (pin "18" (uuid 14aac8ad-95e8-48f7-a824-eb3bbcc417b6))
    (pin "19" (uuid c5ebc8cf-0696-4c34-9d02-2e07a6969793))
    (pin "2" (uuid 9d0814da-8927-40d6-9db5-ff56c9e460e4))
    (pin "20" (uuid ff1359fd-4cbd-4c81-96fb-5de9146d8f72))
    (pin "21" (uuid 96678e84-62e8-4ad9-a15c-4f92a822e8ea))
    (pin "22" (uuid 571e4afd-bfc4-4308-ac49-e955913a1bee))
    (pin "23" (uuid 86792866-b490-4bc7-8d12-47291ad6ad3d))
    (pin "24" (uuid a036451a-6651-40dd-8187-337211cdaf6c))
    (pin "25" (uuid 17ea0267-78f4-45e8-a4d0-317cab1c1638))
    (pin "26" (uuid efa3c3de-31a6-47f2-9cc9-5b7c895c5777))
    (pin "27" (uuid 5ceb371d-54e9-4cca-80e1-a121066d5f38))
    (pin "28" (uuid 4ecb8e01-4ab3-41a1-84e1-d473b0688d1d))
    (pin "29" (uuid 427f4b36-3a56-4770-a33e-8c221e5d9842))
    (pin "3" (uuid 5965afea-d85f-4614-b266-9044185c9649))
    (pin "4" (uuid df3d1cba-178b-45a4-8f09-97de454b24ba))
    (pin "5" (uuid 3e9764be-348e-49ed-91ab-cfb0c90e81e5))
    (pin "6" (uuid bbb9c713-8322-412c-8a4b-ca07aead7539))
    (pin "7" (uuid 7281b9f5-4fae-4569-9605-c6c1900d9f44))
    (pin "8" (uuid 97604502-4a52-4d06-862e-6985a5ae7eee))
    (pin "9" (uuid 0ed56c02-882a-4e8a-b23b-97a7a26ea9e6))
  )

  (symbol (lib_id "roket-rescue:SS8050-G-SS8050-G") (at 71.12 110.49 0) (unit 1)
    (in_bom yes) (on_board yes)
    (uuid 00000000-0000-0000-0000-000060a18e8c)
    (property "Reference" "Q3" (id 0) (at 74.7776 109.3216 0)
      (effects (font (size 1.27 1.27)) (justify left))
    )
    (property "Value" "SS8050-G" (id 1) (at 74.7776 111.633 0)
      (effects (font (size 1.27 1.27)) (justify left))
    )
    (property "Footprint" "digikey-footprints:SOT-23-3" (id 2) (at 71.12 110.49 0)
      (effects (font (size 1.27 1.27)) (justify left bottom) hide)
    )
    (property "Datasheet" "" (id 3) (at 71.12 110.49 0)
      (effects (font (size 1.27 1.27)) (justify left bottom) hide)
    )
    (property "STANDARD" "IPC 7351B" (id 4) (at 71.12 110.49 0)
      (effects (font (size 1.27 1.27)) (justify left bottom) hide)
    )
    (property "PARTREV" "7" (id 5) (at 71.12 110.49 0)
      (effects (font (size 1.27 1.27)) (justify left bottom) hide)
    )
    (property "MAXIMUM_PACKAGE_HEIGHT" "1.1 mm" (id 6) (at 71.12 110.49 0)
      (effects (font (size 1.27 1.27)) (justify left bottom) hide)
    )
    (property "MANUFACTURER" "Nexperia" (id 7) (at 71.12 110.49 0)
      (effects (font (size 1.27 1.27)) (justify left bottom) hide)
    )
    (pin "1" (uuid ad4dd6c8-88f6-46ca-a373-9f43dfcac87d))
    (pin "2" (uuid c254a481-7a87-40af-9d9a-bf236365b1fa))
    (pin "3" (uuid 5b7e07a6-35c8-479e-97b0-ec670647c70d))
  )

  (symbol (lib_id "roket-rescue:SS8050-G-SS8050-G") (at 71.12 127 0) (mirror x) (unit 1)
    (in_bom yes) (on_board yes)
    (uuid 00000000-0000-0000-0000-000060a195e8)
    (property "Reference" "Q4" (id 0) (at 74.7776 125.8316 0)
      (effects (font (size 1.27 1.27)) (justify left))
    )
    (property "Value" "SS8050-G" (id 1) (at 74.7776 128.143 0)
      (effects (font (size 1.27 1.27)) (justify left))
    )
    (property "Footprint" "digikey-footprints:SOT-23-3" (id 2) (at 71.12 127 0)
      (effects (font (size 1.27 1.27)) (justify left bottom) hide)
    )
    (property "Datasheet" "" (id 3) (at 71.12 127 0)
      (effects (font (size 1.27 1.27)) (justify left bottom) hide)
    )
    (property "STANDARD" "IPC 7351B" (id 4) (at 71.12 127 0)
      (effects (font (size 1.27 1.27)) (justify left bottom) hide)
    )
    (property "PARTREV" "7" (id 5) (at 71.12 127 0)
      (effects (font (size 1.27 1.27)) (justify left bottom) hide)
    )
    (property "MAXIMUM_PACKAGE_HEIGHT" "1.1 mm" (id 6) (at 71.12 127 0)
      (effects (font (size 1.27 1.27)) (justify left bottom) hide)
    )
    (property "MANUFACTURER" "Nexperia" (id 7) (at 71.12 127 0)
      (effects (font (size 1.27 1.27)) (justify left bottom) hide)
    )
    (pin "1" (uuid 6845f8ec-8637-45fb-826d-83bd96f592b7))
    (pin "2" (uuid c5e5f9e7-dd4c-4874-842a-09c41a3cb951))
    (pin "3" (uuid 02035af9-5d3f-4b63-8b8c-44abc3fce41a))
  )

  (symbol (lib_id "roket-rescue:Cap-805_cap") (at 237.49 59.69 270) (unit 1)
    (in_bom yes) (on_board yes)
    (uuid 00000000-0000-0000-0000-000060a221d8)
    (property "Reference" "C16" (id 0) (at 240.1062 59.7916 90)
      (effects (font (size 1.27 1.27)) (justify left))
    )
    (property "Value" "0.1uF" (id 1) (at 240.1062 62.103 90)
      (effects (font (size 1.27 1.27)) (justify left))
    )
    (property "Footprint" "Capacitor_SMD:C_0805_2012Metric" (id 2) (at 237.49 59.69 0)
      (effects (font (size 1.27 1.27)) (justify left bottom) hide)
    )
    (property "Datasheet" "" (id 3) (at 237.49 59.69 0)
      (effects (font (size 1.27 1.27)) (justify left bottom) hide)
    )
    (pin "1" (uuid f21d6fea-70e0-4161-96e3-d34c7c9dcae9))
    (pin "2" (uuid b110e8eb-87ca-4279-8b89-e0cd5fd08d36))
  )

  (symbol (lib_id "power:GND") (at 237.49 66.04 0) (unit 1)
    (in_bom yes) (on_board yes)
    (uuid 00000000-0000-0000-0000-000060a221de)
    (property "Reference" "#PWR060" (id 0) (at 237.49 72.39 0)
      (effects (font (size 1.27 1.27)) hide)
    )
    (property "Value" "GND" (id 1) (at 237.617 70.4342 0))
    (property "Footprint" "" (id 2) (at 237.49 66.04 0)
      (effects (font (size 1.27 1.27)) hide)
    )
    (property "Datasheet" "" (id 3) (at 237.49 66.04 0)
      (effects (font (size 1.27 1.27)) hide)
    )
    (pin "1" (uuid 3f61042e-6b09-403a-ba8c-4f012e223599))
  )

  (symbol (lib_id "roket-rescue:Cap-805_cap") (at 247.65 59.69 270) (unit 1)
    (in_bom yes) (on_board yes)
    (uuid 00000000-0000-0000-0000-000060a22482)
    (property "Reference" "C17" (id 0) (at 250.2662 59.7916 90)
      (effects (font (size 1.27 1.27)) (justify left))
    )
    (property "Value" "4.7uF" (id 1) (at 250.2662 62.103 90)
      (effects (font (size 1.27 1.27)) (justify left))
    )
    (property "Footprint" "Capacitor_SMD:C_0805_2012Metric" (id 2) (at 247.65 59.69 0)
      (effects (font (size 1.27 1.27)) (justify left bottom) hide)
    )
    (property "Datasheet" "" (id 3) (at 247.65 59.69 0)
      (effects (font (size 1.27 1.27)) (justify left bottom) hide)
    )
    (pin "1" (uuid becb0c7e-e225-4c7a-8932-4e63f8793573))
    (pin "2" (uuid 066f0283-36d1-4be4-a612-426696eaa6e9))
  )

  (symbol (lib_id "power:GND") (at 247.65 66.04 0) (unit 1)
    (in_bom yes) (on_board yes)
    (uuid 00000000-0000-0000-0000-000060a22488)
    (property "Reference" "#PWR061" (id 0) (at 247.65 72.39 0)
      (effects (font (size 1.27 1.27)) hide)
    )
    (property "Value" "GND" (id 1) (at 247.777 70.4342 0))
    (property "Footprint" "" (id 2) (at 247.65 66.04 0)
      (effects (font (size 1.27 1.27)) hide)
    )
    (property "Datasheet" "" (id 3) (at 247.65 66.04 0)
      (effects (font (size 1.27 1.27)) hide)
    )
    (pin "1" (uuid 708a8944-dd88-4e18-a319-21d04b366237))
  )

  (symbol (lib_id "Device:R_US") (at 58.42 110.49 90) (unit 1)
    (in_bom yes) (on_board yes)
    (uuid 00000000-0000-0000-0000-000060a22d31)
    (property "Reference" "R23" (id 0) (at 57.2516 108.7628 90)
      (effects (font (size 1.27 1.27)) (justify left))
    )
    (property "Value" "10K" (id 1) (at 59.563 108.7628 90)
      (effects (font (size 1.27 1.27)) (justify right))
    )
    (property "Footprint" "Resistor_SMD:R_0805_2012Metric" (id 2) (at 58.674 109.474 90)
      (effects (font (size 1.27 1.27)) hide)
    )
    (property "Datasheet" "~" (id 3) (at 58.42 110.49 0)
      (effects (font (size 1.27 1.27)) hide)
    )
    (pin "1" (uuid 2e9d0de8-c0e0-484c-8198-b61ff0159394))
    (pin "2" (uuid 87b0e656-9371-44b2-8d52-aada629ce711))
  )

  (symbol (lib_id "Device:R_US") (at 58.42 127 90) (unit 1)
    (in_bom yes) (on_board yes)
    (uuid 00000000-0000-0000-0000-000060a22ea8)
    (property "Reference" "R24" (id 0) (at 57.2516 125.2728 90)
      (effects (font (size 1.27 1.27)) (justify left))
    )
    (property "Value" "10K" (id 1) (at 59.563 125.2728 90)
      (effects (font (size 1.27 1.27)) (justify right))
    )
    (property "Footprint" "Resistor_SMD:R_0805_2012Metric" (id 2) (at 58.674 125.984 90)
      (effects (font (size 1.27 1.27)) hide)
    )
    (property "Datasheet" "~" (id 3) (at 58.42 127 0)
      (effects (font (size 1.27 1.27)) hide)
    )
    (pin "1" (uuid ed80a15f-2703-494e-8c12-e2f2b0b342dd))
    (pin "2" (uuid a8b89653-821e-472f-93aa-c148ec762a5b))
  )

  (symbol (lib_id "power:+3.3V") (at 247.65 54.61 0) (unit 1)
    (in_bom yes) (on_board yes)
    (uuid 00000000-0000-0000-0000-000060a245b3)
    (property "Reference" "#PWR055" (id 0) (at 247.65 58.42 0)
      (effects (font (size 1.27 1.27)) hide)
    )
    (property "Value" "+3.3V" (id 1) (at 248.031 50.2158 0))
    (property "Footprint" "" (id 2) (at 247.65 54.61 0)
      (effects (font (size 1.27 1.27)) hide)
    )
    (property "Datasheet" "" (id 3) (at 247.65 54.61 0)
      (effects (font (size 1.27 1.27)) hide)
    )
    (pin "1" (uuid 944ae8b7-f165-4efb-8ba9-a481d997c993))
  )

  (symbol (lib_id "roket-rescue:SS24-SS24") (at 64.77 36.83 180) (unit 1)
    (in_bom yes) (on_board yes)
    (uuid 00000000-0000-0000-0000-000060a2ea2e)
    (property "Reference" "D5" (id 0) (at 64.77 31.3182 0))
    (property "Value" "SS24" (id 1) (at 64.77 33.6296 0))
    (property "Footprint" "others:SS24" (id 2) (at 64.77 36.83 0)
      (effects (font (size 1.27 1.27)) (justify left bottom) hide)
    )
    (property "Datasheet" "" (id 3) (at 64.77 36.83 0)
      (effects (font (size 1.27 1.27)) (justify left bottom) hide)
    )
    (property "STANDARD" "IPC 7351B" (id 4) (at 64.77 36.83 0)
      (effects (font (size 1.27 1.27)) (justify left bottom) hide)
    )
    (property "PARTREV" "1.1.2" (id 5) (at 64.77 36.83 0)
      (effects (font (size 1.27 1.27)) (justify left bottom) hide)
    )
    (property "MANUFACTURER" "ON Semiconductor" (id 6) (at 64.77 36.83 0)
      (effects (font (size 1.27 1.27)) (justify left bottom) hide)
    )
    (property "MAXIMUM_PACKAGE_HEIGHT" "2.65 mm" (id 7) (at 64.77 36.83 0)
      (effects (font (size 1.27 1.27)) (justify left bottom) hide)
    )
    (pin "A" (uuid bd9485b1-35e2-43ba-a4c3-5191e94d2ae4))
    (pin "C" (uuid 5170b298-3e54-41bb-b5e8-4732666e91da))
  )

  (symbol (lib_id "roket-rescue:PESD1LIN-SOD323_ESD") (at 81.28 53.34 0) (unit 1)
    (in_bom yes) (on_board yes)
    (uuid 00000000-0000-0000-0000-000060a30002)
    (property "Reference" "D8" (id 0) (at 75.692 53.4416 0)
      (effects (font (size 1.27 1.27)) (justify left))
    )
    (property "Value" "ESD" (id 1) (at 75.692 55.753 0)
      (effects (font (size 1.27 1.27)) (justify left))
    )
    (property "Footprint" "Diode_SMD:D_SOD-323" (id 2) (at 81.28 53.34 0)
      (effects (font (size 1.27 1.27)) (justify left bottom) hide)
    )
    (property "Datasheet" "" (id 3) (at 81.28 53.34 0)
      (effects (font (size 1.27 1.27)) (justify left bottom) hide)
    )
    (pin "1" (uuid 93e14d47-c4a1-4c32-a258-8039389aaebb))
    (pin "2" (uuid bdc5eadb-28e0-4c6c-93ff-07ea762c53d6))
  )

  (symbol (lib_id "roket-rescue:PESD1LIN-SOD323_ESD") (at 66.04 53.34 0) (unit 1)
    (in_bom yes) (on_board yes)
    (uuid 00000000-0000-0000-0000-000060a34639)
    (property "Reference" "D7" (id 0) (at 60.452 53.4416 0)
      (effects (font (size 1.27 1.27)) (justify left))
    )
    (property "Value" "ESD" (id 1) (at 60.452 55.753 0)
      (effects (font (size 1.27 1.27)) (justify left))
    )
    (property "Footprint" "Diode_SMD:D_SOD-323" (id 2) (at 66.04 53.34 0)
      (effects (font (size 1.27 1.27)) (justify left bottom) hide)
    )
    (property "Datasheet" "" (id 3) (at 66.04 53.34 0)
      (effects (font (size 1.27 1.27)) (justify left bottom) hide)
    )
    (pin "1" (uuid 03d689b0-ae1d-4b23-a70d-4537d653dbb6))
    (pin "2" (uuid b047e162-de05-409d-89c4-ab32c3f25647))
  )

  (symbol (lib_id "roket-rescue:PESD1LIN-SOD323_ESD") (at 58.42 53.34 0) (unit 1)
    (in_bom yes) (on_board yes)
    (uuid 00000000-0000-0000-0000-000060a34e82)
    (property "Reference" "D6" (id 0) (at 52.832 53.4416 0)
      (effects (font (size 1.27 1.27)) (justify left))
    )
    (property "Value" "ESD" (id 1) (at 52.832 55.753 0)
      (effects (font (size 1.27 1.27)) (justify left))
    )
    (property "Footprint" "Diode_SMD:D_SOD-323" (id 2) (at 58.42 53.34 0)
      (effects (font (size 1.27 1.27)) (justify left bottom) hide)
    )
    (property "Datasheet" "" (id 3) (at 58.42 53.34 0)
      (effects (font (size 1.27 1.27)) (justify left bottom) hide)
    )
    (pin "1" (uuid 72f3d5b7-1b99-43f7-821f-b3de57fd6102))
    (pin "2" (uuid aa0a89ff-0c92-4cd0-b912-3c7ac37e0490))
  )

  (symbol (lib_id "power:GND") (at 50.8 62.23 0) (unit 1)
    (in_bom yes) (on_board yes)
    (uuid 00000000-0000-0000-0000-000060a3ecb4)
    (property "Reference" "#PWR057" (id 0) (at 50.8 68.58 0)
      (effects (font (size 1.27 1.27)) hide)
    )
    (property "Value" "GND" (id 1) (at 50.927 66.6242 0))
    (property "Footprint" "" (id 2) (at 50.8 62.23 0)
      (effects (font (size 1.27 1.27)) hide)
    )
    (property "Datasheet" "" (id 3) (at 50.8 62.23 0)
      (effects (font (size 1.27 1.27)) hide)
    )
    (pin "1" (uuid 3910b60f-305a-4ad7-a275-2ffe2d16e000))
  )

  (symbol (lib_id "power:GND") (at 58.42 62.23 0) (unit 1)
    (in_bom yes) (on_board yes)
    (uuid 00000000-0000-0000-0000-000060a3f337)
    (property "Reference" "#PWR058" (id 0) (at 58.42 68.58 0)
      (effects (font (size 1.27 1.27)) hide)
    )
    (property "Value" "GND" (id 1) (at 58.547 66.6242 0))
    (property "Footprint" "" (id 2) (at 58.42 62.23 0)
      (effects (font (size 1.27 1.27)) hide)
    )
    (property "Datasheet" "" (id 3) (at 58.42 62.23 0)
      (effects (font (size 1.27 1.27)) hide)
    )
    (pin "1" (uuid 16d5f390-dd46-4f0a-a47c-cc6b450a25d7))
  )

  (symbol (lib_id "power:GND") (at 73.66 62.23 0) (unit 1)
    (in_bom yes) (on_board yes)
    (uuid 00000000-0000-0000-0000-000060a400c8)
    (property "Reference" "#PWR059" (id 0) (at 73.66 68.58 0)
      (effects (font (size 1.27 1.27)) hide)
    )
    (property "Value" "GND" (id 1) (at 73.787 66.6242 0))
    (property "Footprint" "" (id 2) (at 73.66 62.23 0)
      (effects (font (size 1.27 1.27)) hide)
    )
    (property "Datasheet" "" (id 3) (at 73.66 62.23 0)
      (effects (font (size 1.27 1.27)) hide)
    )
    (pin "1" (uuid 8e4f9990-8d8d-4df1-b008-1bb81da7b766))
  )

  (symbol (lib_id "power:GND") (at 81.28 52.07 0) (unit 1)
    (in_bom yes) (on_board yes)
    (uuid 00000000-0000-0000-0000-000060a407f6)
    (property "Reference" "#PWR053" (id 0) (at 81.28 58.42 0)
      (effects (font (size 1.27 1.27)) hide)
    )
    (property "Value" "GND" (id 1) (at 81.407 56.4642 0))
    (property "Footprint" "" (id 2) (at 81.28 52.07 0)
      (effects (font (size 1.27 1.27)) hide)
    )
    (property "Datasheet" "" (id 3) (at 81.28 52.07 0)
      (effects (font (size 1.27 1.27)) hide)
    )
    (pin "1" (uuid beed5f1a-0a0a-4822-847d-cdbf0da399bd))
  )

  (symbol (lib_id "power:GND") (at 232.41 113.03 0) (unit 1)
    (in_bom yes) (on_board yes)
    (uuid 00000000-0000-0000-0000-000060a4273f)
    (property "Reference" "#PWR063" (id 0) (at 232.41 119.38 0)
      (effects (font (size 1.27 1.27)) hide)
    )
    (property "Value" "GND" (id 1) (at 232.537 117.4242 0))
    (property "Footprint" "" (id 2) (at 232.41 113.03 0)
      (effects (font (size 1.27 1.27)) hide)
    )
    (property "Datasheet" "" (id 3) (at 232.41 113.03 0)
      (effects (font (size 1.27 1.27)) hide)
    )
    (pin "1" (uuid ec3585bc-2523-4b9a-a1a1-70b09fc873ab))
  )

  (symbol (lib_id "Device:R_US") (at 179.07 93.98 90) (unit 1)
    (in_bom yes) (on_board yes)
    (uuid 00000000-0000-0000-0000-000060a43ee1)
    (property "Reference" "R22" (id 0) (at 177.9016 92.2528 90)
      (effects (font (size 1.27 1.27)) (justify left))
    )
    (property "Value" "2K" (id 1) (at 180.213 92.2528 90)
      (effects (font (size 1.27 1.27)) (justify right))
    )
    (property "Footprint" "Resistor_SMD:R_0805_2012Metric" (id 2) (at 179.324 92.964 90)
      (effects (font (size 1.27 1.27)) hide)
    )
    (property "Datasheet" "~" (id 3) (at 179.07 93.98 0)
      (effects (font (size 1.27 1.27)) hide)
    )
    (pin "1" (uuid e00d01ec-b561-465f-812c-3ba086b59620))
    (pin "2" (uuid 093d4ba8-137f-470f-9277-a2a6f79a6467))
  )

  (symbol (lib_id "power:+3.3V") (at 172.72 93.98 0) (unit 1)
    (in_bom yes) (on_board yes)
    (uuid 00000000-0000-0000-0000-000060a44d30)
    (property "Reference" "#PWR062" (id 0) (at 172.72 97.79 0)
      (effects (font (size 1.27 1.27)) hide)
    )
    (property "Value" "+3.3V" (id 1) (at 173.101 89.5858 0))
    (property "Footprint" "" (id 2) (at 172.72 93.98 0)
      (effects (font (size 1.27 1.27)) hide)
    )
    (property "Datasheet" "" (id 3) (at 172.72 93.98 0)
      (effects (font (size 1.27 1.27)) hide)
    )
    (pin "1" (uuid 37e826c9-7182-43cd-a93c-61434972474c))
  )

  (symbol (lib_id "power:+3.3V") (at 184.15 54.61 0) (unit 1)
    (in_bom yes) (on_board yes)
    (uuid 00000000-0000-0000-0000-000061429282)
    (property "Reference" "#PWR054" (id 0) (at 184.15 58.42 0)
      (effects (font (size 1.27 1.27)) hide)
    )
    (property "Value" "+3.3V" (id 1) (at 184.531 50.2158 0))
    (property "Footprint" "" (id 2) (at 184.15 54.61 0)
      (effects (font (size 1.27 1.27)) hide)
    )
    (property "Datasheet" "" (id 3) (at 184.15 54.61 0)
      (effects (font (size 1.27 1.27)) hide)
    )
    (pin "1" (uuid f43b6fbc-98ed-4282-b02a-f49b6f78fa86))
  )

  (symbol (lib_id "power:VCC") (at 57.15 35.56 0) (unit 1)
    (in_bom yes) (on_board yes)
    (uuid 00000000-0000-0000-0000-0000617d28c8)
    (property "Reference" "#PWR052" (id 0) (at 57.15 39.37 0)
      (effects (font (size 1.27 1.27)) hide)
    )
    (property "Value" "VCC" (id 1) (at 57.531 31.1658 0))
    (property "Footprint" "" (id 2) (at 57.15 35.56 0)
      (effects (font (size 1.27 1.27)) hide)
    )
    (property "Datasheet" "" (id 3) (at 57.15 35.56 0)
      (effects (font (size 1.27 1.27)) hide)
    )
    (pin "1" (uuid 0822d0ec-a5c4-4561-8050-a9b0689c1d84))
  )
)
