(kicad_sch (version 20211123) (generator eeschema)

  (uuid ca28eea6-02de-428b-af17-c69b37440b4a)

  (paper "A4")

  (lib_symbols
    (symbol "SparkFun-Clocks:CRYSTAL-32.768KHZSMD-3.2X1.5" (pin_numbers hide) (pin_names (offset 1.016) hide) (in_bom yes) (on_board yes)
      (property "Reference" "Y" (id 0) (at 0 2.54 0)
        (effects (font (size 1.143 1.143)) (justify left bottom))
      )
      (property "Value" "SparkFun-Clocks_CRYSTAL-32.768KHZSMD-3.2X1.5" (id 1) (at 0 -3.81 0)
        (effects (font (size 1.143 1.143)) (justify left bottom))
      )
      (property "Footprint" "CRYSTAL-SMD-3.2X1.5MM" (id 2) (at 0 5.08 0)
        (effects (font (size 0.508 0.508)) hide)
      )
      (property "Datasheet" "" (id 3) (at 0 0 0)
        (effects (font (size 1.27 1.27)) hide)
      )
      (property "Field4" "XTAL-13062" (id 4) (at 0 6.35 0)
        (effects (font (size 1.524 1.524)))
      )
      (property "ki_locked" "" (id 5) (at 0 0 0)
        (effects (font (size 1.27 1.27)))
      )
      (property "ki_fp_filters" "*CRYSTAL-SMD-3.2X1.5MM*" (id 6) (at 0 0 0)
        (effects (font (size 1.27 1.27)) hide)
      )
      (symbol "CRYSTAL-32.768KHZSMD-3.2X1.5_1_0"
        (polyline
          (pts
            (xy -2.54 0)
            (xy -1.016 0)
          )
          (stroke (width 0) (type default) (color 0 0 0 0))
          (fill (type none))
        )
        (polyline
          (pts
            (xy -1.016 1.778)
            (xy -1.016 -1.778)
          )
          (stroke (width 0) (type default) (color 0 0 0 0))
          (fill (type none))
        )
        (polyline
          (pts
            (xy 1.016 0)
            (xy 2.54 0)
          )
          (stroke (width 0) (type default) (color 0 0 0 0))
          (fill (type none))
        )
        (polyline
          (pts
            (xy 1.016 1.778)
            (xy 1.016 -1.778)
          )
          (stroke (width 0) (type default) (color 0 0 0 0))
          (fill (type none))
        )
        (text "1" (at -1.8288 -0.7874 0)
          (effects (font (size 0.6858 0.6858)))
        )
        (text "2" (at 1.8542 -0.7874 0)
          (effects (font (size 0.6858 0.6858)))
        )
      )
      (symbol "CRYSTAL-32.768KHZSMD-3.2X1.5_1_1"
        (polyline
          (pts
            (xy -0.381 1.524)
            (xy -0.381 -1.524)
            (xy 0.381 -1.524)
            (xy 0.381 1.524)
            (xy -0.381 1.524)
          )
          (stroke (width 0) (type default) (color 0 0 0 0))
          (fill (type background))
        )
        (pin passive line (at -2.54 0 0) (length 0)
          (name "1" (effects (font (size 1.016 1.016))))
          (number "P$1" (effects (font (size 1.016 1.016))))
        )
        (pin passive line (at 2.54 0 180) (length 0)
          (name "2" (effects (font (size 1.016 1.016))))
          (number "P$2" (effects (font (size 1.016 1.016))))
        )
      )
    )
    (symbol "dk_Motion-Sensors-IMUs-Inertial-Measurement-Units:BNO055" (pin_names (offset 1.016)) (in_bom yes) (on_board yes)
      (property "Reference" "U" (id 0) (at -15.24 13.97 0)
        (effects (font (size 1.27 1.27)) (justify left))
      )
      (property "Value" "BNO055" (id 1) (at -1.27 -1.27 90)
        (effects (font (size 1.27 1.27)))
      )
      (property "Footprint" "digikey-footprints:LGA-28_5.2x3.8mm_BNO0055" (id 2) (at 5.08 5.08 0)
        (effects (font (size 1.524 1.524)) (justify left) hide)
      )
      (property "Datasheet" "https://ae-bst.resource.bosch.com/media/_tech/media/datasheets/BST-BNO055-DS000.pdf" (id 3) (at 5.08 7.62 0)
        (effects (font (size 1.524 1.524)) (justify left) hide)
      )
      (property "Digi-Key_PN" "828-1058-1-ND" (id 4) (at 5.08 10.16 0)
        (effects (font (size 1.524 1.524)) (justify left) hide)
      )
      (property "MPN" "BNO055" (id 5) (at 5.08 12.7 0)
        (effects (font (size 1.524 1.524)) (justify left) hide)
      )
      (property "Category" "Sensors, Transducers" (id 6) (at 5.08 15.24 0)
        (effects (font (size 1.524 1.524)) (justify left) hide)
      )
      (property "Family" "Motion Sensors - IMUs (Inertial Measurement Units)" (id 7) (at 5.08 17.78 0)
        (effects (font (size 1.524 1.524)) (justify left) hide)
      )
      (property "DK_Datasheet_Link" "https://ae-bst.resource.bosch.com/media/_tech/media/datasheets/BST-BNO055-DS000.pdf" (id 8) (at 5.08 20.32 0)
        (effects (font (size 1.524 1.524)) (justify left) hide)
      )
      (property "DK_Detail_Page" "/product-detail/en/bosch-sensortec/BNO055/828-1058-1-ND/6136309" (id 9) (at 5.08 22.86 0)
        (effects (font (size 1.524 1.524)) (justify left) hide)
      )
      (property "Description" "IMU ACCEL/GYRO/MAG I2C 28LGA" (id 10) (at 5.08 25.4 0)
        (effects (font (size 1.524 1.524)) (justify left) hide)
      )
      (property "Manufacturer" "Bosch Sensortec" (id 11) (at 5.08 27.94 0)
        (effects (font (size 1.524 1.524)) (justify left) hide)
      )
      (property "Status" "Active" (id 12) (at 5.08 30.48 0)
        (effects (font (size 1.524 1.524)) (justify left) hide)
      )
      (property "ki_keywords" "828-1058-1-ND" (id 13) (at 0 0 0)
        (effects (font (size 1.27 1.27)) hide)
      )
      (property "ki_description" "IMU ACCEL/GYRO/MAG I2C 28LGA" (id 14) (at 0 0 0)
        (effects (font (size 1.27 1.27)) hide)
      )
      (symbol "BNO055_0_1"
        (rectangle (start -15.24 12.7) (end 15.24 -17.78)
          (stroke (width 0) (type default) (color 0 0 0 0))
          (fill (type background))
        )
      )
      (symbol "BNO055_1_1"
        (pin no_connect line (at -15.24 -10.16 0) (length 2.54) hide
          (name "PIN1" (effects (font (size 1.27 1.27))))
          (number "1" (effects (font (size 1.27 1.27))))
        )
        (pin output line (at 17.78 10.16 180) (length 2.54)
          (name "BL_IND" (effects (font (size 1.27 1.27))))
          (number "10" (effects (font (size 1.27 1.27))))
        )
        (pin input line (at -17.78 -7.62 0) (length 2.54)
          (name "RESET" (effects (font (size 1.27 1.27))))
          (number "11" (effects (font (size 1.27 1.27))))
        )
        (pin no_connect line (at 15.24 -16.51 180) (length 2.54) hide
          (name "PIN12" (effects (font (size 1.27 1.27))))
          (number "12" (effects (font (size 1.27 1.27))))
        )
        (pin no_connect line (at 15.24 -13.97 180) (length 2.54) hide
          (name "PIN13" (effects (font (size 1.27 1.27))))
          (number "13" (effects (font (size 1.27 1.27))))
        )
        (pin output line (at 17.78 7.62 180) (length 2.54)
          (name "INT" (effects (font (size 1.27 1.27))))
          (number "14" (effects (font (size 1.27 1.27))))
        )
        (pin power_in line (at -2.54 -20.32 90) (length 2.54)
          (name "PIN15" (effects (font (size 1.27 1.27))))
          (number "15" (effects (font (size 1.27 1.27))))
        )
        (pin power_in line (at 0 -20.32 90) (length 2.54)
          (name "PIN16" (effects (font (size 1.27 1.27))))
          (number "16" (effects (font (size 1.27 1.27))))
        )
        (pin input line (at -17.78 2.54 0) (length 2.54)
          (name "COM3" (effects (font (size 1.27 1.27))))
          (number "17" (effects (font (size 1.27 1.27))))
        )
        (pin input line (at -17.78 0 0) (length 2.54)
          (name "COM2" (effects (font (size 1.27 1.27))))
          (number "18" (effects (font (size 1.27 1.27))))
        )
        (pin input line (at -17.78 -2.54 0) (length 2.54)
          (name "COM1" (effects (font (size 1.27 1.27))))
          (number "19" (effects (font (size 1.27 1.27))))
        )
        (pin power_in line (at -5.08 -20.32 90) (length 2.54)
          (name "GND" (effects (font (size 1.27 1.27))))
          (number "2" (effects (font (size 1.27 1.27))))
        )
        (pin input line (at -17.78 -5.08 0) (length 2.54)
          (name "COM0" (effects (font (size 1.27 1.27))))
          (number "20" (effects (font (size 1.27 1.27))))
        )
        (pin no_connect line (at 15.24 -11.43 180) (length 2.54) hide
          (name "PIN21" (effects (font (size 1.27 1.27))))
          (number "21" (effects (font (size 1.27 1.27))))
        )
        (pin no_connect line (at 15.24 -8.89 180) (length 2.54) hide
          (name "PIN22" (effects (font (size 1.27 1.27))))
          (number "22" (effects (font (size 1.27 1.27))))
        )
        (pin no_connect line (at 15.24 -6.35 180) (length 2.54) hide
          (name "PIN23" (effects (font (size 1.27 1.27))))
          (number "23" (effects (font (size 1.27 1.27))))
        )
        (pin no_connect line (at 15.24 -3.81 180) (length 2.54) hide
          (name "PIN24" (effects (font (size 1.27 1.27))))
          (number "24" (effects (font (size 1.27 1.27))))
        )
        (pin power_in line (at 2.54 -20.32 90) (length 2.54)
          (name "GNDIO" (effects (font (size 1.27 1.27))))
          (number "25" (effects (font (size 1.27 1.27))))
        )
        (pin output line (at 17.78 5.08 180) (length 2.54)
          (name "XOUT32" (effects (font (size 1.27 1.27))))
          (number "26" (effects (font (size 1.27 1.27))))
        )
        (pin input line (at 17.78 2.54 180) (length 2.54)
          (name "XIN32" (effects (font (size 1.27 1.27))))
          (number "27" (effects (font (size 1.27 1.27))))
        )
        (pin power_in line (at 5.08 15.24 270) (length 2.54)
          (name "VDDIO" (effects (font (size 1.27 1.27))))
          (number "28" (effects (font (size 1.27 1.27))))
        )
        (pin power_in line (at 2.54 15.24 270) (length 2.54)
          (name "VDD" (effects (font (size 1.27 1.27))))
          (number "3" (effects (font (size 1.27 1.27))))
        )
        (pin input line (at -17.78 10.16 0) (length 2.54)
          (name "BOOT_LOAD" (effects (font (size 1.27 1.27))))
          (number "4" (effects (font (size 1.27 1.27))))
        )
        (pin input line (at -17.78 7.62 0) (length 2.54)
          (name "PS1" (effects (font (size 1.27 1.27))))
          (number "5" (effects (font (size 1.27 1.27))))
        )
        (pin input line (at -17.78 5.08 0) (length 2.54)
          (name "PS0" (effects (font (size 1.27 1.27))))
          (number "6" (effects (font (size 1.27 1.27))))
        )
        (pin no_connect line (at -15.24 -12.7 0) (length 2.54) hide
          (name "PIN7" (effects (font (size 1.27 1.27))))
          (number "7" (effects (font (size 1.27 1.27))))
        )
        (pin no_connect line (at -15.24 -15.24 0) (length 2.54) hide
          (name "PIN8" (effects (font (size 1.27 1.27))))
          (number "8" (effects (font (size 1.27 1.27))))
        )
        (pin passive line (at 17.78 -1.27 180) (length 2.54)
          (name "CAP" (effects (font (size 1.27 1.27))))
          (number "9" (effects (font (size 1.27 1.27))))
        )
      )
    )
    (symbol "power:+3.3V" (power) (pin_names (offset 0)) (in_bom yes) (on_board yes)
      (property "Reference" "#PWR" (id 0) (at 0 -3.81 0)
        (effects (font (size 1.27 1.27)) hide)
      )
      (property "Value" "+3.3V" (id 1) (at 0 3.556 0)
        (effects (font (size 1.27 1.27)))
      )
      (property "Footprint" "" (id 2) (at 0 0 0)
        (effects (font (size 1.27 1.27)) hide)
      )
      (property "Datasheet" "" (id 3) (at 0 0 0)
        (effects (font (size 1.27 1.27)) hide)
      )
      (property "ki_keywords" "power-flag" (id 4) (at 0 0 0)
        (effects (font (size 1.27 1.27)) hide)
      )
      (property "ki_description" "Power symbol creates a global label with name \"+3.3V\"" (id 5) (at 0 0 0)
        (effects (font (size 1.27 1.27)) hide)
      )
      (symbol "+3.3V_0_1"
        (polyline
          (pts
            (xy -0.762 1.27)
            (xy 0 2.54)
          )
          (stroke (width 0) (type default) (color 0 0 0 0))
          (fill (type none))
        )
        (polyline
          (pts
            (xy 0 0)
            (xy 0 2.54)
          )
          (stroke (width 0) (type default) (color 0 0 0 0))
          (fill (type none))
        )
        (polyline
          (pts
            (xy 0 2.54)
            (xy 0.762 1.27)
          )
          (stroke (width 0) (type default) (color 0 0 0 0))
          (fill (type none))
        )
      )
      (symbol "+3.3V_1_1"
        (pin power_in line (at 0 0 90) (length 0) hide
          (name "+3V3" (effects (font (size 1.27 1.27))))
          (number "1" (effects (font (size 1.27 1.27))))
        )
      )
    )
    (symbol "power:GND" (power) (pin_names (offset 0)) (in_bom yes) (on_board yes)
      (property "Reference" "#PWR" (id 0) (at 0 -6.35 0)
        (effects (font (size 1.27 1.27)) hide)
      )
      (property "Value" "GND" (id 1) (at 0 -3.81 0)
        (effects (font (size 1.27 1.27)))
      )
      (property "Footprint" "" (id 2) (at 0 0 0)
        (effects (font (size 1.27 1.27)) hide)
      )
      (property "Datasheet" "" (id 3) (at 0 0 0)
        (effects (font (size 1.27 1.27)) hide)
      )
      (property "ki_keywords" "power-flag" (id 4) (at 0 0 0)
        (effects (font (size 1.27 1.27)) hide)
      )
      (property "ki_description" "Power symbol creates a global label with name \"GND\" , ground" (id 5) (at 0 0 0)
        (effects (font (size 1.27 1.27)) hide)
      )
      (symbol "GND_0_1"
        (polyline
          (pts
            (xy 0 0)
            (xy 0 -1.27)
            (xy 1.27 -1.27)
            (xy 0 -2.54)
            (xy -1.27 -1.27)
            (xy 0 -1.27)
          )
          (stroke (width 0) (type default) (color 0 0 0 0))
          (fill (type none))
        )
      )
      (symbol "GND_1_1"
        (pin power_in line (at 0 0 270) (length 0) hide
          (name "GND" (effects (font (size 1.27 1.27))))
          (number "1" (effects (font (size 1.27 1.27))))
        )
      )
    )
    (symbol "roket-rescue:Cap-805_cap" (pin_names (offset 1.016) hide) (in_bom yes) (on_board yes)
      (property "Reference" "C" (id 0) (at 0 3.81 0)
        (effects (font (size 1.27 1.27)) (justify left bottom))
      )
      (property "Value" "Cap-805_cap" (id 1) (at 0 -5.08 0)
        (effects (font (size 1.27 1.27)) (justify left bottom))
      )
      (property "Footprint" "CAPC2012X135N" (id 2) (at 0 0 0)
        (effects (font (size 1.27 1.27)) (justify left bottom) hide)
      )
      (property "Datasheet" "" (id 3) (at 0 0 0)
        (effects (font (size 1.27 1.27)) (justify left bottom) hide)
      )
      (property "ki_locked" "" (id 4) (at 0 0 0)
        (effects (font (size 1.27 1.27)))
      )
      (symbol "Cap-805_cap_0_0"
        (rectangle (start 0 -1.905) (end 0.635 1.905)
          (stroke (width 0) (type default) (color 0 0 0 0))
          (fill (type outline))
        )
        (rectangle (start 1.905 -1.905) (end 2.54 1.905)
          (stroke (width 0) (type default) (color 0 0 0 0))
          (fill (type outline))
        )
        (pin passive line (at 5.08 0 180) (length 2.54)
          (name "~" (effects (font (size 1.016 1.016))))
          (number "1" (effects (font (size 1.016 1.016))))
        )
        (pin passive line (at -2.54 0 0) (length 2.54)
          (name "~" (effects (font (size 1.016 1.016))))
          (number "2" (effects (font (size 1.016 1.016))))
        )
      )
    )
  )

  (junction (at 151.13 113.03) (diameter 0) (color 0 0 0 0)
    (uuid 060eee2f-6119-4847-91b9-13b1fd763a44)
  )
  (junction (at 152.4 113.03) (diameter 0) (color 0 0 0 0)
    (uuid 10f8aff3-f03e-4f99-8b25-11d76468e7d3)
  )
  (junction (at 133.35 86.36) (diameter 0) (color 0 0 0 0)
    (uuid 12583d6f-03ad-4e56-b787-21dc6230cc96)
  )
  (junction (at 157.48 62.23) (diameter 0) (color 0 0 0 0)
    (uuid 24c5ecd1-ce76-4fef-a36b-7cc061000715)
  )
  (junction (at 157.48 69.85) (diameter 0) (color 0 0 0 0)
    (uuid 256baabc-efc4-4911-96b1-8410a8a9e417)
  )
  (junction (at 133.35 83.82) (diameter 0) (color 0 0 0 0)
    (uuid 299fe78b-efa2-41b7-b427-357cf455b75b)
  )
  (junction (at 149.86 113.03) (diameter 0) (color 0 0 0 0)
    (uuid 36048437-b696-4f39-afcf-c465fc535715)
  )
  (junction (at 179.07 88.9) (diameter 0) (color 0 0 0 0)
    (uuid 6ce0b8ec-bc93-42d9-b590-0cc3f8fc3110)
  )
  (junction (at 133.35 88.9) (diameter 0) (color 0 0 0 0)
    (uuid 6f6592bd-188c-487d-9482-c2b5c26ce42a)
  )
  (junction (at 185.42 101.6) (diameter 0) (color 0 0 0 0)
    (uuid c2b0d3e7-2655-4f22-8b6f-b149e8f89482)
  )
  (junction (at 190.5 88.9) (diameter 0) (color 0 0 0 0)
    (uuid e05c2f14-466b-4237-b3b2-f1c1fbaf20c1)
  )

  (wire (pts (xy 190.5 88.9) (xy 190.5 92.71))
    (stroke (width 0) (type default) (color 0 0 0 0))
    (uuid 197bd5fb-162a-473f-84ec-1273d7544e37)
  )
  (wire (pts (xy 157.48 60.96) (xy 157.48 62.23))
    (stroke (width 0) (type default) (color 0 0 0 0))
    (uuid 2139c0d5-fd19-4edc-98d3-72c046a88978)
  )
  (wire (pts (xy 170.18 81.28) (xy 172.72 81.28))
    (stroke (width 0) (type default) (color 0 0 0 0))
    (uuid 24e4a57e-99e0-4031-8652-31149ae3a514)
  )
  (wire (pts (xy 133.35 86.36) (xy 133.35 83.82))
    (stroke (width 0) (type default) (color 0 0 0 0))
    (uuid 28925a18-0af7-4f5a-acaa-5511131722f8)
  )
  (wire (pts (xy 128.27 86.36) (xy 128.27 83.82))
    (stroke (width 0) (type default) (color 0 0 0 0))
    (uuid 28d78115-fea6-4830-8de3-f23c75aa668b)
  )
  (wire (pts (xy 134.62 99.06) (xy 125.73 99.06))
    (stroke (width 0) (type default) (color 0 0 0 0))
    (uuid 2b7c5be2-e64e-4dbb-8dd1-09d6cee96234)
  )
  (wire (pts (xy 190.5 88.9) (xy 186.69 88.9))
    (stroke (width 0) (type default) (color 0 0 0 0))
    (uuid 304a2776-e5cb-43bf-beee-df0cae3d75c9)
  )
  (wire (pts (xy 173.99 107.95) (xy 173.99 106.68))
    (stroke (width 0) (type default) (color 0 0 0 0))
    (uuid 32e2ff53-0681-4af9-a4df-feb7a15e463f)
  )
  (wire (pts (xy 149.86 111.76) (xy 149.86 113.03))
    (stroke (width 0) (type default) (color 0 0 0 0))
    (uuid 38aa3f2e-9fe0-4dd8-b2b2-26118781650d)
  )
  (wire (pts (xy 133.35 91.44) (xy 133.35 88.9))
    (stroke (width 0) (type default) (color 0 0 0 0))
    (uuid 3c924922-e8d2-432c-8f63-3c0f399a7dde)
  )
  (wire (pts (xy 133.35 88.9) (xy 133.35 86.36))
    (stroke (width 0) (type default) (color 0 0 0 0))
    (uuid 3d3b8846-d3f5-4798-8bde-8f3581fdcc01)
  )
  (wire (pts (xy 157.48 62.23) (xy 170.18 62.23))
    (stroke (width 0) (type default) (color 0 0 0 0))
    (uuid 43a24829-6080-49a6-bcfc-fda7f0d3b5e7)
  )
  (wire (pts (xy 133.35 88.9) (xy 134.62 88.9))
    (stroke (width 0) (type default) (color 0 0 0 0))
    (uuid 43a3d16c-4e0e-4872-ab49-0dd690a5ee39)
  )
  (wire (pts (xy 170.18 88.9) (xy 179.07 88.9))
    (stroke (width 0) (type default) (color 0 0 0 0))
    (uuid 49bbc9c8-51c3-4cce-a4fb-e7c5e9b6369b)
  )
  (wire (pts (xy 128.27 83.82) (xy 133.35 83.82))
    (stroke (width 0) (type default) (color 0 0 0 0))
    (uuid 4a72d09f-d07f-416b-8c2e-c642370b2c54)
  )
  (wire (pts (xy 179.07 100.33) (xy 179.07 101.6))
    (stroke (width 0) (type default) (color 0 0 0 0))
    (uuid 4abbd5e6-cf35-4abf-8392-437ae96e575f)
  )
  (wire (pts (xy 173.99 92.71) (xy 173.99 99.06))
    (stroke (width 0) (type default) (color 0 0 0 0))
    (uuid 4e44d361-4681-4235-aec2-42b869214d1a)
  )
  (wire (pts (xy 170.18 62.23) (xy 170.18 63.5))
    (stroke (width 0) (type default) (color 0 0 0 0))
    (uuid 4e6cc38e-4269-439d-be9d-f43f88d94df9)
  )
  (wire (pts (xy 157.48 62.23) (xy 157.48 69.85))
    (stroke (width 0) (type default) (color 0 0 0 0))
    (uuid 511f1f51-9702-4fca-9690-7d999766aea8)
  )
  (wire (pts (xy 157.48 76.2) (xy 157.48 69.85))
    (stroke (width 0) (type default) (color 0 0 0 0))
    (uuid 5a27044c-d542-45a6-b16f-59473d9a8d3c)
  )
  (wire (pts (xy 134.62 91.44) (xy 133.35 91.44))
    (stroke (width 0) (type default) (color 0 0 0 0))
    (uuid 5a2e22df-3dc6-44c3-bc13-82a0c76ab18b)
  )
  (wire (pts (xy 147.32 113.03) (xy 147.32 111.76))
    (stroke (width 0) (type default) (color 0 0 0 0))
    (uuid 6fe434db-8eba-4aa7-914b-a1d7f236ec6f)
  )
  (wire (pts (xy 185.42 101.6) (xy 190.5 101.6))
    (stroke (width 0) (type default) (color 0 0 0 0))
    (uuid 6ff9a29c-5f57-4849-b87a-b96691b80fd7)
  )
  (wire (pts (xy 133.35 83.82) (xy 134.62 83.82))
    (stroke (width 0) (type default) (color 0 0 0 0))
    (uuid 7500a369-c227-4fff-a7df-814253c07d86)
  )
  (wire (pts (xy 152.4 113.03) (xy 151.13 113.03))
    (stroke (width 0) (type default) (color 0 0 0 0))
    (uuid 7f63199d-b141-47b0-ab46-1c6e1699a4bf)
  )
  (wire (pts (xy 154.94 76.2) (xy 154.94 69.85))
    (stroke (width 0) (type default) (color 0 0 0 0))
    (uuid 8a2e2251-fa65-4e8b-9af6-b1eeebc73b13)
  )
  (wire (pts (xy 179.07 88.9) (xy 179.07 92.71))
    (stroke (width 0) (type default) (color 0 0 0 0))
    (uuid 9562e429-1cb6-4d69-8c47-3d898635f4cd)
  )
  (wire (pts (xy 152.4 113.03) (xy 154.94 113.03))
    (stroke (width 0) (type default) (color 0 0 0 0))
    (uuid 979eef80-a66b-4813-a4c3-d239b113afd9)
  )
  (wire (pts (xy 190.5 88.9) (xy 190.5 86.36))
    (stroke (width 0) (type default) (color 0 0 0 0))
    (uuid 97e0d8f2-3fb5-4132-bc5b-5e7a03ef2bdb)
  )
  (wire (pts (xy 149.86 113.03) (xy 147.32 113.03))
    (stroke (width 0) (type default) (color 0 0 0 0))
    (uuid a1aec8ac-8ba0-493b-aaa8-635c4ee838e1)
  )
  (wire (pts (xy 133.35 80.01) (xy 133.35 81.28))
    (stroke (width 0) (type default) (color 0 0 0 0))
    (uuid a3f6bd72-c0fb-467b-91cb-4fb087464d4d)
  )
  (wire (pts (xy 181.61 88.9) (xy 179.07 88.9))
    (stroke (width 0) (type default) (color 0 0 0 0))
    (uuid a976849d-8473-43a3-8e6b-e8647b768056)
  )
  (wire (pts (xy 151.13 113.03) (xy 149.86 113.03))
    (stroke (width 0) (type default) (color 0 0 0 0))
    (uuid ac09c582-8fde-45c6-b5a0-d3e3b4cb3b14)
  )
  (wire (pts (xy 154.94 69.85) (xy 157.48 69.85))
    (stroke (width 0) (type default) (color 0 0 0 0))
    (uuid b61d5fba-12dd-446b-9b20-46df956aea47)
  )
  (wire (pts (xy 154.94 111.76) (xy 154.94 113.03))
    (stroke (width 0) (type default) (color 0 0 0 0))
    (uuid b81b846e-5d8a-4e02-8769-bfb85093cf87)
  )
  (wire (pts (xy 133.35 81.28) (xy 134.62 81.28))
    (stroke (width 0) (type default) (color 0 0 0 0))
    (uuid bab06908-5e35-4648-9d1a-4fb98d293195)
  )
  (wire (pts (xy 170.18 86.36) (xy 190.5 86.36))
    (stroke (width 0) (type default) (color 0 0 0 0))
    (uuid bd521e55-86c0-432d-88c9-a311416b1fca)
  )
  (wire (pts (xy 190.5 101.6) (xy 190.5 100.33))
    (stroke (width 0) (type default) (color 0 0 0 0))
    (uuid c5bcbb39-d9db-4c75-bc10-8a41106b1b8a)
  )
  (wire (pts (xy 151.13 114.3) (xy 151.13 113.03))
    (stroke (width 0) (type default) (color 0 0 0 0))
    (uuid ce16b2dd-6b43-4884-aca4-f4ecfeb3b4e9)
  )
  (wire (pts (xy 170.18 72.39) (xy 170.18 71.12))
    (stroke (width 0) (type default) (color 0 0 0 0))
    (uuid d3d55df2-5eb7-48fe-8363-e97a84bf7b76)
  )
  (wire (pts (xy 170.18 92.71) (xy 173.99 92.71))
    (stroke (width 0) (type default) (color 0 0 0 0))
    (uuid d88713bd-2595-40cf-a3e4-4ba5e0cca373)
  )
  (wire (pts (xy 179.07 101.6) (xy 185.42 101.6))
    (stroke (width 0) (type default) (color 0 0 0 0))
    (uuid e322a7aa-80fb-4def-8e39-9bd7f70a2961)
  )
  (wire (pts (xy 125.73 99.06) (xy 125.73 97.79))
    (stroke (width 0) (type default) (color 0 0 0 0))
    (uuid ecb06702-44ee-4092-9803-5d7ae2710add)
  )
  (wire (pts (xy 152.4 111.76) (xy 152.4 113.03))
    (stroke (width 0) (type default) (color 0 0 0 0))
    (uuid f2b656da-0c7a-40f8-b4fa-73a750e45a3b)
  )
  (wire (pts (xy 185.42 102.87) (xy 185.42 101.6))
    (stroke (width 0) (type default) (color 0 0 0 0))
    (uuid f70e27c9-ac9f-4deb-bc48-e189dbbde2dd)
  )
  (wire (pts (xy 134.62 86.36) (xy 133.35 86.36))
    (stroke (width 0) (type default) (color 0 0 0 0))
    (uuid ff11bfd1-0d1b-441c-9394-3eab61e9b526)
  )

  (hierarchical_label "SCL" (shape input) (at 134.62 93.98 180)
    (effects (font (size 1.27 1.27)) (justify right))
    (uuid 7560bc7c-edc7-4ac6-9493-a5066a60c8ba)
  )
  (hierarchical_label "SDA" (shape input) (at 134.62 96.52 180)
    (effects (font (size 1.27 1.27)) (justify right))
    (uuid c8c31355-0561-40eb-bd53-45c3d347e51c)
  )

  (symbol (lib_id "power:GND") (at 170.18 72.39 0) (unit 1)
    (in_bom yes) (on_board yes)
    (uuid 01fa08a6-7be1-41f2-9d5f-9c8fd909b515)
    (property "Reference" "#PWR0106" (id 0) (at 170.18 78.74 0)
      (effects (font (size 1.27 1.27)) hide)
    )
    (property "Value" "GND" (id 1) (at 170.307 76.7842 0))
    (property "Footprint" "" (id 2) (at 170.18 72.39 0)
      (effects (font (size 1.27 1.27)) hide)
    )
    (property "Datasheet" "" (id 3) (at 170.18 72.39 0)
      (effects (font (size 1.27 1.27)) hide)
    )
    (pin "1" (uuid 4aac0332-f770-48bf-84c6-1f15cb6965e6))
  )

  (symbol (lib_id "roket-rescue:Cap-805_cap") (at 170.18 66.04 270) (unit 1)
    (in_bom yes) (on_board yes)
    (uuid 1204c0ac-59fa-44de-8b10-b01950f18222)
    (property "Reference" "C18" (id 0) (at 172.7962 66.1416 90)
      (effects (font (size 1.27 1.27)) (justify left))
    )
    (property "Value" "0.1uF" (id 1) (at 172.7962 68.453 90)
      (effects (font (size 1.27 1.27)) (justify left))
    )
    (property "Footprint" "Capacitor_SMD:C_0805_2012Metric" (id 2) (at 170.18 66.04 0)
      (effects (font (size 1.27 1.27)) (justify left bottom) hide)
    )
    (property "Datasheet" "" (id 3) (at 170.18 66.04 0)
      (effects (font (size 1.27 1.27)) (justify left bottom) hide)
    )
    (pin "1" (uuid 9c917ee8-79d7-48ac-bc50-06e14fe92704))
    (pin "2" (uuid 774c4b1d-79c0-44d6-bba4-f8afd35d4a73))
  )

  (symbol (lib_id "roket-rescue:Cap-805_cap") (at 190.5 95.25 270) (unit 1)
    (in_bom yes) (on_board yes)
    (uuid 54d92c42-b841-4026-b4bd-1a76c4565b13)
    (property "Reference" "C21" (id 0) (at 193.1162 95.3516 90)
      (effects (font (size 1.27 1.27)) (justify left))
    )
    (property "Value" "22pF" (id 1) (at 193.1162 97.663 90)
      (effects (font (size 1.27 1.27)) (justify left))
    )
    (property "Footprint" "Capacitor_SMD:C_0805_2012Metric" (id 2) (at 190.5 95.25 0)
      (effects (font (size 1.27 1.27)) (justify left bottom) hide)
    )
    (property "Datasheet" "" (id 3) (at 190.5 95.25 0)
      (effects (font (size 1.27 1.27)) (justify left bottom) hide)
    )
    (pin "1" (uuid 11e41834-5da2-4b54-880e-3eff1b27ecf2))
    (pin "2" (uuid 4996bc57-303e-4929-baf6-f9dfd735c294))
  )

  (symbol (lib_id "roket-rescue:Cap-805_cap") (at 179.07 95.25 270) (unit 1)
    (in_bom yes) (on_board yes)
    (uuid 5e5290ce-e3c0-4068-af82-c10b1b24b496)
    (property "Reference" "C20" (id 0) (at 181.6862 95.3516 90)
      (effects (font (size 1.27 1.27)) (justify left))
    )
    (property "Value" "22pF" (id 1) (at 181.6862 97.663 90)
      (effects (font (size 1.27 1.27)) (justify left))
    )
    (property "Footprint" "Capacitor_SMD:C_0805_2012Metric" (id 2) (at 179.07 95.25 0)
      (effects (font (size 1.27 1.27)) (justify left bottom) hide)
    )
    (property "Datasheet" "" (id 3) (at 179.07 95.25 0)
      (effects (font (size 1.27 1.27)) (justify left bottom) hide)
    )
    (pin "1" (uuid 3f9c5a79-662e-4ce3-bb5a-c7a88f6b8d90))
    (pin "2" (uuid 6484a6a9-3839-49ab-bd8d-bad377b40f79))
  )

  (symbol (lib_id "power:GND") (at 173.99 107.95 0) (mirror y) (unit 1)
    (in_bom yes) (on_board yes)
    (uuid 61f25a53-aec6-454b-b9b0-11fd9dff015e)
    (property "Reference" "#PWR0101" (id 0) (at 173.99 114.3 0)
      (effects (font (size 1.27 1.27)) hide)
    )
    (property "Value" "GND" (id 1) (at 173.863 112.3442 0))
    (property "Footprint" "" (id 2) (at 173.99 107.95 0)
      (effects (font (size 1.27 1.27)) hide)
    )
    (property "Datasheet" "" (id 3) (at 173.99 107.95 0)
      (effects (font (size 1.27 1.27)) hide)
    )
    (pin "1" (uuid ca941598-58c1-44e5-832c-c7a309d5cb80))
  )

  (symbol (lib_id "power:+3.3V") (at 133.35 80.01 0) (unit 1)
    (in_bom yes) (on_board yes)
    (uuid 72540010-6eeb-41f8-8225-c198bd836b5d)
    (property "Reference" "#PWR0110" (id 0) (at 133.35 83.82 0)
      (effects (font (size 1.27 1.27)) hide)
    )
    (property "Value" "+3.3V" (id 1) (at 133.731 75.6158 0))
    (property "Footprint" "" (id 2) (at 133.35 80.01 0)
      (effects (font (size 1.27 1.27)) hide)
    )
    (property "Datasheet" "" (id 3) (at 133.35 80.01 0)
      (effects (font (size 1.27 1.27)) hide)
    )
    (pin "1" (uuid e2f71434-30f8-44f2-ac15-785cd27a79e1))
  )

  (symbol (lib_id "power:GND") (at 172.72 81.28 90) (mirror x) (unit 1)
    (in_bom yes) (on_board yes)
    (uuid 7b8ee384-453e-46c3-b18d-f15559f6bfd4)
    (property "Reference" "#PWR0113" (id 0) (at 179.07 81.28 0)
      (effects (font (size 1.27 1.27)) hide)
    )
    (property "Value" "GND" (id 1) (at 177.1142 81.407 0))
    (property "Footprint" "" (id 2) (at 172.72 81.28 0)
      (effects (font (size 1.27 1.27)) hide)
    )
    (property "Datasheet" "" (id 3) (at 172.72 81.28 0)
      (effects (font (size 1.27 1.27)) hide)
    )
    (pin "1" (uuid 28cacd2a-5925-4628-870a-347357e09c90))
  )

  (symbol (lib_id "power:GND") (at 128.27 86.36 0) (mirror y) (unit 1)
    (in_bom yes) (on_board yes)
    (uuid 90b1c8ff-5e45-4992-b587-18b056a68d6f)
    (property "Reference" "#PWR0108" (id 0) (at 128.27 92.71 0)
      (effects (font (size 1.27 1.27)) hide)
    )
    (property "Value" "GND" (id 1) (at 128.143 90.7542 0))
    (property "Footprint" "" (id 2) (at 128.27 86.36 0)
      (effects (font (size 1.27 1.27)) hide)
    )
    (property "Datasheet" "" (id 3) (at 128.27 86.36 0)
      (effects (font (size 1.27 1.27)) hide)
    )
    (pin "1" (uuid a81577b0-163c-4fdc-aa11-945f295d07de))
  )

  (symbol (lib_id "power:GND") (at 185.42 102.87 0) (unit 1)
    (in_bom yes) (on_board yes)
    (uuid 99f452c6-2c0a-42be-8862-c60e42f884a4)
    (property "Reference" "#PWR0105" (id 0) (at 185.42 109.22 0)
      (effects (font (size 1.27 1.27)) hide)
    )
    (property "Value" "GND" (id 1) (at 185.547 107.2642 0))
    (property "Footprint" "" (id 2) (at 185.42 102.87 0)
      (effects (font (size 1.27 1.27)) hide)
    )
    (property "Datasheet" "" (id 3) (at 185.42 102.87 0)
      (effects (font (size 1.27 1.27)) hide)
    )
    (pin "1" (uuid 3eb05901-ffe5-47bb-9f32-cde382bc7740))
  )

  (symbol (lib_id "power:+3.3V") (at 125.73 97.79 0) (unit 1)
    (in_bom yes) (on_board yes)
    (uuid 9b547084-c7e0-40c4-9e5b-1b70bd77fc6f)
    (property "Reference" "#PWR0111" (id 0) (at 125.73 101.6 0)
      (effects (font (size 1.27 1.27)) hide)
    )
    (property "Value" "+3.3V" (id 1) (at 126.111 93.3958 0))
    (property "Footprint" "" (id 2) (at 125.73 97.79 0)
      (effects (font (size 1.27 1.27)) hide)
    )
    (property "Datasheet" "" (id 3) (at 125.73 97.79 0)
      (effects (font (size 1.27 1.27)) hide)
    )
    (pin "1" (uuid f356780b-7769-4a78-85e6-e1375ee9b7a4))
  )

  (symbol (lib_id "SparkFun-Clocks:CRYSTAL-32.768KHZSMD-3.2X1.5") (at 184.15 88.9 0) (unit 1)
    (in_bom yes) (on_board yes)
    (uuid 9c31b948-8ab2-4b3c-9dbd-0e74f80fb8c9)
    (property "Reference" "Y1" (id 0) (at 184.15 82.55 0)
      (effects (font (size 1.143 1.143)))
    )
    (property "Value" "CRYSTAL-32.768KHZSMD-3.2X1.5" (id 1) (at 186.69 91.44 0)
      (effects (font (size 1.143 1.143)))
    )
    (property "Footprint" "CRYSTAL-SMD-3.2X1.5MM" (id 2) (at 184.15 83.82 0)
      (effects (font (size 0.508 0.508)) hide)
    )
    (property "Datasheet" "" (id 3) (at 184.15 88.9 0)
      (effects (font (size 1.27 1.27)) hide)
    )
    (property "Field4" "XTAL-13062" (id 4) (at 184.15 85.0646 0)
      (effects (font (size 1.524 1.524)))
    )
    (pin "P$1" (uuid d6365783-a883-4272-b1b4-2938c5b425f2))
    (pin "P$2" (uuid 823203cc-198a-41bf-ac37-b92c2445a8ce))
  )

  (symbol (lib_id "dk_Motion-Sensors-IMUs-Inertial-Measurement-Units:BNO055") (at 152.4 91.44 0) (unit 1)
    (in_bom yes) (on_board yes) (fields_autoplaced)
    (uuid c46a482e-bfa4-4ed5-a49f-3179709c39a1)
    (property "Reference" "U8" (id 0) (at 159.4994 74.9005 0)
      (effects (font (size 1.27 1.27)) (justify left))
    )
    (property "Value" "BNO055" (id 1) (at 159.4994 77.6756 0)
      (effects (font (size 1.27 1.27)) (justify left))
    )
    (property "Footprint" "digikey-footprints:LGA-28_5.2x3.8mm_BNO0055" (id 2) (at 157.48 86.36 0)
      (effects (font (size 1.524 1.524)) (justify left) hide)
    )
    (property "Datasheet" "https://ae-bst.resource.bosch.com/media/_tech/media/datasheets/BST-BNO055-DS000.pdf" (id 3) (at 157.48 83.82 0)
      (effects (font (size 1.524 1.524)) (justify left) hide)
    )
    (property "Digi-Key_PN" "828-1058-1-ND" (id 4) (at 157.48 81.28 0)
      (effects (font (size 1.524 1.524)) (justify left) hide)
    )
    (property "MPN" "BNO055" (id 5) (at 157.48 78.74 0)
      (effects (font (size 1.524 1.524)) (justify left) hide)
    )
    (property "Category" "Sensors, Transducers" (id 6) (at 157.48 76.2 0)
      (effects (font (size 1.524 1.524)) (justify left) hide)
    )
    (property "Family" "Motion Sensors - IMUs (Inertial Measurement Units)" (id 7) (at 157.48 73.66 0)
      (effects (font (size 1.524 1.524)) (justify left) hide)
    )
    (property "DK_Datasheet_Link" "https://ae-bst.resource.bosch.com/media/_tech/media/datasheets/BST-BNO055-DS000.pdf" (id 8) (at 157.48 71.12 0)
      (effects (font (size 1.524 1.524)) (justify left) hide)
    )
    (property "DK_Detail_Page" "/product-detail/en/bosch-sensortec/BNO055/828-1058-1-ND/6136309" (id 9) (at 157.48 68.58 0)
      (effects (font (size 1.524 1.524)) (justify left) hide)
    )
    (property "Description" "IMU ACCEL/GYRO/MAG I2C 28LGA" (id 10) (at 157.48 66.04 0)
      (effects (font (size 1.524 1.524)) (justify left) hide)
    )
    (property "Manufacturer" "Bosch Sensortec" (id 11) (at 157.48 63.5 0)
      (effects (font (size 1.524 1.524)) (justify left) hide)
    )
    (property "Status" "Active" (id 12) (at 157.48 60.96 0)
      (effects (font (size 1.524 1.524)) (justify left) hide)
    )
    (pin "1" (uuid ea3686cf-49e2-4eee-bcb5-157cb4912daa))
    (pin "10" (uuid 378cfa89-f09c-4c8c-af77-cd02a8552a7a))
    (pin "11" (uuid a7acf19a-b646-4516-930d-cc3a712cfb93))
    (pin "12" (uuid 74afa8b0-4911-4ea3-a426-5a8473b668c7))
    (pin "13" (uuid 61d94332-0639-4424-8336-c9d6898c23db))
    (pin "14" (uuid 70a0f318-f409-4702-b87e-5a45304f2899))
    (pin "15" (uuid 15050c72-4761-4f45-adda-e792a17aff6e))
    (pin "16" (uuid facc7a1b-48f7-432d-8c99-461c31468767))
    (pin "17" (uuid 46fd1604-52c4-4275-97de-e76c2fafee1c))
    (pin "18" (uuid 9d88ec4c-16ba-42ca-8cb0-a045e547e117))
    (pin "19" (uuid a53fdea7-3617-4e29-ba39-1fc4cced14bc))
    (pin "2" (uuid df6a19e9-6359-4874-b780-a07aa80e9e7b))
    (pin "20" (uuid 85fabedf-a691-4822-be4c-4415cd1d4dcf))
    (pin "21" (uuid a3f793ac-c8f8-4b6b-a1a0-68bdc0e9870a))
    (pin "22" (uuid e5588e62-caec-4581-8753-afa8055836e7))
    (pin "23" (uuid 0684fa04-c65a-4231-8382-299958b436ea))
    (pin "24" (uuid f14c9d55-3fd6-454b-8099-321d8e7884dd))
    (pin "25" (uuid 8e0100ab-5bec-42c9-88a7-058bf79e923b))
    (pin "26" (uuid c17a692d-d9c3-4fb6-bb86-5b6537026a30))
    (pin "27" (uuid 3c79fe7d-3551-4b1d-b325-197084f4b84b))
    (pin "28" (uuid fd65a7a2-1ecb-46f9-946f-192774b5bf17))
    (pin "3" (uuid a529e7ed-8f49-4463-ab2a-c3de3fcceb55))
    (pin "4" (uuid 16a6fd43-9f0e-44ac-9133-5182c45db8d2))
    (pin "5" (uuid 36d58d7d-a4b8-4f86-acfc-a10a897dba24))
    (pin "6" (uuid 87a79767-538e-4d08-8134-e360e8713c22))
    (pin "7" (uuid b425b92a-180f-40c3-80f1-78d9319641fc))
    (pin "8" (uuid 1c391ca7-e610-404c-bdff-cd84da814875))
    (pin "9" (uuid e9ea92b8-5fc3-45d6-8060-cc143ae0add8))
  )

  (symbol (lib_id "power:GND") (at 151.13 114.3 0) (mirror y) (unit 1)
    (in_bom yes) (on_board yes)
    (uuid c4e18e49-c164-46fd-90db-1436563de5d1)
    (property "Reference" "#PWR0109" (id 0) (at 151.13 120.65 0)
      (effects (font (size 1.27 1.27)) hide)
    )
    (property "Value" "GND" (id 1) (at 151.003 118.6942 0))
    (property "Footprint" "" (id 2) (at 151.13 114.3 0)
      (effects (font (size 1.27 1.27)) hide)
    )
    (property "Datasheet" "" (id 3) (at 151.13 114.3 0)
      (effects (font (size 1.27 1.27)) hide)
    )
    (pin "1" (uuid 43b4759c-7d17-46b2-a4b4-a692c8d2affc))
  )

  (symbol (lib_id "roket-rescue:Cap-805_cap") (at 173.99 101.6 90) (mirror x) (unit 1)
    (in_bom yes) (on_board yes)
    (uuid ddd7cf8f-cf56-4751-8067-d17b20f975c7)
    (property "Reference" "C19" (id 0) (at 176.53 100.33 90)
      (effects (font (size 1.27 1.27)) (justify left))
    )
    (property "Value" "0.1uF" (id 1) (at 179.07 105.41 90)
      (effects (font (size 1.27 1.27)) (justify left))
    )
    (property "Footprint" "Capacitor_SMD:C_0805_2012Metric" (id 2) (at 173.99 101.6 0)
      (effects (font (size 1.27 1.27)) (justify left bottom) hide)
    )
    (property "Datasheet" "" (id 3) (at 173.99 101.6 0)
      (effects (font (size 1.27 1.27)) (justify left bottom) hide)
    )
    (pin "1" (uuid 0dfa7599-218c-47d4-be01-a8f78bd1d912))
    (pin "2" (uuid 55c5be08-c9b3-40c5-b92f-7e638d7e63ee))
  )

  (symbol (lib_id "power:+3.3V") (at 157.48 60.96 0) (unit 1)
    (in_bom yes) (on_board yes)
    (uuid f99d01cd-fc2a-4318-be97-23081cbac8d3)
    (property "Reference" "#PWR0107" (id 0) (at 157.48 64.77 0)
      (effects (font (size 1.27 1.27)) hide)
    )
    (property "Value" "+3.3V" (id 1) (at 157.861 56.5658 0))
    (property "Footprint" "" (id 2) (at 157.48 60.96 0)
      (effects (font (size 1.27 1.27)) hide)
    )
    (property "Datasheet" "" (id 3) (at 157.48 60.96 0)
      (effects (font (size 1.27 1.27)) hide)
    )
    (pin "1" (uuid 4b9cc7fa-a2ef-48b4-b778-8447216776f9))
  )
)
