EESchema Schematic File Version 4
EELAYER 30 0
EELAYER END
$Descr A4 11693 8268
encoding utf-8
Sheet 6 15
Title ""
Date ""
Rev ""
Comp ""
Comment1 ""
Comment2 ""
Comment3 ""
Comment4 ""
$EndDescr
$Comp
L TL1015AF160QG:TL1015AF160QG S1
U 1 1 60974072
P 5250 3000
F 0 "S1" H 5250 3367 50  0000 C CNN
F 1 "TL1015AF160QG" H 5250 3276 50  0000 C CNN
F 2 "others:TL1015AF160QG" H 5250 3000 50  0001 L BNN
F 3 "" H 5250 3000 50  0001 L BNN
F 4 "F" H 5250 3000 50  0001 L BNN "PARTREV"
F 5 "E-Switch" H 5250 3000 50  0001 L BNN "MANUFACTURER"
F 6 "2.1 mm" H 5250 3000 50  0001 L BNN "MAXIMUM_PACKAGE_HEIGHT"
F 7 "Manufacturer Recommendations" H 5250 3000 50  0001 L BNN "STANDARD"
	1    5250 3000
	1    0    0    -1  
$EndComp
$Comp
L TL1015AF160QG:TL1015AF160QG S2
U 1 1 609748F7
P 5250 3850
F 0 "S2" H 5250 4217 50  0000 C CNN
F 1 "TL1015AF160QG" H 5250 4126 50  0000 C CNN
F 2 "others:TL1015AF160QG" H 5250 3850 50  0001 L BNN
F 3 "" H 5250 3850 50  0001 L BNN
F 4 "F" H 5250 3850 50  0001 L BNN "PARTREV"
F 5 "E-Switch" H 5250 3850 50  0001 L BNN "MANUFACTURER"
F 6 "2.1 mm" H 5250 3850 50  0001 L BNN "MAXIMUM_PACKAGE_HEIGHT"
F 7 "Manufacturer Recommendations" H 5250 3850 50  0001 L BNN "STANDARD"
	1    5250 3850
	1    0    0    -1  
$EndComp
$Comp
L Device:R_US R?
U 1 1 6097530F
P 7350 3100
AR Path="/609302C0/6097530F" Ref="R?"  Part="1" 
AR Path="/609304A1/6097530F" Ref="R18"  Part="1" 
AR Path="/61170FA8/6097530F" Ref="R?"  Part="1" 
F 0 "R18" V 7418 3146 50  0000 L CNN
F 1 "1K" V 7418 3055 50  0000 R CNN
F 2 "Resistor_SMD:R_0805_2012Metric" V 7390 3090 50  0001 C CNN
F 3 "~" H 7350 3100 50  0001 C CNN
	1    7350 3100
	0    -1   -1   0   
$EndComp
$Comp
L Device:LED D2
U 1 1 60975CBE
P 7800 3100
F 0 "D2" H 7793 2845 50  0000 C CNN
F 1 "LED" H 7793 2936 50  0000 C CNN
F 2 "LED_SMD:LED_0805_2012Metric" H 7800 3100 50  0001 C CNN
F 3 "~" H 7800 3100 50  0001 C CNN
	1    7800 3100
	1    0    0    -1  
$EndComp
$Comp
L power:GND #PWR?
U 1 1 609797F4
P 4800 4300
AR Path="/609302C0/609797F4" Ref="#PWR?"  Part="1" 
AR Path="/609304A1/609797F4" Ref="#PWR038"  Part="1" 
AR Path="/61170FA8/609797F4" Ref="#PWR?"  Part="1" 
F 0 "#PWR038" H 4800 4050 50  0001 C CNN
F 1 "GND" H 4805 4127 50  0000 C CNN
F 2 "" H 4800 4300 50  0001 C CNN
F 3 "" H 4800 4300 50  0001 C CNN
	1    4800 4300
	1    0    0    -1  
$EndComp
$Comp
L power:GND #PWR?
U 1 1 60979AB3
P 4850 3300
AR Path="/609302C0/60979AB3" Ref="#PWR?"  Part="1" 
AR Path="/609304A1/60979AB3" Ref="#PWR036"  Part="1" 
AR Path="/61170FA8/60979AB3" Ref="#PWR?"  Part="1" 
F 0 "#PWR036" H 4850 3050 50  0001 C CNN
F 1 "GND" H 4855 3127 50  0000 C CNN
F 2 "" H 4850 3300 50  0001 C CNN
F 3 "" H 4850 3300 50  0001 C CNN
	1    4850 3300
	1    0    0    -1  
$EndComp
Text HLabel 8150 3000 1    50   Input ~ 0
Led1
Text HLabel 5800 3000 2    50   Input ~ 0
IO0
Text HLabel 5800 3850 2    50   Input ~ 0
EN
Wire Wire Line
	4850 3000 4950 3000
Wire Wire Line
	5550 3000 5800 3000
Wire Wire Line
	5550 3850 5550 4200
Wire Wire Line
	5100 4200 4800 4200
Wire Wire Line
	4800 4200 4800 4300
Wire Wire Line
	4800 4200 4800 3850
Wire Wire Line
	4800 3850 4950 3850
Connection ~ 4800 4200
Wire Wire Line
	5550 3850 5800 3850
Wire Wire Line
	6850 3100 7200 3100
Wire Wire Line
	7500 3100 7650 3100
Wire Wire Line
	7950 3100 8150 3100
Wire Wire Line
	5550 4200 5400 4200
$Comp
L 805_cap:Cap C?
U 1 1 60978008
P 5200 4200
AR Path="/609302C0/60978008" Ref="C?"  Part="1" 
AR Path="/609304A1/60978008" Ref="C11"  Part="1" 
AR Path="/61170FA8/60978008" Ref="C?"  Part="1" 
F 0 "C11" H 5204 4303 50  0000 R BNN
F 1 "100nF" H 5295 4303 50  0000 L BNN
F 2 "Capacitor_SMD:C_0805_2012Metric" H 5200 4200 50  0001 L BNN
F 3 "" H 5200 4200 50  0001 L BNN
	1    5200 4200
	1    0    0    -1  
$EndComp
Wire Wire Line
	4850 3000 4850 3300
$Comp
L Device:R_US R?
U 1 1 61423046
P 7350 3900
AR Path="/609302C0/61423046" Ref="R?"  Part="1" 
AR Path="/609304A1/61423046" Ref="R19"  Part="1" 
AR Path="/61170FA8/61423046" Ref="R?"  Part="1" 
F 0 "R19" V 7418 3946 50  0000 L CNN
F 1 "1K" V 7418 3855 50  0000 R CNN
F 2 "Resistor_SMD:R_0805_2012Metric" V 7390 3890 50  0001 C CNN
F 3 "~" H 7350 3900 50  0001 C CNN
	1    7350 3900
	0    -1   -1   0   
$EndComp
$Comp
L Device:LED D3
U 1 1 6142304C
P 7800 3900
F 0 "D3" H 7793 3645 50  0000 C CNN
F 1 "LED" H 7793 3736 50  0000 C CNN
F 2 "LED_SMD:LED_0805_2012Metric" H 7800 3900 50  0001 C CNN
F 3 "~" H 7800 3900 50  0001 C CNN
	1    7800 3900
	1    0    0    -1  
$EndComp
Text HLabel 8150 3800 1    50   Input ~ 0
Led2
Wire Wire Line
	6850 3900 7200 3900
Wire Wire Line
	7500 3900 7650 3900
Wire Wire Line
	7950 3900 8150 3900
$Comp
L power:GND #PWR?
U 1 1 614239CF
P 6850 4750
AR Path="/609302C0/614239CF" Ref="#PWR?"  Part="1" 
AR Path="/609304A1/614239CF" Ref="#PWR040"  Part="1" 
AR Path="/61170FA8/614239CF" Ref="#PWR?"  Part="1" 
F 0 "#PWR040" H 6850 4500 50  0001 C CNN
F 1 "GND" H 6855 4577 50  0000 C CNN
F 2 "" H 6850 4750 50  0001 C CNN
F 3 "" H 6850 4750 50  0001 C CNN
	1    6850 4750
	1    0    0    -1  
$EndComp
$Comp
L Device:R_US R?
U 1 1 614239D5
P 7350 4650
AR Path="/609302C0/614239D5" Ref="R?"  Part="1" 
AR Path="/609304A1/614239D5" Ref="R20"  Part="1" 
AR Path="/61170FA8/614239D5" Ref="R?"  Part="1" 
F 0 "R20" V 7418 4696 50  0000 L CNN
F 1 "1K" V 7418 4605 50  0000 R CNN
F 2 "Resistor_SMD:R_0805_2012Metric" V 7390 4640 50  0001 C CNN
F 3 "~" H 7350 4650 50  0001 C CNN
	1    7350 4650
	0    -1   -1   0   
$EndComp
$Comp
L Device:LED D4
U 1 1 614239DB
P 7800 4650
F 0 "D4" H 7793 4395 50  0000 C CNN
F 1 "LED" H 7793 4486 50  0000 C CNN
F 2 "LED_SMD:LED_0805_2012Metric" H 7800 4650 50  0001 C CNN
F 3 "~" H 7800 4650 50  0001 C CNN
	1    7800 4650
	1    0    0    -1  
$EndComp
Wire Wire Line
	7500 4650 7650 4650
Wire Wire Line
	7950 4650 8150 4650
Wire Wire Line
	6850 4650 7200 4650
Wire Wire Line
	8150 3000 8150 3100
Wire Wire Line
	8150 3800 8150 3900
Wire Wire Line
	8150 4550 8150 4650
Wire Wire Line
	6850 4650 6850 4750
$Comp
L power:GND #PWR?
U 1 1 617C3CDD
P 6850 3900
AR Path="/609302C0/617C3CDD" Ref="#PWR?"  Part="1" 
AR Path="/609304A1/617C3CDD" Ref="#PWR0103"  Part="1" 
AR Path="/61170FA8/617C3CDD" Ref="#PWR?"  Part="1" 
F 0 "#PWR0103" H 6850 3650 50  0001 C CNN
F 1 "GND" H 6855 3727 50  0000 C CNN
F 2 "" H 6850 3900 50  0001 C CNN
F 3 "" H 6850 3900 50  0001 C CNN
	1    6850 3900
	1    0    0    -1  
$EndComp
$Comp
L power:GND #PWR?
U 1 1 617C40B8
P 6850 3100
AR Path="/609302C0/617C40B8" Ref="#PWR?"  Part="1" 
AR Path="/609304A1/617C40B8" Ref="#PWR0104"  Part="1" 
AR Path="/61170FA8/617C40B8" Ref="#PWR?"  Part="1" 
F 0 "#PWR0104" H 6850 2850 50  0001 C CNN
F 1 "GND" H 6855 2927 50  0000 C CNN
F 2 "" H 6850 3100 50  0001 C CNN
F 3 "" H 6850 3100 50  0001 C CNN
	1    6850 3100
	1    0    0    -1  
$EndComp
$Comp
L power:VCC #PWR?
U 1 1 617DC919
P 8150 4550
F 0 "#PWR?" H 8150 4400 50  0001 C CNN
F 1 "VCC" H 8165 4723 50  0000 C CNN
F 2 "" H 8150 4550 50  0001 C CNN
F 3 "" H 8150 4550 50  0001 C CNN
	1    8150 4550
	1    0    0    -1  
$EndComp
$EndSCHEMATC
