(kicad_sch (version 20211123) (generator eeschema)

  (uuid 53fab9d2-94c6-40f1-ab0a-5d6bf9af8beb)

  (paper "A4")

  (lib_symbols
    (symbol "805_cap:Cap" (pin_names (offset 1.016) hide) (in_bom yes) (on_board yes)
      (property "Reference" "C" (id 0) (at 0 3.81 0)
        (effects (font (size 1.27 1.27)) (justify left bottom))
      )
      (property "Value" "Cap" (id 1) (at 0 -5.08 0)
        (effects (font (size 1.27 1.27)) (justify left bottom))
      )
      (property "Footprint" "CAPC2012X135N" (id 2) (at 0 0 0)
        (effects (font (size 1.27 1.27)) (justify left bottom) hide)
      )
      (property "Datasheet" "" (id 3) (at 0 0 0)
        (effects (font (size 1.27 1.27)) (justify left bottom) hide)
      )
      (property "ki_locked" "" (id 4) (at 0 0 0)
        (effects (font (size 1.27 1.27)))
      )
      (symbol "Cap_0_0"
        (rectangle (start 0 -1.905) (end 0.635 1.905)
          (stroke (width 0) (type default) (color 0 0 0 0))
          (fill (type outline))
        )
        (rectangle (start 1.905 -1.905) (end 2.54 1.905)
          (stroke (width 0) (type default) (color 0 0 0 0))
          (fill (type outline))
        )
        (pin passive line (at 5.08 0 180) (length 2.54)
          (name "~" (effects (font (size 1.016 1.016))))
          (number "1" (effects (font (size 1.016 1.016))))
        )
        (pin passive line (at -2.54 0 0) (length 2.54)
          (name "~" (effects (font (size 1.016 1.016))))
          (number "2" (effects (font (size 1.016 1.016))))
        )
      )
    )
    (symbol "Device:LED" (pin_numbers hide) (pin_names (offset 1.016) hide) (in_bom yes) (on_board yes)
      (property "Reference" "D" (id 0) (at 0 2.54 0)
        (effects (font (size 1.27 1.27)))
      )
      (property "Value" "LED" (id 1) (at 0 -2.54 0)
        (effects (font (size 1.27 1.27)))
      )
      (property "Footprint" "" (id 2) (at 0 0 0)
        (effects (font (size 1.27 1.27)) hide)
      )
      (property "Datasheet" "~" (id 3) (at 0 0 0)
        (effects (font (size 1.27 1.27)) hide)
      )
      (property "ki_keywords" "LED diode" (id 4) (at 0 0 0)
        (effects (font (size 1.27 1.27)) hide)
      )
      (property "ki_description" "Light emitting diode" (id 5) (at 0 0 0)
        (effects (font (size 1.27 1.27)) hide)
      )
      (property "ki_fp_filters" "LED* LED_SMD:* LED_THT:*" (id 6) (at 0 0 0)
        (effects (font (size 1.27 1.27)) hide)
      )
      (symbol "LED_0_1"
        (polyline
          (pts
            (xy -1.27 -1.27)
            (xy -1.27 1.27)
          )
          (stroke (width 0.254) (type default) (color 0 0 0 0))
          (fill (type none))
        )
        (polyline
          (pts
            (xy -1.27 0)
            (xy 1.27 0)
          )
          (stroke (width 0) (type default) (color 0 0 0 0))
          (fill (type none))
        )
        (polyline
          (pts
            (xy 1.27 -1.27)
            (xy 1.27 1.27)
            (xy -1.27 0)
            (xy 1.27 -1.27)
          )
          (stroke (width 0.254) (type default) (color 0 0 0 0))
          (fill (type none))
        )
        (polyline
          (pts
            (xy -3.048 -0.762)
            (xy -4.572 -2.286)
            (xy -3.81 -2.286)
            (xy -4.572 -2.286)
            (xy -4.572 -1.524)
          )
          (stroke (width 0) (type default) (color 0 0 0 0))
          (fill (type none))
        )
        (polyline
          (pts
            (xy -1.778 -0.762)
            (xy -3.302 -2.286)
            (xy -2.54 -2.286)
            (xy -3.302 -2.286)
            (xy -3.302 -1.524)
          )
          (stroke (width 0) (type default) (color 0 0 0 0))
          (fill (type none))
        )
      )
      (symbol "LED_1_1"
        (pin passive line (at -3.81 0 0) (length 2.54)
          (name "K" (effects (font (size 1.27 1.27))))
          (number "1" (effects (font (size 1.27 1.27))))
        )
        (pin passive line (at 3.81 0 180) (length 2.54)
          (name "A" (effects (font (size 1.27 1.27))))
          (number "2" (effects (font (size 1.27 1.27))))
        )
      )
    )
    (symbol "Device:R_US" (pin_numbers hide) (pin_names (offset 0)) (in_bom yes) (on_board yes)
      (property "Reference" "R" (id 0) (at 2.54 0 90)
        (effects (font (size 1.27 1.27)))
      )
      (property "Value" "R_US" (id 1) (at -2.54 0 90)
        (effects (font (size 1.27 1.27)))
      )
      (property "Footprint" "" (id 2) (at 1.016 -0.254 90)
        (effects (font (size 1.27 1.27)) hide)
      )
      (property "Datasheet" "~" (id 3) (at 0 0 0)
        (effects (font (size 1.27 1.27)) hide)
      )
      (property "ki_keywords" "R res resistor" (id 4) (at 0 0 0)
        (effects (font (size 1.27 1.27)) hide)
      )
      (property "ki_description" "Resistor, US symbol" (id 5) (at 0 0 0)
        (effects (font (size 1.27 1.27)) hide)
      )
      (property "ki_fp_filters" "R_*" (id 6) (at 0 0 0)
        (effects (font (size 1.27 1.27)) hide)
      )
      (symbol "R_US_0_1"
        (polyline
          (pts
            (xy 0 -2.286)
            (xy 0 -2.54)
          )
          (stroke (width 0) (type default) (color 0 0 0 0))
          (fill (type none))
        )
        (polyline
          (pts
            (xy 0 2.286)
            (xy 0 2.54)
          )
          (stroke (width 0) (type default) (color 0 0 0 0))
          (fill (type none))
        )
        (polyline
          (pts
            (xy 0 -0.762)
            (xy 1.016 -1.143)
            (xy 0 -1.524)
            (xy -1.016 -1.905)
            (xy 0 -2.286)
          )
          (stroke (width 0) (type default) (color 0 0 0 0))
          (fill (type none))
        )
        (polyline
          (pts
            (xy 0 0.762)
            (xy 1.016 0.381)
            (xy 0 0)
            (xy -1.016 -0.381)
            (xy 0 -0.762)
          )
          (stroke (width 0) (type default) (color 0 0 0 0))
          (fill (type none))
        )
        (polyline
          (pts
            (xy 0 2.286)
            (xy 1.016 1.905)
            (xy 0 1.524)
            (xy -1.016 1.143)
            (xy 0 0.762)
          )
          (stroke (width 0) (type default) (color 0 0 0 0))
          (fill (type none))
        )
      )
      (symbol "R_US_1_1"
        (pin passive line (at 0 3.81 270) (length 1.27)
          (name "~" (effects (font (size 1.27 1.27))))
          (number "1" (effects (font (size 1.27 1.27))))
        )
        (pin passive line (at 0 -3.81 90) (length 1.27)
          (name "~" (effects (font (size 1.27 1.27))))
          (number "2" (effects (font (size 1.27 1.27))))
        )
      )
    )
    (symbol "TL1015AF160QG:TL1015AF160QG" (pin_names (offset 1.016) hide) (in_bom yes) (on_board yes)
      (property "Reference" "S" (id 0) (at -5.08 6.35 0)
        (effects (font (size 1.27 1.27)) (justify left bottom))
      )
      (property "Value" "TL1015AF160QG" (id 1) (at -5.08 -5.08 0)
        (effects (font (size 1.27 1.27)) (justify left bottom))
      )
      (property "Footprint" "SW_TL1015AF160QG" (id 2) (at 0 0 0)
        (effects (font (size 1.27 1.27)) (justify left bottom) hide)
      )
      (property "Datasheet" "" (id 3) (at 0 0 0)
        (effects (font (size 1.27 1.27)) (justify left bottom) hide)
      )
      (property "PARTREV" "F" (id 4) (at 0 0 0)
        (effects (font (size 1.27 1.27)) (justify left bottom) hide)
      )
      (property "MANUFACTURER" "E-Switch" (id 5) (at 0 0 0)
        (effects (font (size 1.27 1.27)) (justify left bottom) hide)
      )
      (property "MAXIMUM_PACKAGE_HEIGHT" "2.1 mm" (id 6) (at 0 0 0)
        (effects (font (size 1.27 1.27)) (justify left bottom) hide)
      )
      (property "STANDARD" "Manufacturer Recommendations" (id 7) (at 0 0 0)
        (effects (font (size 1.27 1.27)) (justify left bottom) hide)
      )
      (property "ki_locked" "" (id 8) (at 0 0 0)
        (effects (font (size 1.27 1.27)))
      )
      (symbol "TL1015AF160QG_0_0"
        (circle (center -2.54 0) (radius 0.254)
          (stroke (width 0.508) (type default) (color 0 0 0 0))
          (fill (type none))
        )
        (polyline
          (pts
            (xy -3.81 1.27)
            (xy 0 1.27)
          )
          (stroke (width 0.254) (type default) (color 0 0 0 0))
          (fill (type none))
        )
        (polyline
          (pts
            (xy 0 1.27)
            (xy 0 5.08)
          )
          (stroke (width 0.254) (type default) (color 0 0 0 0))
          (fill (type none))
        )
        (polyline
          (pts
            (xy 0 1.27)
            (xy 3.81 1.27)
          )
          (stroke (width 0.254) (type default) (color 0 0 0 0))
          (fill (type none))
        )
        (circle (center 2.54 0) (radius 0.254)
          (stroke (width 0.508) (type default) (color 0 0 0 0))
          (fill (type none))
        )
        (pin passive line (at -7.62 0 0) (length 5.08)
          (name "~" (effects (font (size 1.016 1.016))))
          (number "1" (effects (font (size 1.016 1.016))))
        )
        (pin passive line (at 7.62 0 180) (length 5.08)
          (name "~" (effects (font (size 1.016 1.016))))
          (number "2" (effects (font (size 1.016 1.016))))
        )
      )
    )
    (symbol "power:GND" (power) (pin_names (offset 0)) (in_bom yes) (on_board yes)
      (property "Reference" "#PWR" (id 0) (at 0 -6.35 0)
        (effects (font (size 1.27 1.27)) hide)
      )
      (property "Value" "GND" (id 1) (at 0 -3.81 0)
        (effects (font (size 1.27 1.27)))
      )
      (property "Footprint" "" (id 2) (at 0 0 0)
        (effects (font (size 1.27 1.27)) hide)
      )
      (property "Datasheet" "" (id 3) (at 0 0 0)
        (effects (font (size 1.27 1.27)) hide)
      )
      (property "ki_keywords" "power-flag" (id 4) (at 0 0 0)
        (effects (font (size 1.27 1.27)) hide)
      )
      (property "ki_description" "Power symbol creates a global label with name \"GND\" , ground" (id 5) (at 0 0 0)
        (effects (font (size 1.27 1.27)) hide)
      )
      (symbol "GND_0_1"
        (polyline
          (pts
            (xy 0 0)
            (xy 0 -1.27)
            (xy 1.27 -1.27)
            (xy 0 -2.54)
            (xy -1.27 -1.27)
            (xy 0 -1.27)
          )
          (stroke (width 0) (type default) (color 0 0 0 0))
          (fill (type none))
        )
      )
      (symbol "GND_1_1"
        (pin power_in line (at 0 0 270) (length 0) hide
          (name "GND" (effects (font (size 1.27 1.27))))
          (number "1" (effects (font (size 1.27 1.27))))
        )
      )
    )
    (symbol "power:VCC" (power) (pin_names (offset 0)) (in_bom yes) (on_board yes)
      (property "Reference" "#PWR" (id 0) (at 0 -3.81 0)
        (effects (font (size 1.27 1.27)) hide)
      )
      (property "Value" "VCC" (id 1) (at 0 3.81 0)
        (effects (font (size 1.27 1.27)))
      )
      (property "Footprint" "" (id 2) (at 0 0 0)
        (effects (font (size 1.27 1.27)) hide)
      )
      (property "Datasheet" "" (id 3) (at 0 0 0)
        (effects (font (size 1.27 1.27)) hide)
      )
      (property "ki_keywords" "power-flag" (id 4) (at 0 0 0)
        (effects (font (size 1.27 1.27)) hide)
      )
      (property "ki_description" "Power symbol creates a global label with name \"VCC\"" (id 5) (at 0 0 0)
        (effects (font (size 1.27 1.27)) hide)
      )
      (symbol "VCC_0_1"
        (polyline
          (pts
            (xy -0.762 1.27)
            (xy 0 2.54)
          )
          (stroke (width 0) (type default) (color 0 0 0 0))
          (fill (type none))
        )
        (polyline
          (pts
            (xy 0 0)
            (xy 0 2.54)
          )
          (stroke (width 0) (type default) (color 0 0 0 0))
          (fill (type none))
        )
        (polyline
          (pts
            (xy 0 2.54)
            (xy 0.762 1.27)
          )
          (stroke (width 0) (type default) (color 0 0 0 0))
          (fill (type none))
        )
      )
      (symbol "VCC_1_1"
        (pin power_in line (at 0 0 90) (length 0) hide
          (name "VCC" (effects (font (size 1.27 1.27))))
          (number "1" (effects (font (size 1.27 1.27))))
        )
      )
    )
  )

  (junction (at 121.92 106.68) (diameter 0) (color 0 0 0 0)
    (uuid 09cf240f-9626-4b71-960f-ca25ac4f2a2f)
  )
  (junction (at 140.97 97.79) (diameter 0) (color 0 0 0 0)
    (uuid 59f5732a-7a89-4d06-a9fe-4b3493d00978)
  )

  (wire (pts (xy 123.19 76.2) (xy 125.73 76.2))
    (stroke (width 0) (type default) (color 0 0 0 0))
    (uuid 01d95a00-f29e-4be8-a829-bc9df811d01f)
  )
  (wire (pts (xy 140.97 97.79) (xy 140.97 106.68))
    (stroke (width 0) (type default) (color 0 0 0 0))
    (uuid 066738df-cd65-4765-9263-3cfcbe44480c)
  )
  (wire (pts (xy 201.93 99.06) (xy 207.01 99.06))
    (stroke (width 0) (type default) (color 0 0 0 0))
    (uuid 1bc28bcf-4d90-4a9b-95cd-b64ea3575683)
  )
  (wire (pts (xy 121.92 106.68) (xy 121.92 109.22))
    (stroke (width 0) (type default) (color 0 0 0 0))
    (uuid 2731d1d6-3d2e-4943-9403-410692a95709)
  )
  (wire (pts (xy 173.99 99.06) (xy 182.88 99.06))
    (stroke (width 0) (type default) (color 0 0 0 0))
    (uuid 30cc9417-58fa-4493-8dc3-232593a9c2e1)
  )
  (wire (pts (xy 140.97 76.2) (xy 147.32 76.2))
    (stroke (width 0) (type default) (color 0 0 0 0))
    (uuid 31b49864-d5c3-4310-8056-1381014dc615)
  )
  (wire (pts (xy 129.54 106.68) (xy 121.92 106.68))
    (stroke (width 0) (type default) (color 0 0 0 0))
    (uuid 32f29d93-9f35-4714-9bea-f525ada666b5)
  )
  (wire (pts (xy 190.5 99.06) (xy 194.31 99.06))
    (stroke (width 0) (type default) (color 0 0 0 0))
    (uuid 3611314a-54f9-4632-a169-b3d500ec2c9e)
  )
  (wire (pts (xy 190.5 118.11) (xy 194.31 118.11))
    (stroke (width 0) (type default) (color 0 0 0 0))
    (uuid 4928be0c-8da2-4e77-a1d7-d88b4bc62bb5)
  )
  (wire (pts (xy 173.99 118.11) (xy 173.99 120.65))
    (stroke (width 0) (type default) (color 0 0 0 0))
    (uuid 49bcf17e-17ff-404f-b614-ee25b01661c6)
  )
  (wire (pts (xy 173.99 118.11) (xy 182.88 118.11))
    (stroke (width 0) (type default) (color 0 0 0 0))
    (uuid 53b41b3d-0d3e-4419-aeff-8809f74584a4)
  )
  (wire (pts (xy 201.93 78.74) (xy 207.01 78.74))
    (stroke (width 0) (type default) (color 0 0 0 0))
    (uuid 609597b5-1672-4ec3-a219-5a9bf528517c)
  )
  (wire (pts (xy 140.97 106.68) (xy 137.16 106.68))
    (stroke (width 0) (type default) (color 0 0 0 0))
    (uuid 7ec24b28-54f5-4ff2-94e1-350751815edc)
  )
  (wire (pts (xy 121.92 97.79) (xy 125.73 97.79))
    (stroke (width 0) (type default) (color 0 0 0 0))
    (uuid 91c8d579-e318-4b2a-996d-1703f67918bb)
  )
  (wire (pts (xy 123.19 76.2) (xy 123.19 83.82))
    (stroke (width 0) (type default) (color 0 0 0 0))
    (uuid b0b84c88-19aa-4b41-8794-227181346ae5)
  )
  (wire (pts (xy 173.99 78.74) (xy 182.88 78.74))
    (stroke (width 0) (type default) (color 0 0 0 0))
    (uuid d2b8d439-8b9d-4fc8-9424-1a9e12adc0d6)
  )
  (wire (pts (xy 207.01 115.57) (xy 207.01 118.11))
    (stroke (width 0) (type default) (color 0 0 0 0))
    (uuid d4ab17ab-e60f-4aca-8de8-1964f2be3154)
  )
  (wire (pts (xy 140.97 97.79) (xy 147.32 97.79))
    (stroke (width 0) (type default) (color 0 0 0 0))
    (uuid e3cfeecf-5d6a-438c-a795-5af8b51133d9)
  )
  (wire (pts (xy 121.92 106.68) (xy 121.92 97.79))
    (stroke (width 0) (type default) (color 0 0 0 0))
    (uuid eb27c9fa-6229-4b94-b65d-e4eb4316d46d)
  )
  (wire (pts (xy 190.5 78.74) (xy 194.31 78.74))
    (stroke (width 0) (type default) (color 0 0 0 0))
    (uuid f55dd719-adaa-4871-9aa0-e60fd2eff666)
  )
  (wire (pts (xy 201.93 118.11) (xy 207.01 118.11))
    (stroke (width 0) (type default) (color 0 0 0 0))
    (uuid fe5aebef-bff8-4ee9-88e6-fc93e8b8938e)
  )

  (hierarchical_label "IO0" (shape input) (at 147.32 76.2 0)
    (effects (font (size 1.27 1.27)) (justify left))
    (uuid 4ef23a2c-2d87-45d1-87bc-235c6436e744)
  )
  (hierarchical_label "Led1" (shape input) (at 173.99 99.06 180)
    (effects (font (size 1.27 1.27)) (justify right))
    (uuid 7cf773bb-6793-4b43-a138-dbb75b920a98)
  )
  (hierarchical_label "EN" (shape input) (at 147.32 97.79 0)
    (effects (font (size 1.27 1.27)) (justify left))
    (uuid 965df18c-0af7-4350-99c1-e814dca40f2c)
  )
  (hierarchical_label "Led2" (shape input) (at 173.99 78.74 180)
    (effects (font (size 1.27 1.27)) (justify right))
    (uuid ade3e8f9-ea9a-462f-8136-007f74119f7c)
  )

  (symbol (lib_id "TL1015AF160QG:TL1015AF160QG") (at 133.35 76.2 0) (unit 1)
    (in_bom yes) (on_board yes)
    (uuid 00000000-0000-0000-0000-000060974072)
    (property "Reference" "S1" (id 0) (at 133.35 66.8782 0))
    (property "Value" "TL1015AF160QG" (id 1) (at 133.35 69.1896 0))
    (property "Footprint" "others:TL1015AF160QG" (id 2) (at 133.35 76.2 0)
      (effects (font (size 1.27 1.27)) (justify left bottom) hide)
    )
    (property "Datasheet" "" (id 3) (at 133.35 76.2 0)
      (effects (font (size 1.27 1.27)) (justify left bottom) hide)
    )
    (property "PARTREV" "F" (id 4) (at 133.35 76.2 0)
      (effects (font (size 1.27 1.27)) (justify left bottom) hide)
    )
    (property "MANUFACTURER" "E-Switch" (id 5) (at 133.35 76.2 0)
      (effects (font (size 1.27 1.27)) (justify left bottom) hide)
    )
    (property "MAXIMUM_PACKAGE_HEIGHT" "2.1 mm" (id 6) (at 133.35 76.2 0)
      (effects (font (size 1.27 1.27)) (justify left bottom) hide)
    )
    (property "STANDARD" "Manufacturer Recommendations" (id 7) (at 133.35 76.2 0)
      (effects (font (size 1.27 1.27)) (justify left bottom) hide)
    )
    (pin "1" (uuid b89ccbe0-303a-48ea-97f3-487d3e0a9b5c))
    (pin "2" (uuid 7aff0fc0-aafb-4665-ae50-192987fee508))
  )

  (symbol (lib_id "TL1015AF160QG:TL1015AF160QG") (at 133.35 97.79 0) (unit 1)
    (in_bom yes) (on_board yes)
    (uuid 00000000-0000-0000-0000-0000609748f7)
    (property "Reference" "S2" (id 0) (at 133.35 88.4682 0))
    (property "Value" "TL1015AF160QG" (id 1) (at 133.35 90.7796 0))
    (property "Footprint" "others:TL1015AF160QG" (id 2) (at 133.35 97.79 0)
      (effects (font (size 1.27 1.27)) (justify left bottom) hide)
    )
    (property "Datasheet" "" (id 3) (at 133.35 97.79 0)
      (effects (font (size 1.27 1.27)) (justify left bottom) hide)
    )
    (property "PARTREV" "F" (id 4) (at 133.35 97.79 0)
      (effects (font (size 1.27 1.27)) (justify left bottom) hide)
    )
    (property "MANUFACTURER" "E-Switch" (id 5) (at 133.35 97.79 0)
      (effects (font (size 1.27 1.27)) (justify left bottom) hide)
    )
    (property "MAXIMUM_PACKAGE_HEIGHT" "2.1 mm" (id 6) (at 133.35 97.79 0)
      (effects (font (size 1.27 1.27)) (justify left bottom) hide)
    )
    (property "STANDARD" "Manufacturer Recommendations" (id 7) (at 133.35 97.79 0)
      (effects (font (size 1.27 1.27)) (justify left bottom) hide)
    )
    (pin "1" (uuid e6a2787e-6af1-4ceb-939b-7e7a8c3477e9))
    (pin "2" (uuid 392b4e26-4d1b-4b84-a3ba-b95a735fee82))
  )

  (symbol (lib_id "Device:R_US") (at 186.69 78.74 90) (unit 1)
    (in_bom yes) (on_board yes)
    (uuid 00000000-0000-0000-0000-00006097530f)
    (property "Reference" "R18" (id 0) (at 185.5216 77.0128 90)
      (effects (font (size 1.27 1.27)) (justify left))
    )
    (property "Value" "1K" (id 1) (at 187.833 77.0128 90)
      (effects (font (size 1.27 1.27)) (justify right))
    )
    (property "Footprint" "Resistor_SMD:R_0805_2012Metric" (id 2) (at 186.944 77.724 90)
      (effects (font (size 1.27 1.27)) hide)
    )
    (property "Datasheet" "~" (id 3) (at 186.69 78.74 0)
      (effects (font (size 1.27 1.27)) hide)
    )
    (pin "1" (uuid 4950e785-d477-4a43-871f-7cfe38fb7c95))
    (pin "2" (uuid 60fbbce7-95c6-443d-b32a-0c37d86522af))
  )

  (symbol (lib_id "Device:LED") (at 198.12 78.74 180) (unit 1)
    (in_bom yes) (on_board yes)
    (uuid 00000000-0000-0000-0000-000060975cbe)
    (property "Reference" "D2" (id 0) (at 198.2978 72.263 0))
    (property "Value" "LED" (id 1) (at 198.2978 74.5744 0))
    (property "Footprint" "LED_SMD:LED_0805_2012Metric" (id 2) (at 198.12 78.74 0)
      (effects (font (size 1.27 1.27)) hide)
    )
    (property "Datasheet" "~" (id 3) (at 198.12 78.74 0)
      (effects (font (size 1.27 1.27)) hide)
    )
    (pin "1" (uuid cde3df7d-d0de-4255-b8a9-b4eff10e33b1))
    (pin "2" (uuid 6f7ccf6a-3ac4-4f2d-b299-070642e6f0a3))
  )

  (symbol (lib_id "805_cap:Cap") (at 132.08 106.68 0) (unit 1)
    (in_bom yes) (on_board yes)
    (uuid 00000000-0000-0000-0000-000060978008)
    (property "Reference" "C11" (id 0) (at 132.1816 104.0638 0)
      (effects (font (size 1.27 1.27)) (justify right bottom))
    )
    (property "Value" "100nF" (id 1) (at 134.493 104.0638 0)
      (effects (font (size 1.27 1.27)) (justify left bottom))
    )
    (property "Footprint" "Capacitor_SMD:C_0805_2012Metric" (id 2) (at 132.08 106.68 0)
      (effects (font (size 1.27 1.27)) (justify left bottom) hide)
    )
    (property "Datasheet" "" (id 3) (at 132.08 106.68 0)
      (effects (font (size 1.27 1.27)) (justify left bottom) hide)
    )
    (pin "1" (uuid 961bdd45-82a6-4190-9a49-e35e626390ba))
    (pin "2" (uuid c015f734-f2c9-4f81-9f51-2dfbdfb5affa))
  )

  (symbol (lib_id "power:GND") (at 121.92 109.22 0) (unit 1)
    (in_bom yes) (on_board yes)
    (uuid 00000000-0000-0000-0000-0000609797f4)
    (property "Reference" "#PWR038" (id 0) (at 121.92 115.57 0)
      (effects (font (size 1.27 1.27)) hide)
    )
    (property "Value" "GND" (id 1) (at 122.047 113.6142 0))
    (property "Footprint" "" (id 2) (at 121.92 109.22 0)
      (effects (font (size 1.27 1.27)) hide)
    )
    (property "Datasheet" "" (id 3) (at 121.92 109.22 0)
      (effects (font (size 1.27 1.27)) hide)
    )
    (pin "1" (uuid a19a6ef0-f731-4c6f-b68f-2bb283c3546b))
  )

  (symbol (lib_id "power:GND") (at 123.19 83.82 0) (unit 1)
    (in_bom yes) (on_board yes)
    (uuid 00000000-0000-0000-0000-000060979ab3)
    (property "Reference" "#PWR036" (id 0) (at 123.19 90.17 0)
      (effects (font (size 1.27 1.27)) hide)
    )
    (property "Value" "GND" (id 1) (at 123.317 88.2142 0))
    (property "Footprint" "" (id 2) (at 123.19 83.82 0)
      (effects (font (size 1.27 1.27)) hide)
    )
    (property "Datasheet" "" (id 3) (at 123.19 83.82 0)
      (effects (font (size 1.27 1.27)) hide)
    )
    (pin "1" (uuid e3809521-2d60-4ed1-94c0-46e91893d3ec))
  )

  (symbol (lib_id "Device:R_US") (at 186.69 99.06 270) (unit 1)
    (in_bom yes) (on_board yes)
    (uuid 00000000-0000-0000-0000-000061423046)
    (property "Reference" "R19" (id 0) (at 187.8584 100.7872 90)
      (effects (font (size 1.27 1.27)) (justify left))
    )
    (property "Value" "1K" (id 1) (at 185.547 100.7872 90)
      (effects (font (size 1.27 1.27)) (justify right))
    )
    (property "Footprint" "Resistor_SMD:R_0805_2012Metric" (id 2) (at 186.436 100.076 90)
      (effects (font (size 1.27 1.27)) hide)
    )
    (property "Datasheet" "~" (id 3) (at 186.69 99.06 0)
      (effects (font (size 1.27 1.27)) hide)
    )
    (pin "1" (uuid b57d0b16-28a8-4add-9e66-504f1f0d2b86))
    (pin "2" (uuid c4585de6-d0b1-4162-a652-8fff21a4f59c))
  )

  (symbol (lib_id "Device:LED") (at 198.12 99.06 180) (unit 1)
    (in_bom yes) (on_board yes)
    (uuid 00000000-0000-0000-0000-00006142304c)
    (property "Reference" "D3" (id 0) (at 198.2978 92.583 0))
    (property "Value" "LED" (id 1) (at 198.2978 94.8944 0))
    (property "Footprint" "LED_SMD:LED_0805_2012Metric" (id 2) (at 198.12 99.06 0)
      (effects (font (size 1.27 1.27)) hide)
    )
    (property "Datasheet" "~" (id 3) (at 198.12 99.06 0)
      (effects (font (size 1.27 1.27)) hide)
    )
    (pin "1" (uuid 52054061-469a-4e03-a5e7-6a5b58ef4c74))
    (pin "2" (uuid ab9d3bbe-5123-45f7-b49a-5cd8c7f6b285))
  )

  (symbol (lib_id "power:GND") (at 173.99 120.65 0) (unit 1)
    (in_bom yes) (on_board yes)
    (uuid 00000000-0000-0000-0000-0000614239cf)
    (property "Reference" "#PWR040" (id 0) (at 173.99 127 0)
      (effects (font (size 1.27 1.27)) hide)
    )
    (property "Value" "GND" (id 1) (at 174.117 125.0442 0))
    (property "Footprint" "" (id 2) (at 173.99 120.65 0)
      (effects (font (size 1.27 1.27)) hide)
    )
    (property "Datasheet" "" (id 3) (at 173.99 120.65 0)
      (effects (font (size 1.27 1.27)) hide)
    )
    (pin "1" (uuid 07b42dfc-14a5-4a93-b689-09d1adea6317))
  )

  (symbol (lib_id "Device:R_US") (at 186.69 118.11 90) (unit 1)
    (in_bom yes) (on_board yes)
    (uuid 00000000-0000-0000-0000-0000614239d5)
    (property "Reference" "R20" (id 0) (at 185.5216 116.3828 90)
      (effects (font (size 1.27 1.27)) (justify left))
    )
    (property "Value" "1K" (id 1) (at 187.833 116.3828 90)
      (effects (font (size 1.27 1.27)) (justify right))
    )
    (property "Footprint" "Resistor_SMD:R_0805_2012Metric" (id 2) (at 186.944 117.094 90)
      (effects (font (size 1.27 1.27)) hide)
    )
    (property "Datasheet" "~" (id 3) (at 186.69 118.11 0)
      (effects (font (size 1.27 1.27)) hide)
    )
    (pin "1" (uuid b212fea4-98c9-4368-90cd-cea7948d620d))
    (pin "2" (uuid 9c16ae3f-53e3-4e20-84d0-d29edc6a82cb))
  )

  (symbol (lib_id "Device:LED") (at 198.12 118.11 0) (unit 1)
    (in_bom yes) (on_board yes)
    (uuid 00000000-0000-0000-0000-0000614239db)
    (property "Reference" "D4" (id 0) (at 197.9422 124.587 0))
    (property "Value" "LED" (id 1) (at 197.9422 122.2756 0))
    (property "Footprint" "LED_SMD:LED_0805_2012Metric" (id 2) (at 198.12 118.11 0)
      (effects (font (size 1.27 1.27)) hide)
    )
    (property "Datasheet" "~" (id 3) (at 198.12 118.11 0)
      (effects (font (size 1.27 1.27)) hide)
    )
    (pin "1" (uuid 50cd0395-ca29-4529-a034-c10d7ceae5ac))
    (pin "2" (uuid c6853dc7-d337-4a82-ba64-3a44648491a3))
  )

  (symbol (lib_id "power:VCC") (at 207.01 115.57 0) (unit 1)
    (in_bom yes) (on_board yes)
    (uuid 00000000-0000-0000-0000-0000617dc919)
    (property "Reference" "#PWR0112" (id 0) (at 207.01 119.38 0)
      (effects (font (size 1.27 1.27)) hide)
    )
    (property "Value" "VCC" (id 1) (at 207.391 111.1758 0))
    (property "Footprint" "" (id 2) (at 207.01 115.57 0)
      (effects (font (size 1.27 1.27)) hide)
    )
    (property "Datasheet" "" (id 3) (at 207.01 115.57 0)
      (effects (font (size 1.27 1.27)) hide)
    )
    (pin "1" (uuid 588480ad-5e61-45d2-96bf-047fb4ce13d3))
  )

  (symbol (lib_id "power:GND") (at 207.01 78.74 0) (unit 1)
    (in_bom yes) (on_board yes)
    (uuid 216567c1-0cac-4d7d-9ccb-c36e7b845cf8)
    (property "Reference" "#PWR0103" (id 0) (at 207.01 85.09 0)
      (effects (font (size 1.27 1.27)) hide)
    )
    (property "Value" "GND" (id 1) (at 207.137 83.1342 0))
    (property "Footprint" "" (id 2) (at 207.01 78.74 0)
      (effects (font (size 1.27 1.27)) hide)
    )
    (property "Datasheet" "" (id 3) (at 207.01 78.74 0)
      (effects (font (size 1.27 1.27)) hide)
    )
    (pin "1" (uuid e70b880c-8c6d-495f-8b16-f0d7a97dc2d2))
  )

  (symbol (lib_id "power:GND") (at 207.01 99.06 0) (unit 1)
    (in_bom yes) (on_board yes)
    (uuid 67f90c43-ce60-4c46-82ab-fd6499a7b92b)
    (property "Reference" "#PWR0104" (id 0) (at 207.01 105.41 0)
      (effects (font (size 1.27 1.27)) hide)
    )
    (property "Value" "GND" (id 1) (at 207.137 103.4542 0))
    (property "Footprint" "" (id 2) (at 207.01 99.06 0)
      (effects (font (size 1.27 1.27)) hide)
    )
    (property "Datasheet" "" (id 3) (at 207.01 99.06 0)
      (effects (font (size 1.27 1.27)) hide)
    )
    (pin "1" (uuid 7ae41af7-1d2a-4afb-b4ef-e7fae6033543))
  )
)
