EESchema Schematic File Version 4
EELAYER 30 0
EELAYER END
$Descr A4 11693 8268
encoding utf-8
Sheet 5 15
Title ""
Date ""
Rev ""
Comp ""
Comment1 ""
Comment2 ""
Comment3 ""
Comment4 ""
$EndDescr
$Comp
L roket-rescue:SI4202DY-T1-GE3-SI4202DY-T1-GE3 U3
U 1 1 609A766F
P 5800 4000
F 0 "U3" H 5800 4667 50  0000 C CNN
F 1 "SI4202DY-T1-GE3" H 5800 4576 50  0000 C CNN
F 2 "others:SI4202DY-T1-GE3" H 5800 4000 50  0001 L BNN
F 3 "" H 5800 4000 50  0001 L BNN
F 4 "A" H 5800 4000 50  0001 L BNN "PARTREV"
F 5 "Texas Instruments" H 5800 4000 50  0001 L BNN "MANUFACTURER"
F 6 "1.75mm" H 5800 4000 50  0001 L BNN "MAXIMUM_PACKAGE_HEIGHT"
F 7 "IPC-7351B" H 5800 4000 50  0001 L BNN "STANDARD"
	1    5800 4000
	1    0    0    -1  
$EndComp
$Comp
L Device:R_US R?
U 1 1 609A7675
P 6550 4300
AR Path="/609302C0/609A7675" Ref="R?"  Part="1" 
AR Path="/6093043F/609A7675" Ref="R15"  Part="1" 
F 0 "R15" H 6618 4346 50  0000 L CNN
F 1 "560K" H 6618 4255 50  0000 L CNN
F 2 "Resistor_SMD:R_0805_2012Metric" V 6590 4290 50  0001 C CNN
F 3 "~" H 6550 4300 50  0001 C CNN
	1    6550 4300
	1    0    0    -1  
$EndComp
$Comp
L Device:R_US R?
U 1 1 609A767B
P 6550 4750
AR Path="/609302C0/609A767B" Ref="R?"  Part="1" 
AR Path="/6093043F/609A767B" Ref="R17"  Part="1" 
F 0 "R17" H 6618 4796 50  0000 L CNN
F 1 "100K" H 6618 4705 50  0000 L CNN
F 2 "Resistor_SMD:R_0805_2012Metric" V 6590 4740 50  0001 C CNN
F 3 "~" H 6550 4750 50  0001 C CNN
	1    6550 4750
	1    0    0    -1  
$EndComp
$Comp
L Device:R_US R?
U 1 1 609A7681
P 6950 3850
AR Path="/609302C0/609A7681" Ref="R?"  Part="1" 
AR Path="/6093043F/609A7681" Ref="R14"  Part="1" 
F 0 "R14" H 7018 3896 50  0000 L CNN
F 1 "560K" H 7018 3805 50  0000 L CNN
F 2 "Resistor_SMD:R_0805_2012Metric" V 6990 3840 50  0001 C CNN
F 3 "~" H 6950 3850 50  0001 C CNN
	1    6950 3850
	1    0    0    -1  
$EndComp
$Comp
L Device:R_US R?
U 1 1 609A7687
P 6950 4300
AR Path="/609302C0/609A7687" Ref="R?"  Part="1" 
AR Path="/6093043F/609A7687" Ref="R16"  Part="1" 
F 0 "R16" H 7018 4346 50  0000 L CNN
F 1 "100K" H 7018 4255 50  0000 L CNN
F 2 "Resistor_SMD:R_0805_2012Metric" V 6990 4290 50  0001 C CNN
F 3 "~" H 6950 4300 50  0001 C CNN
	1    6950 4300
	1    0    0    -1  
$EndComp
$Comp
L Device:R_US R?
U 1 1 609A768D
P 5350 1500
AR Path="/609302C0/609A768D" Ref="R?"  Part="1" 
AR Path="/6093043F/609A768D" Ref="R8"  Part="1" 
F 0 "R8" H 5418 1546 50  0000 L CNN
F 1 "100K" H 5418 1455 50  0000 L CNN
F 2 "Resistor_SMD:R_0805_2012Metric" V 5390 1490 50  0001 C CNN
F 3 "~" H 5350 1500 50  0001 C CNN
	1    5350 1500
	1    0    0    -1  
$EndComp
$Comp
L Device:R_US R?
U 1 1 609A7699
P 7950 1500
AR Path="/609302C0/609A7699" Ref="R?"  Part="1" 
AR Path="/6093043F/609A7699" Ref="R10"  Part="1" 
F 0 "R10" H 8018 1546 50  0000 L CNN
F 1 "100K" H 8018 1455 50  0000 L CNN
F 2 "Resistor_SMD:R_0805_2012Metric" V 7990 1490 50  0001 C CNN
F 3 "~" H 7950 1500 50  0001 C CNN
	1    7950 1500
	1    0    0    -1  
$EndComp
Wire Wire Line
	6550 4450 6550 4550
Wire Wire Line
	6300 3700 6950 3700
Wire Wire Line
	6950 4000 6950 4050
$Comp
L power:GND #PWR034
U 1 1 609A76B2
P 6550 4950
F 0 "#PWR034" H 6550 4700 50  0001 C CNN
F 1 "GND" H 6555 4777 50  0000 C CNN
F 2 "" H 6550 4950 50  0001 C CNN
F 3 "" H 6550 4950 50  0001 C CNN
	1    6550 4950
	1    0    0    -1  
$EndComp
$Comp
L power:GND #PWR033
U 1 1 609A76B8
P 6950 4550
F 0 "#PWR033" H 6950 4300 50  0001 C CNN
F 1 "GND" H 6955 4377 50  0000 C CNN
F 2 "" H 6950 4550 50  0001 C CNN
F 3 "" H 6950 4550 50  0001 C CNN
	1    6950 4550
	1    0    0    -1  
$EndComp
$Comp
L power:GND #PWR031
U 1 1 609A76C4
P 5250 3700
F 0 "#PWR031" H 5250 3450 50  0001 C CNN
F 1 "GND" H 5255 3527 50  0000 C CNN
F 2 "" H 5250 3700 50  0001 C CNN
F 3 "" H 5250 3700 50  0001 C CNN
	1    5250 3700
	1    0    0    -1  
$EndComp
$Comp
L power:GND #PWR032
U 1 1 609A76D0
P 5250 4100
F 0 "#PWR032" H 5250 3850 50  0001 C CNN
F 1 "GND" H 5255 3927 50  0000 C CNN
F 2 "" H 5250 4100 50  0001 C CNN
F 3 "" H 5250 4100 50  0001 C CNN
	1    5250 4100
	1    0    0    -1  
$EndComp
Wire Wire Line
	6550 4900 6550 4950
Wire Wire Line
	6950 4450 6950 4550
Wire Wire Line
	5300 3700 5250 3700
Text HLabel 6500 4550 0    50   Input ~ 0
P2_Oku
Text HLabel 6900 4050 0    50   Input ~ 0
P1_Oku
Wire Wire Line
	6550 4550 6500 4550
Connection ~ 6550 4550
Wire Wire Line
	6550 4550 6550 4600
Wire Wire Line
	6950 4050 6900 4050
Connection ~ 6950 4050
Wire Wire Line
	6950 4050 6950 4150
Wire Wire Line
	6300 4100 6550 4100
Wire Wire Line
	6550 4100 6550 4150
Text Label 6350 3700 0    50   ~ 0
Pyro1
Text Label 6350 4100 0    50   ~ 0
Pyro2
Wire Wire Line
	5300 4100 5250 4100
Text Label 3650 1700 2    50   ~ 0
Pyro2
Text Label 3650 1900 2    50   ~ 0
Pyro1
Wire Wire Line
	3400 1700 3650 1700
Wire Wire Line
	3400 1900 3650 1900
$Comp
L power:+BATT #PWR027
U 1 1 60B73C84
P 3700 1550
F 0 "#PWR027" H 3700 1400 50  0001 C CNN
F 1 "+BATT" H 3715 1723 50  0000 C CNN
F 2 "" H 3700 1550 50  0001 C CNN
F 3 "" H 3700 1550 50  0001 C CNN
	1    3700 1550
	1    0    0    -1  
$EndComp
Wire Wire Line
	3700 1800 3400 1800
Wire Wire Line
	3700 1800 3700 1600
Connection ~ 3700 1800
Wire Wire Line
	3700 1600 3400 1600
$Comp
L 282834-6:282834-6 J2
U 1 1 60ABB1A9
P 3000 1800
F 0 "J2" H 2895 1330 50  0000 C CNN
F 1 "282834-6" H 2895 1421 50  0000 C CNN
F 2 "TerminalBlock_4Ucon:TerminalBlock_4Ucon_1x06_P3.50mm_Horizontal" H 3000 1800 50  0001 L BNN
F 3 "" H 3000 1800 50  0001 L BNN
F 4 "282834-6" H 3000 1800 50  0001 L BNN "Comment"
F 5 "Compliant with Exemptions" H 3000 1800 50  0001 L BNN "EU_RoHS_Compliance"
	1    3000 1800
	-1   0    0    1   
$EndComp
Wire Wire Line
	3400 2000 3700 2000
Wire Wire Line
	3700 1800 3700 2000
Wire Wire Line
	3700 1550 3700 1600
Connection ~ 3700 1600
$Comp
L power:GND #PWR028
U 1 1 60ACBBDF
P 3450 2150
F 0 "#PWR028" H 3450 1900 50  0001 C CNN
F 1 "GND" H 3455 1977 50  0000 C CNN
F 2 "" H 3450 2150 50  0001 C CNN
F 3 "" H 3450 2150 50  0001 C CNN
	1    3450 2150
	1    0    0    -1  
$EndComp
Wire Wire Line
	3400 2100 3450 2100
Wire Wire Line
	3450 2100 3450 2150
$Comp
L Device:Q_NMOS_DGS Q1
U 1 1 617685A0
P 5600 1900
F 0 "Q1" H 5804 1946 50  0000 L CNN
F 1 "Q_NMOS_DGS" H 5804 1855 50  0000 L CNN
F 2 "digikey-footprints:SOT-23-3" H 5800 2000 50  0001 C CNN
F 3 "~" H 5600 1900 50  0001 C CNN
	1    5600 1900
	1    0    0    -1  
$EndComp
$Comp
L Device:Q_NMOS_DGS Q2
U 1 1 6176AA5E
P 8200 1900
F 0 "Q2" H 8404 1946 50  0000 L CNN
F 1 "Q_NMOS_DGS" H 8404 1855 50  0000 L CNN
F 2 "digikey-footprints:SOT-23-3" H 8400 2000 50  0001 C CNN
F 3 "~" H 8200 1900 50  0001 C CNN
	1    8200 1900
	1    0    0    -1  
$EndComp
$Comp
L Device:R_US R?
U 1 1 6176D978
P 5700 1500
AR Path="/609302C0/6176D978" Ref="R?"  Part="1" 
AR Path="/6093043F/6176D978" Ref="R9"  Part="1" 
F 0 "R9" H 5768 1546 50  0000 L CNN
F 1 "100K" H 5768 1455 50  0000 L CNN
F 2 "Resistor_SMD:R_0805_2012Metric" V 5740 1490 50  0001 C CNN
F 3 "~" H 5700 1500 50  0001 C CNN
	1    5700 1500
	1    0    0    -1  
$EndComp
$Comp
L Device:R_US R?
U 1 1 6176E27B
P 8300 1500
AR Path="/609302C0/6176E27B" Ref="R?"  Part="1" 
AR Path="/6093043F/6176E27B" Ref="R11"  Part="1" 
F 0 "R11" H 8368 1546 50  0000 L CNN
F 1 "100K" H 8368 1455 50  0000 L CNN
F 2 "Resistor_SMD:R_0805_2012Metric" V 8340 1490 50  0001 C CNN
F 3 "~" H 8300 1500 50  0001 C CNN
	1    8300 1500
	1    0    0    -1  
$EndComp
Text Label 5800 1700 0    50   ~ 0
Ates1
Text Label 8400 1700 0    50   ~ 0
Ates2
$Comp
L power:GND #PWR030
U 1 1 6176F3C4
P 8300 2150
F 0 "#PWR030" H 8300 1900 50  0001 C CNN
F 1 "GND" H 8305 1977 50  0000 C CNN
F 2 "" H 8300 2150 50  0001 C CNN
F 3 "" H 8300 2150 50  0001 C CNN
	1    8300 2150
	1    0    0    -1  
$EndComp
$Comp
L power:GND #PWR029
U 1 1 61770EAC
P 5700 2150
F 0 "#PWR029" H 5700 1900 50  0001 C CNN
F 1 "GND" H 5705 1977 50  0000 C CNN
F 2 "" H 5700 2150 50  0001 C CNN
F 3 "" H 5700 2150 50  0001 C CNN
	1    5700 2150
	1    0    0    -1  
$EndComp
Wire Wire Line
	8300 2100 8300 2150
Wire Wire Line
	8300 1700 8300 1650
Wire Wire Line
	8300 1350 8300 1300
Wire Wire Line
	8400 1700 8300 1700
Connection ~ 8300 1700
Wire Wire Line
	5800 1700 5700 1700
Wire Wire Line
	5700 1700 5700 1650
Connection ~ 5700 1700
Wire Wire Line
	5700 1350 5700 1300
Wire Wire Line
	5400 1900 5350 1900
Wire Wire Line
	5700 2100 5700 2150
Text Label 4900 3900 0    50   ~ 0
Ates1
Text Label 4900 4300 0    50   ~ 0
Ates2
$Comp
L power:+3.3V #PWR?
U 1 1 617F12DF
P 5700 1300
AR Path="/609302F8/617F12DF" Ref="#PWR?"  Part="1" 
AR Path="/6093043F/617F12DF" Ref="#PWR025"  Part="1" 
F 0 "#PWR025" H 5700 1150 50  0001 C CNN
F 1 "+3.3V" H 5715 1473 50  0000 C CNN
F 2 "" H 5700 1300 50  0001 C CNN
F 3 "" H 5700 1300 50  0001 C CNN
	1    5700 1300
	1    0    0    -1  
$EndComp
$Comp
L power:+3.3V #PWR?
U 1 1 617F1C00
P 8300 1300
AR Path="/609302F8/617F1C00" Ref="#PWR?"  Part="1" 
AR Path="/6093043F/617F1C00" Ref="#PWR026"  Part="1" 
F 0 "#PWR026" H 8300 1150 50  0001 C CNN
F 1 "+3.3V" H 8315 1473 50  0000 C CNN
F 2 "" H 8300 1300 50  0001 C CNN
F 3 "" H 8300 1300 50  0001 C CNN
	1    8300 1300
	1    0    0    -1  
$EndComp
Wire Wire Line
	7950 1650 7950 1900
Connection ~ 7950 1900
Wire Wire Line
	7950 1900 8000 1900
Wire Wire Line
	7950 1350 8300 1350
Connection ~ 8300 1350
Wire Wire Line
	5700 1350 5350 1350
Connection ~ 5700 1350
Wire Wire Line
	5350 1650 5350 1900
Connection ~ 5350 1900
Wire Wire Line
	5300 3900 4900 3900
Wire Wire Line
	5300 4300 4900 4300
Wire Wire Line
	5350 1900 5300 1900
Wire Wire Line
	4900 1900 5000 1900
Text HLabel 4900 1900 0    50   Input ~ 0
P1_Ates
Wire Wire Line
	7900 1900 7950 1900
Wire Wire Line
	7500 1900 7600 1900
Text HLabel 7500 1900 0    50   Input ~ 0
P2_Ates
$Comp
L Device:R_US R?
U 1 1 609A7693
P 7750 1900
AR Path="/609302C0/609A7693" Ref="R?"  Part="1" 
AR Path="/609304A1/609A7693" Ref="R?"  Part="1" 
AR Path="/6093043F/609A7693" Ref="R13"  Part="1" 
F 0 "R13" V 7818 1946 50  0000 L CNN
F 1 "100" V 7818 1855 50  0000 R CNN
F 2 "Resistor_SMD:R_0805_2012Metric" V 7790 1890 50  0001 C CNN
F 3 "~" H 7750 1900 50  0001 C CNN
	1    7750 1900
	0    -1   -1   0   
$EndComp
$Comp
L Device:R_US R?
U 1 1 609A769F
P 5150 1900
AR Path="/609302C0/609A769F" Ref="R?"  Part="1" 
AR Path="/609304A1/609A769F" Ref="R?"  Part="1" 
AR Path="/6093043F/609A769F" Ref="R12"  Part="1" 
F 0 "R12" V 5218 1946 50  0000 L CNN
F 1 "100" V 5218 1855 50  0000 R CNN
F 2 "Resistor_SMD:R_0805_2012Metric" V 5190 1890 50  0001 C CNN
F 3 "~" H 5150 1900 50  0001 C CNN
	1    5150 1900
	0    -1   -1   0   
$EndComp
$EndSCHEMATC
