EESchema Schematic File Version 4
EELAYER 30 0
EELAYER END
$Descr A4 11693 8268
encoding utf-8
Sheet 9 15
Title ""
Date ""
Rev ""
Comp ""
Comment1 ""
Comment2 ""
Comment3 ""
Comment4 ""
$EndDescr
$Comp
L roket-rescue:Cap-805_cap C?
U 1 1 60ACEEBE
P 6350 3500
AR Path="/609302C0/60ACEEBE" Ref="C?"  Part="1" 
AR Path="/6093034B/60ACEEBE" Ref="C?"  Part="1" 
AR Path="/6093055C/60ACEEBE" Ref="C?"  Part="1" 
AR Path="/609305FE/60ACEEBE" Ref="C14"  Part="1" 
F 0 "C14" V 6354 3603 50  0000 L CNN
F 1 "0.1uF" V 6445 3603 50  0000 L CNN
F 2 "Capacitor_SMD:C_0805_2012Metric" H 6350 3500 50  0001 L BNN
F 3 "" H 6350 3500 50  0001 L BNN
	1    6350 3500
	0    1    1    0   
$EndComp
Wire Wire Line
	6100 3400 6350 3400
$Comp
L power:GND #PWR?
U 1 1 60ACEECC
P 6350 3850
AR Path="/6093034B/60ACEECC" Ref="#PWR?"  Part="1" 
AR Path="/6093055C/60ACEECC" Ref="#PWR?"  Part="1" 
AR Path="/609305FE/60ACEECC" Ref="#PWR048"  Part="1" 
F 0 "#PWR048" H 6350 3600 50  0001 C CNN
F 1 "GND" H 6355 3677 50  0000 C CNN
F 2 "" H 6350 3850 50  0001 C CNN
F 3 "" H 6350 3850 50  0001 C CNN
	1    6350 3850
	1    0    0    -1  
$EndComp
$Comp
L power:+3.3V #PWR?
U 1 1 60ACEED2
P 6350 3300
AR Path="/6093034B/60ACEED2" Ref="#PWR?"  Part="1" 
AR Path="/6093055C/60ACEED2" Ref="#PWR?"  Part="1" 
AR Path="/609305FE/60ACEED2" Ref="#PWR046"  Part="1" 
F 0 "#PWR046" H 6350 3150 50  0001 C CNN
F 1 "+3.3V" H 6365 3473 50  0000 C CNN
F 2 "" H 6350 3300 50  0001 C CNN
F 3 "" H 6350 3300 50  0001 C CNN
	1    6350 3300
	1    0    0    -1  
$EndComp
Wire Wire Line
	6350 3400 6350 3300
Connection ~ 6350 3400
Wire Wire Line
	6100 3800 6350 3800
Wire Wire Line
	6350 3700 6350 3800
Wire Wire Line
	6350 3800 6350 3850
Connection ~ 6350 3800
$Comp
L MS5611-cache:MS5611-01BA U5
U 1 1 61605D72
P 5700 3600
F 0 "U5" H 5700 4067 50  0000 C CNN
F 1 "MS5611-01BA" H 5700 3976 50  0000 C CNN
F 2 "Package_LGA:LGA-8_3x5mm_P1.25mm" H 5750 3250 50  0001 C CNN
F 3 "" H 5700 3600 50  0001 C CNN
	1    5700 3600
	1    0    0    -1  
$EndComp
Text HLabel 5250 3500 0    50   Input ~ 0
MOSI
Text HLabel 5250 3400 0    50   Input ~ 0
MISO
Text HLabel 5250 3600 0    50   Input ~ 0
SCLK
Text HLabel 4700 3700 0    50   Input ~ 0
CS
$Comp
L power:GND #PWR?
U 1 1 61606E38
P 5250 3850
AR Path="/6093034B/61606E38" Ref="#PWR?"  Part="1" 
AR Path="/6093055C/61606E38" Ref="#PWR?"  Part="1" 
AR Path="/609305FE/61606E38" Ref="#PWR047"  Part="1" 
F 0 "#PWR047" H 5250 3600 50  0001 C CNN
F 1 "GND" H 5255 3677 50  0000 C CNN
F 2 "" H 5250 3850 50  0001 C CNN
F 3 "" H 5250 3850 50  0001 C CNN
	1    5250 3850
	1    0    0    -1  
$EndComp
Wire Wire Line
	5300 3400 5250 3400
Wire Wire Line
	5300 3500 5250 3500
Wire Wire Line
	5300 3600 5250 3600
Wire Wire Line
	5300 3800 5250 3800
Wire Wire Line
	5250 3800 5250 3850
$Comp
L Device:R_US R?
U 1 1 616D47E1
P 4850 3500
AR Path="/609302C0/616D47E1" Ref="R?"  Part="1" 
AR Path="/609304A1/616D47E1" Ref="R?"  Part="1" 
AR Path="/6093034B/616D47E1" Ref="R?"  Part="1" 
AR Path="/609302F8/616D47E1" Ref="R?"  Part="1" 
AR Path="/609305FE/616D47E1" Ref="R21"  Part="1" 
F 0 "R21" H 4900 3550 50  0000 L CNN
F 1 "10K" H 5000 3400 50  0000 R CNN
F 2 "Resistor_SMD:R_0805_2012Metric" V 4890 3490 50  0001 C CNN
F 3 "~" H 4850 3500 50  0001 C CNN
	1    4850 3500
	-1   0    0    1   
$EndComp
$Comp
L power:+3.3V #PWR?
U 1 1 616D4F12
P 4850 3300
AR Path="/6093034B/616D4F12" Ref="#PWR?"  Part="1" 
AR Path="/6093055C/616D4F12" Ref="#PWR?"  Part="1" 
AR Path="/609305FE/616D4F12" Ref="#PWR045"  Part="1" 
F 0 "#PWR045" H 4850 3150 50  0001 C CNN
F 1 "+3.3V" H 4865 3473 50  0000 C CNN
F 2 "" H 4850 3300 50  0001 C CNN
F 3 "" H 4850 3300 50  0001 C CNN
	1    4850 3300
	1    0    0    -1  
$EndComp
Wire Wire Line
	4850 3300 4850 3350
Wire Wire Line
	4700 3700 4850 3700
Wire Wire Line
	4850 3700 4850 3650
Connection ~ 4850 3700
Wire Wire Line
	4850 3700 5300 3700
$EndSCHEMATC
